(label) @1
(label) @begin
(label) @end
(const byte*) CHARGEN CHARGEN = (byte*) 53248
(const byte*) CIA1_PORT_A CIA1_PORT_A = (byte*) 56320
(const byte*) CIA1_PORT_B CIA1_PORT_B = (byte*) 56321
(const byte) KEY_0 KEY_0 = (byte) $23
(const byte) KEY_1 KEY_1 = (byte) $38
(const byte) KEY_2 KEY_2 = (byte) $3b
(const byte) KEY_3 KEY_3 = (byte) 8
(const byte) KEY_4 KEY_4 = (byte) $b
(const byte) KEY_5 KEY_5 = (byte) $10
(const byte) KEY_6 KEY_6 = (byte) $13
(const byte) KEY_7 KEY_7 = (byte) $18
(const byte) KEY_8 KEY_8 = (byte) $1b
(const byte) KEY_9 KEY_9 = (byte) $20
(const byte) KEY_A KEY_A = (byte) $a
(const byte) KEY_ARROW_LEFT KEY_ARROW_LEFT = (byte) $39
(const byte) KEY_ARROW_UP KEY_ARROW_UP = (byte) $36
(const byte) KEY_ASTERISK KEY_ASTERISK = (byte) $31
(const byte) KEY_AT KEY_AT = (byte) $2e
(const byte) KEY_B KEY_B = (byte) $1c
(const byte) KEY_C KEY_C = (byte) $14
(const byte) KEY_COLON KEY_COLON = (byte) $2d
(const byte) KEY_COMMA KEY_COMMA = (byte) $2f
(const byte) KEY_D KEY_D = (byte) $12
(const byte) KEY_DOT KEY_DOT = (byte) $2c
(const byte) KEY_E KEY_E = (byte) $e
(const byte) KEY_EQUALS KEY_EQUALS = (byte) $35
(const byte) KEY_F KEY_F = (byte) $15
(const byte) KEY_F1 KEY_F1 = (byte) 4
(const byte) KEY_F3 KEY_F3 = (byte) 5
(const byte) KEY_F5 KEY_F5 = (byte) 6
(const byte) KEY_F7 KEY_F7 = (byte) 3
(const byte) KEY_G KEY_G = (byte) $1a
(const byte) KEY_H KEY_H = (byte) $1d
(const byte) KEY_I KEY_I = (byte) $21
(const byte) KEY_J KEY_J = (byte) $22
(const byte) KEY_K KEY_K = (byte) $25
(const byte) KEY_L KEY_L = (byte) $2a
(const byte) KEY_LSHIFT KEY_LSHIFT = (byte) $f
(const byte) KEY_M KEY_M = (byte) $24
(const byte) KEY_MINUS KEY_MINUS = (byte) $2b
(const byte) KEY_N KEY_N = (byte) $27
(const byte) KEY_O KEY_O = (byte) $26
(const byte) KEY_P KEY_P = (byte) $29
(const byte) KEY_PLUS KEY_PLUS = (byte) $28
(const byte) KEY_POUND KEY_POUND = (byte) $30
(const byte) KEY_Q KEY_Q = (byte) $3e
(const byte) KEY_R KEY_R = (byte) $11
(const byte) KEY_S KEY_S = (byte) $d
(const byte) KEY_SEMICOLON KEY_SEMICOLON = (byte) $32
(const byte) KEY_SLASH KEY_SLASH = (byte) $37
(const byte) KEY_SPACE KEY_SPACE = (byte) $3c
(const byte) KEY_T KEY_T = (byte) $16
(const byte) KEY_U KEY_U = (byte) $1e
(const byte) KEY_V KEY_V = (byte) $1f
(const byte) KEY_W KEY_W = (byte) 9
(const byte) KEY_X KEY_X = (byte) $17
(const byte) KEY_Y KEY_Y = (byte) $19
(const byte) KEY_Z KEY_Z = (byte) $c
(const byte*) PROCPORT PROCPORT = (byte*) 1
(const byte*) SCREEN SCREEN = (byte*) 1024
(const byte[]) keyboard_char_keycodes keyboard_char_keycodes = { (const byte) KEY_AT, (const byte) KEY_A, (const byte) KEY_B, (const byte) KEY_C, (const byte) KEY_D, (const byte) KEY_E, (const byte) KEY_F, (const byte) KEY_G, (const byte) KEY_H, (const byte) KEY_I, (const byte) KEY_J, (const byte) KEY_K, (const byte) KEY_L, (const byte) KEY_M, (const byte) KEY_N, (const byte) KEY_O, (const byte) KEY_P, (const byte) KEY_Q, (const byte) KEY_R, (const byte) KEY_S, (const byte) KEY_T, (const byte) KEY_U, (const byte) KEY_V, (const byte) KEY_W, (const byte) KEY_X, (const byte) KEY_Y, (const byte) KEY_Z, (byte) $3f, (const byte) KEY_POUND, (byte) $3f, (const byte) KEY_ARROW_UP, (const byte) KEY_ARROW_LEFT, (const byte) KEY_SPACE, (byte) $3f, (byte) $3f, (byte) $3f, (byte) $3f, (byte) $3f, (byte) $3f, (byte) $3f, (byte) $3f, (byte) $3f, (const byte) KEY_ASTERISK, (const byte) KEY_PLUS, (const byte) KEY_COMMA, (const byte) KEY_MINUS, (const byte) KEY_DOT, (const byte) KEY_SLASH, (const byte) KEY_0, (const byte) KEY_1, (const byte) KEY_2, (const byte) KEY_3, (const byte) KEY_4, (const byte) KEY_5, (const byte) KEY_6, (const byte) KEY_7, (const byte) KEY_8, (const byte) KEY_9, (const byte) KEY_COLON, (const byte) KEY_SEMICOLON, (byte) $3f, (const byte) KEY_EQUALS, (byte) $3f, (byte) $3f }
(byte()) keyboard_get_keycode((byte) keyboard_get_keycode::ch)
(label) keyboard_get_keycode::@return
(byte) keyboard_get_keycode::ch
(byte) keyboard_get_keycode::ch#0 reg byte x 103.0
(byte) keyboard_get_keycode::return
(byte) keyboard_get_keycode::return#0 reg byte a 34.33333333333333
(byte) keyboard_get_keycode::return#2 reg byte a 202.0
(byte()) keyboard_key_pressed((byte) keyboard_key_pressed::key)
(byte~) keyboard_key_pressed::$2 reg byte a 4.0
(label) keyboard_key_pressed::@1
(label) keyboard_key_pressed::@return
(byte) keyboard_key_pressed::colidx
(byte) keyboard_key_pressed::colidx#0 reg byte y 0.6666666666666666
(byte) keyboard_key_pressed::key
(byte) keyboard_key_pressed::key#5 reg byte x 202.0
(byte) keyboard_key_pressed::key#6 reg byte x 52.5
(byte) keyboard_key_pressed::return
(byte) keyboard_key_pressed::return#0 reg byte a 19.75
(byte) keyboard_key_pressed::return#10 reg byte a 22.0
(byte) keyboard_key_pressed::return#11 reg byte a 22.0
(byte) keyboard_key_pressed::return#12 reg byte a 22.0
(byte) keyboard_key_pressed::return#13 reg byte a 22.0
(byte) keyboard_key_pressed::return#14 reg byte a 202.0
(byte) keyboard_key_pressed::return#2 reg byte a 22.0
(byte) keyboard_key_pressed::rowidx
(byte) keyboard_key_pressed::rowidx#0 reg byte a 4.0
(const byte[8]) keyboard_matrix_col_bitmask keyboard_matrix_col_bitmask = { (byte) 1, (byte) 2, (byte) 4, (byte) 8, (byte) $10, (byte) $20, (byte) $40, (byte) $80 }
(byte()) keyboard_matrix_read((byte) keyboard_matrix_read::rowid)
(label) keyboard_matrix_read::@return
(byte) keyboard_matrix_read::return
(byte) keyboard_matrix_read::return#0 reg byte a 1.3333333333333333
(byte) keyboard_matrix_read::return#2 reg byte a 4.0
(byte) keyboard_matrix_read::row_pressed_bits
(byte) keyboard_matrix_read::rowid
(byte) keyboard_matrix_read::rowid#0 reg byte x 4.0
(const byte[8]) keyboard_matrix_row_bitmask keyboard_matrix_row_bitmask = { (byte) $fe, (byte) $fd, (byte) $fb, (byte) $f7, (byte) $ef, (byte) $df, (byte) $bf, (byte) $7f }
(void()) main()
(byte~) main::$15 reg byte a 22.0
(byte~) main::$18 reg byte a 22.0
(byte~) main::$21 reg byte a 22.0
(byte~) main::$24 reg byte a 22.0
(byte~) main::$27 reg byte a 22.0
(label) main::@1
(label) main::@10
(label) main::@11
(label) main::@12
(label) main::@13
(label) main::@14
(label) main::@15
(label) main::@16
(label) main::@17
(label) main::@18
(label) main::@19
(label) main::@2
(label) main::@20
(label) main::@21
(label) main::@22
(label) main::@23
(label) main::@24
(label) main::@25
(label) main::@26
(label) main::@27
(label) main::@28
(label) main::@29
(label) main::@3
(label) main::@30
(label) main::@31
(label) main::@4
(label) main::@5
(label) main::@6
(label) main::@7
(label) main::@8
(label) main::@9
(byte) main::ch
(byte) main::ch#1 ch zp ZP_BYTE:5 151.5
(byte) main::ch#2 ch zp ZP_BYTE:5 25.25
(byte) main::cur_pos
(byte) main::cur_pos#11 cur_pos zp ZP_BYTE:3 8.52
(byte) main::cur_pos#18 cur_pos zp ZP_BYTE:3 3.6666666666666665
(byte) main::cur_pos#20 cur_pos zp ZP_BYTE:3 3.6666666666666665
(byte) main::cur_pos#22 cur_pos zp ZP_BYTE:3 3.6666666666666665
(byte) main::cur_pos#24 cur_pos zp ZP_BYTE:3 18.666666666666664
(byte) main::i
(byte) main::i#1 i zp ZP_BYTE:2 16.5
(byte) main::i#2 i zp ZP_BYTE:2 11.0
(byte) main::key
(byte) main::key#0 reg byte a 151.5
(byte) main::pressed
(byte) main::pressed#1 reg byte a 202.0
(byte) main::pressed#2 reg byte a 202.0
(byte*) main::sc
(byte*) main::sc#1 sc zp ZP_WORD:6 22.0
(byte*) main::sc#2 sc zp ZP_WORD:6 14.666666666666666
(byte) main::shift
(byte) main::shift#9 shift zp ZP_BYTE:4 5.315789473684211
(const string) main::str str = (string) "f1"
(const string) main::str1 str1 = (string) "f3"
(const string) main::str2 str2 = (string) "f5"
(const string) main::str3 str3 = (string) "f7"
(word()) mul8u((byte) mul8u::a , (byte) mul8u::b)
(byte~) mul8u::$1 reg byte a 2002.0
(label) mul8u::@1
(label) mul8u::@2
(label) mul8u::@3
(label) mul8u::@4
(label) mul8u::@return
(byte) mul8u::a
(byte) mul8u::a#0 reg byte x 1001.0
(byte) mul8u::a#1 reg byte x 2.0
(byte) mul8u::a#2 reg byte x 667.6666666666667
(byte) mul8u::b
(const byte) mul8u::b#0 b = (byte) $a
(word) mul8u::mb
(word) mul8u::mb#1 mb zp ZP_WORD:12 2002.0
(word) mul8u::mb#2 mb zp ZP_WORD:12 429.0
(word) mul8u::res
(word) mul8u::res#1 res zp ZP_WORD:10 2002.0
(word) mul8u::res#2 res zp ZP_WORD:10 500.83333333333337
(word) mul8u::res#6 res zp ZP_WORD:10 1001.0
(word) mul8u::return
(word) mul8u::return#2 return zp ZP_WORD:10 4.0
(void()) plot_chargen((byte) plot_chargen::pos , (byte) plot_chargen::ch , (byte) plot_chargen::shift)
(word~) plot_chargen::$0 $0 zp ZP_WORD:6 4.0
(word~) plot_chargen::$1 $1 zp ZP_WORD:6 4.0
(byte~) plot_chargen::$10 reg byte a 20002.0
(word~) plot_chargen::$7 $7 zp ZP_WORD:10 4.0
(label) plot_chargen::@1
(label) plot_chargen::@2
(label) plot_chargen::@3
(label) plot_chargen::@4
(label) plot_chargen::@5
(label) plot_chargen::@6
(label) plot_chargen::@7
(label) plot_chargen::@8
(label) plot_chargen::@9
(label) plot_chargen::@return
(byte) plot_chargen::bits
(byte) plot_chargen::bits#0 bits zp ZP_BYTE:9 2002.0
(byte) plot_chargen::bits#1 bits zp ZP_BYTE:9 6667.333333333333
(byte) plot_chargen::bits#2 bits zp ZP_BYTE:9 4429.142857142857
(byte) plot_chargen::c
(byte) plot_chargen::c#2 reg byte a 10001.0
(byte) plot_chargen::ch
(byte) plot_chargen::ch#1 reg byte a 101.0
(byte) plot_chargen::ch#2 reg byte a 50.5
(byte*) plot_chargen::chargen
(byte*) plot_chargen::chargen#0 chargen zp ZP_WORD:6 3.0
(byte*) plot_chargen::chargen#1 chargen zp ZP_WORD:6 4.0
(byte*) plot_chargen::chargen#5 chargen zp ZP_WORD:6 45.68181818181818
(byte) plot_chargen::pos
(byte) plot_chargen::pos#0 reg byte y 22.0
(byte) plot_chargen::pos#1 reg byte y 67.33333333333333
(byte) plot_chargen::pos#2 reg byte y 12.666666666666664
(byte*) plot_chargen::sc
(byte*) plot_chargen::sc#0 sc zp ZP_WORD:10 4.0
(byte*) plot_chargen::sc#1 sc zp ZP_WORD:10 5250.75
(byte*) plot_chargen::sc#2 sc zp ZP_WORD:10 667.3333333333334
(byte*) plot_chargen::sc#3 sc zp ZP_WORD:10 5167.333333333333
(byte*) plot_chargen::sc#7 sc zp ZP_WORD:10 1002.0
(byte) plot_chargen::shift
(byte) plot_chargen::shift#1 reg byte x 202.0
(byte) plot_chargen::shift#2 reg byte x 20.599999999999998
(byte) plot_chargen::x
(byte) plot_chargen::x#1 reg byte x 15001.5
(byte) plot_chargen::x#2 reg byte x 2500.25
(byte) plot_chargen::y
(byte) plot_chargen::y#1 y zp ZP_BYTE:8 1501.5
(byte) plot_chargen::y#2 y zp ZP_BYTE:8 231.0
(void()) print_str_at((byte*) print_str_at::str , (byte*) print_str_at::at)
(label) print_str_at::@1
(label) print_str_at::@2
(label) print_str_at::@return
(byte*) print_str_at::at
(byte*) print_str_at::at#4 at zp ZP_WORD:12 11.0
(byte*) print_str_at::at#5 at zp ZP_WORD:12 11.666666666666666
(byte*) print_str_at::at#7 at zp ZP_WORD:12 2.0
(byte*) print_str_at::str
(byte*) print_str_at::str#4 str zp ZP_WORD:10 22.0
(byte*) print_str_at::str#5 str zp ZP_WORD:10 11.5
(byte*) print_str_at::str#7 str zp ZP_WORD:10 2.0

zp ZP_BYTE:2 [ main::i#2 main::i#1 ]
zp ZP_BYTE:3 [ main::cur_pos#18 main::cur_pos#20 main::cur_pos#22 main::cur_pos#24 main::cur_pos#11 ]
zp ZP_BYTE:4 [ main::shift#9 ]
zp ZP_BYTE:5 [ main::ch#2 main::ch#1 ]
reg byte a [ main::pressed#2 main::pressed#1 ]
reg byte a [ plot_chargen::ch#2 plot_chargen::ch#1 ]
reg byte x [ plot_chargen::shift#2 plot_chargen::shift#1 ]
reg byte y [ plot_chargen::pos#2 plot_chargen::pos#1 plot_chargen::pos#0 ]
zp ZP_WORD:6 [ plot_chargen::chargen#5 plot_chargen::chargen#0 plot_chargen::chargen#1 plot_chargen::$1 plot_chargen::$0 main::sc#2 main::sc#1 ]
zp ZP_BYTE:8 [ plot_chargen::y#2 plot_chargen::y#1 ]
zp ZP_BYTE:9 [ plot_chargen::bits#2 plot_chargen::bits#0 plot_chargen::bits#1 ]
reg byte x [ plot_chargen::x#2 plot_chargen::x#1 ]
reg byte a [ plot_chargen::c#2 ]
reg byte x [ mul8u::a#2 mul8u::a#1 mul8u::a#0 ]
reg byte x [ keyboard_key_pressed::key#6 keyboard_key_pressed::key#5 ]
zp ZP_WORD:10 [ print_str_at::str#5 print_str_at::str#7 print_str_at::str#4 plot_chargen::sc#3 plot_chargen::sc#7 plot_chargen::sc#2 plot_chargen::sc#0 plot_chargen::sc#1 plot_chargen::$7 mul8u::res#2 mul8u::res#6 mul8u::res#1 mul8u::return#2 ]
zp ZP_WORD:12 [ print_str_at::at#5 print_str_at::at#7 print_str_at::at#4 mul8u::mb#2 mul8u::mb#1 ]
reg byte a [ keyboard_key_pressed::return#2 ]
reg byte a [ main::$15 ]
reg byte a [ keyboard_key_pressed::return#10 ]
reg byte a [ main::$18 ]
reg byte a [ keyboard_key_pressed::return#11 ]
reg byte a [ main::$21 ]
reg byte a [ keyboard_key_pressed::return#12 ]
reg byte a [ main::$24 ]
reg byte a [ keyboard_key_pressed::return#13 ]
reg byte a [ main::$27 ]
reg byte x [ keyboard_get_keycode::ch#0 ]
reg byte a [ keyboard_get_keycode::return#2 ]
reg byte a [ main::key#0 ]
reg byte a [ keyboard_key_pressed::return#14 ]
reg byte a [ plot_chargen::$10 ]
reg byte a [ mul8u::$1 ]
reg byte y [ keyboard_key_pressed::colidx#0 ]
reg byte a [ keyboard_key_pressed::rowidx#0 ]
reg byte x [ keyboard_matrix_read::rowid#0 ]
reg byte a [ keyboard_matrix_read::return#2 ]
reg byte a [ keyboard_key_pressed::$2 ]
reg byte a [ keyboard_key_pressed::return#0 ]
reg byte a [ keyboard_matrix_read::return#0 ]
reg byte a [ keyboard_get_keycode::return#0 ]
