(label) @1
(label) @begin
(label) @end
(const byte*) BITMAP BITMAP = (byte*) 8192
(byte*) COSTAB
(const byte*) COSTAB#0 COSTAB = (const byte[$180]) SINTAB+(byte) $40
(const byte*) D011 D011 = (byte*) 53265
(const byte*) D018 D018 = (byte*) 53272
(const byte) RADIX::BINARY BINARY = (number) 2
(const byte) RADIX::DECIMAL DECIMAL = (number) $a
(const byte) RADIX::HEXADECIMAL HEXADECIMAL = (number) $10
(const byte) RADIX::OCTAL OCTAL = (number) 8
(const byte*) SCREEN SCREEN = (byte*) 1024
(const byte[$180]) SINTAB SINTAB = kickasm {{ .fill $180, 99.5+99.5*sin(i*2*PI/256)  }}
(const byte) VIC_BMM VIC_BMM = (byte) $20
(const byte) VIC_DEN VIC_DEN = (byte) $10
(const byte) VIC_RSEL VIC_RSEL = (byte) 8
(const byte) WHITE WHITE = (byte) 1
(word()) abs_u16((word) abs_u16::w)
(byte~) abs_u16::$0 reg byte a 4.0
(byte~) abs_u16::$1 reg byte a 4.0
(label) abs_u16::@1
(label) abs_u16::@return
(word) abs_u16::return
(word) abs_u16::return#0 return zp ZP_WORD:7 4.0
(word) abs_u16::return#1 return zp ZP_WORD:7 4.0
(word) abs_u16::return#2 return zp ZP_WORD:7 4.0
(word) abs_u16::return#4 return zp ZP_WORD:7 2.0
(word) abs_u16::w
(word) abs_u16::w#0 w zp ZP_WORD:7 4.0
(word) abs_u16::w#1 w zp ZP_WORD:7 4.0
(word) abs_u16::w#2 w zp ZP_WORD:7 2.5
(void()) bitmap_clear((byte) bitmap_clear::bgcol , (byte) bitmap_clear::fgcol)
(label) bitmap_clear::@1
(label) bitmap_clear::@return
(byte) bitmap_clear::bgcol
(byte) bitmap_clear::col
(const byte) bitmap_clear::col#0 col = (const byte) WHITE*(byte) $10
(byte) bitmap_clear::fgcol
(byte*) bitmap_gfx
(void()) bitmap_init((byte*) bitmap_init::gfx , (byte*) bitmap_init::screen)
(byte~) bitmap_init::$4 reg byte a 22.0
(byte~) bitmap_init::$5 reg byte a 22.0
(byte~) bitmap_init::$6 reg byte a 22.0
(byte~) bitmap_init::$7 $7 zp ZP_BYTE:27 5.5
(label) bitmap_init::@1
(label) bitmap_init::@2
(label) bitmap_init::@3
(label) bitmap_init::@4
(label) bitmap_init::@5
(label) bitmap_init::@6
(label) bitmap_init::@return
(byte) bitmap_init::bits
(byte) bitmap_init::bits#1 reg byte a 11.0
(byte) bitmap_init::bits#3 reg byte a 16.5
(byte) bitmap_init::bits#4 reg byte a 7.333333333333333
(byte*) bitmap_init::gfx
(byte*) bitmap_init::screen
(byte) bitmap_init::x
(byte) bitmap_init::x#1 reg byte x 16.5
(byte) bitmap_init::x#2 reg byte x 5.5
(byte) bitmap_init::y
(byte) bitmap_init::y#1 reg byte x 16.5
(byte) bitmap_init::y#2 reg byte x 5.5
(byte*) bitmap_init::yoffs
(byte*) bitmap_init::yoffs#1 yoffs zp ZP_WORD:13 22.0
(byte*) bitmap_init::yoffs#2 yoffs zp ZP_WORD:13 6.875
(byte*) bitmap_init::yoffs#4 yoffs zp ZP_WORD:13 11.0
(void()) bitmap_line((word) bitmap_line::x1 , (word) bitmap_line::y1 , (word) bitmap_line::x2 , (word) bitmap_line::y2)
(label) bitmap_line::@1
(label) bitmap_line::@10
(label) bitmap_line::@11
(label) bitmap_line::@12
(label) bitmap_line::@13
(label) bitmap_line::@14
(label) bitmap_line::@15
(label) bitmap_line::@16
(label) bitmap_line::@17
(label) bitmap_line::@18
(label) bitmap_line::@2
(label) bitmap_line::@3
(label) bitmap_line::@4
(label) bitmap_line::@5
(label) bitmap_line::@6
(label) bitmap_line::@7
(label) bitmap_line::@8
(label) bitmap_line::@9
(label) bitmap_line::@return
(word) bitmap_line::dx
(word) bitmap_line::dx#0 dx zp ZP_WORD:19 7.775
(word) bitmap_line::dy
(word) bitmap_line::dy#0 dy zp ZP_WORD:7 8.638888888888888
(word) bitmap_line::e
(word) bitmap_line::e#0 e zp ZP_WORD:3 4.0
(word) bitmap_line::e#1 e zp ZP_WORD:3 134.66666666666666
(word) bitmap_line::e#2 e zp ZP_WORD:3 202.0
(word) bitmap_line::e#3 e zp ZP_WORD:3 40.8
(word) bitmap_line::e#6 e zp ZP_WORD:3 151.5
(word) bitmap_line::e1
(word) bitmap_line::e1#0 e1 zp ZP_WORD:13 4.0
(word) bitmap_line::e1#1 e1 zp ZP_WORD:13 134.66666666666666
(word) bitmap_line::e1#2 e1 zp ZP_WORD:13 202.0
(word) bitmap_line::e1#3 e1 zp ZP_WORD:13 40.8
(word) bitmap_line::e1#6 e1 zp ZP_WORD:13 151.5
(word) bitmap_line::sx
(word) bitmap_line::sx#0 sx zp ZP_WORD:21 6.800000000000001
(word) bitmap_line::sy
(word) bitmap_line::sy#0 sy zp ZP_WORD:5 7.846153846153847
(word) bitmap_line::x
(word) bitmap_line::x#1 x zp ZP_WORD:11 101.0
(word) bitmap_line::x#12 x zp ZP_WORD:11 202.0
(word) bitmap_line::x#13 x zp ZP_WORD:11 58.00000000000001
(word) bitmap_line::x#15 x zp ZP_WORD:11 57.714285714285715
(word) bitmap_line::x#6 x zp ZP_WORD:11 102.0
(word) bitmap_line::x#7 x zp ZP_WORD:11 76.25
(word) bitmap_line::x1
(word) bitmap_line::x1#0 x1 zp ZP_WORD:11 0.7777777777777778
(word) bitmap_line::x2
(word) bitmap_line::x2#0 x2 zp ZP_WORD:15 3.515151515151515
(word) bitmap_line::y
(word) bitmap_line::y#1 y zp ZP_WORD:9 57.714285714285715
(word) bitmap_line::y#13 y zp ZP_WORD:9 202.0
(word) bitmap_line::y#15 y zp ZP_WORD:9 43.57142857142858
(word) bitmap_line::y#2 y zp ZP_WORD:9 101.0
(word) bitmap_line::y#4 y zp ZP_WORD:9 51.0
(word) bitmap_line::y#7 y zp ZP_WORD:9 202.0
(word) bitmap_line::y1
(word) bitmap_line::y1#0 y1 zp ZP_WORD:9 0.7599999999999999
(word) bitmap_line::y2
(word) bitmap_line::y2#0 y2 zp ZP_WORD:17 3.625
(void()) bitmap_plot((word) bitmap_plot::x , (byte) bitmap_plot::y)
(word~) bitmap_plot::$1 $1 zp ZP_WORD:25 4.0
(byte~) bitmap_plot::$2 reg byte a 4.0
(label) bitmap_plot::@return
(byte*) bitmap_plot::plotter
(word) bitmap_plot::plotter#0 plotter zp ZP_WORD:23 1.0
(byte*) bitmap_plot::plotter#1 plotter zp ZP_WORD:23 3.0
(word) bitmap_plot::x
(word) bitmap_plot::x#0 x zp ZP_WORD:11 4.0
(word) bitmap_plot::x#1 x zp ZP_WORD:11 202.0
(word) bitmap_plot::x#2 x zp ZP_WORD:11 4.0
(word) bitmap_plot::x#3 x zp ZP_WORD:11 202.0
(word) bitmap_plot::x#4 x zp ZP_WORD:11 52.5
(byte) bitmap_plot::y
(byte) bitmap_plot::y#0 reg byte x 2.0
(byte) bitmap_plot::y#1 reg byte x 101.0
(byte) bitmap_plot::y#2 reg byte x 2.0
(byte) bitmap_plot::y#3 reg byte x 101.0
(byte) bitmap_plot::y#4 reg byte x 210.0
(const byte[$100]) bitmap_plot_bit bitmap_plot_bit = { fill( $100, 0) }
(const byte[$100]) bitmap_plot_yhi bitmap_plot_yhi = { fill( $100, 0) }
(const byte[$100]) bitmap_plot_ylo bitmap_plot_ylo = { fill( $100, 0) }
(byte*) bitmap_screen
(void()) main()
(word~) main::$11 $11 zp ZP_WORD:15 22.0
(word~) main::$7 $7 zp ZP_WORD:11 22.0
(label) main::@1
(label) main::@2
(label) main::@3
(label) main::@4
(label) main::@5
(label) main::@6
(label) main::@7
(byte) main::a
(byte) main::a#1 a zp ZP_BYTE:2 11.0
(byte) main::a#2 a zp ZP_BYTE:2 2.4444444444444446
(byte) main::i
(byte) main::i#1 i zp ZP_BYTE:27 22.0
(byte) main::i#2 i zp ZP_BYTE:27 3.3000000000000003
(label) main::toD0181
(byte*) main::toD0181_gfx
(byte) main::toD0181_return
(const byte) main::toD0181_return#0 toD0181_return = >(word)(const byte*) SCREEN&(word) $3fff*(byte) 4|>(word)(const byte*) BITMAP/(byte) 4&(byte) $f
(byte*) main::toD0181_screen
(void*()) memset((void*) memset::str , (byte) memset::c , (word) memset::num)
(label) memset::@1
(label) memset::@2
(label) memset::@3
(label) memset::@return
(byte) memset::c
(byte) memset::c#4 reg byte x 1.375
(byte*) memset::dst
(byte*) memset::dst#1 dst zp ZP_WORD:11 22.0
(byte*) memset::dst#2 dst zp ZP_WORD:11 15.333333333333332
(byte*~) memset::dst#4 dst zp ZP_WORD:11 4.0
(byte*) memset::end
(byte*) memset::end#0 end zp ZP_WORD:9 2.1666666666666665
(word) memset::num
(word) memset::num#2 num zp ZP_WORD:9 2.0
(void*) memset::return
(void*) memset::str
(void*) memset::str#3 str zp ZP_WORD:11
(word()) sgn_u16((word) sgn_u16::w)
(byte~) sgn_u16::$0 reg byte a 4.0
(byte~) sgn_u16::$1 reg byte a 4.0
(label) sgn_u16::@1
(label) sgn_u16::@return
(word) sgn_u16::return
(word) sgn_u16::return#0 return zp ZP_WORD:5 4.0
(word) sgn_u16::return#1 return zp ZP_WORD:5 4.0
(word) sgn_u16::return#4 return zp ZP_WORD:5 1.0
(word) sgn_u16::w
(word) sgn_u16::w#0 w zp ZP_WORD:3 4.0
(word) sgn_u16::w#1 w zp ZP_WORD:3 4.0
(word) sgn_u16::w#2 w zp ZP_WORD:3 6.0

zp ZP_BYTE:2 [ main::a#2 main::a#1 ]
reg byte x [ bitmap_plot::y#4 bitmap_plot::y#3 bitmap_plot::y#2 bitmap_plot::y#0 bitmap_plot::y#1 ]
zp ZP_WORD:3 [ sgn_u16::w#2 sgn_u16::w#0 sgn_u16::w#1 bitmap_line::e#3 bitmap_line::e#0 bitmap_line::e#6 bitmap_line::e#1 bitmap_line::e#2 ]
zp ZP_WORD:5 [ sgn_u16::return#4 sgn_u16::return#0 sgn_u16::return#1 bitmap_line::sy#0 ]
zp ZP_WORD:7 [ abs_u16::return#4 abs_u16::return#2 abs_u16::w#2 abs_u16::w#0 abs_u16::w#1 abs_u16::return#0 abs_u16::return#1 bitmap_line::dy#0 ]
zp ZP_WORD:9 [ memset::num#2 memset::end#0 bitmap_line::y#15 bitmap_line::y#7 bitmap_line::y#13 bitmap_line::y#4 bitmap_line::y1#0 bitmap_line::y#1 bitmap_line::y#2 ]
zp ZP_WORD:11 [ memset::str#3 memset::dst#2 memset::dst#4 memset::dst#1 bitmap_line::x#7 bitmap_line::x#6 bitmap_line::x#15 bitmap_line::x#13 bitmap_line::x1#0 bitmap_line::x#12 bitmap_line::x#1 bitmap_plot::x#4 bitmap_plot::x#3 bitmap_plot::x#2 bitmap_plot::x#0 bitmap_plot::x#1 main::$7 ]
reg byte x [ memset::c#4 ]
reg byte a [ bitmap_init::bits#3 bitmap_init::bits#4 bitmap_init::bits#1 ]
reg byte x [ bitmap_init::x#2 bitmap_init::x#1 ]
reg byte x [ bitmap_init::y#2 bitmap_init::y#1 ]
zp ZP_WORD:13 [ bitmap_init::yoffs#2 bitmap_init::yoffs#4 bitmap_init::yoffs#1 bitmap_line::e1#3 bitmap_line::e1#6 bitmap_line::e1#0 bitmap_line::e1#2 bitmap_line::e1#1 ]
zp ZP_WORD:15 [ main::$11 bitmap_line::x2#0 ]
zp ZP_WORD:17 [ bitmap_line::y2#0 ]
zp ZP_WORD:19 [ bitmap_line::dx#0 ]
zp ZP_WORD:21 [ bitmap_line::sx#0 ]
zp ZP_WORD:23 [ bitmap_plot::plotter#0 bitmap_plot::plotter#1 ]
zp ZP_WORD:25 [ bitmap_plot::$1 ]
reg byte a [ bitmap_plot::$2 ]
reg byte a [ sgn_u16::$0 ]
reg byte a [ sgn_u16::$1 ]
reg byte a [ abs_u16::$0 ]
reg byte a [ abs_u16::$1 ]
zp ZP_BYTE:27 [ bitmap_init::$7 main::i#2 main::i#1 ]
reg byte a [ bitmap_init::$4 ]
reg byte a [ bitmap_init::$5 ]
reg byte a [ bitmap_init::$6 ]
