(label) @1
(label) @2
(label) @begin
(label) @end
(const byte*) BGCOL BGCOL = (byte*) 53281
(const byte*) BITMAP BITMAP = (byte*) 8192
(const byte) BLACK BLACK = (byte) 0
(const byte*) CIA1_INTERRUPT CIA1_INTERRUPT = (byte*) 56333
(const byte) CIA_INTERRUPT_CLEAR CIA_INTERRUPT_CLEAR = (byte) $7f
(const byte*) D011 D011 = (byte*) 53265
(const byte*) D018 D018 = (byte*) 53272
(const void()**) HARDWARE_IRQ HARDWARE_IRQ = (void()**) 65534
(const byte*) IRQ_ENABLE IRQ_ENABLE = (byte*) 53274
(const byte) IRQ_RASTER IRQ_RASTER = (byte) 1
(const byte*) IRQ_STATUS IRQ_STATUS = (byte*) 53273
(const byte*) PROCPORT PROCPORT = (byte*) 1
(const byte*) PROCPORT_DDR PROCPORT_DDR = (byte*) 0
(const byte) PROCPORT_DDR_MEMORY_MASK PROCPORT_DDR_MEMORY_MASK = (byte) 7
(const byte) PROCPORT_RAM_IO PROCPORT_RAM_IO = (byte) 5
(const byte*) RASTER RASTER = (byte*) 53266
(const byte*) SCREEN SCREEN = (byte*) 1024
(const byte) VIC_BMM VIC_BMM = (byte) $20
(const byte*) VIC_CONTROL VIC_CONTROL = (byte*) 53265
(const byte) VIC_DEN VIC_DEN = (byte) $10
(const byte) VIC_RSEL VIC_RSEL = (byte) 8
(const byte) WHITE WHITE = (byte) 1
(void()) bitmap_clear((byte) bitmap_clear::bgcol , (byte) bitmap_clear::fgcol)
(label) bitmap_clear::@1
(label) bitmap_clear::@return
(byte) bitmap_clear::bgcol
(byte) bitmap_clear::col
(const byte) bitmap_clear::col#0 col = (const byte) WHITE*(byte) $10
(byte) bitmap_clear::fgcol
(byte*) bitmap_gfx
(void()) bitmap_init((byte*) bitmap_init::gfx , (byte*) bitmap_init::screen)
(byte~) bitmap_init::$4 reg byte a 22.0
(byte~) bitmap_init::$5 reg byte a 22.0
(byte~) bitmap_init::$6 reg byte a 22.0
(byte~) bitmap_init::$7 $7 zp ZP_BYTE:12 5.5
(label) bitmap_init::@1
(label) bitmap_init::@2
(label) bitmap_init::@3
(label) bitmap_init::@4
(label) bitmap_init::@5
(label) bitmap_init::@6
(label) bitmap_init::@return
(byte) bitmap_init::bits
(byte) bitmap_init::bits#1 reg byte a 11.0
(byte) bitmap_init::bits#3 reg byte a 16.5
(byte) bitmap_init::bits#4 reg byte a 7.333333333333333
(byte*) bitmap_init::gfx
(byte*) bitmap_init::screen
(byte) bitmap_init::x
(byte) bitmap_init::x#1 reg byte x 16.5
(byte) bitmap_init::x#2 reg byte x 5.5
(byte) bitmap_init::y
(byte) bitmap_init::y#1 reg byte x 16.5
(byte) bitmap_init::y#2 reg byte x 5.5
(byte*) bitmap_init::yoffs
(byte*) bitmap_init::yoffs#1 yoffs zp ZP_WORD:8 22.0
(byte*) bitmap_init::yoffs#2 yoffs zp ZP_WORD:8 6.875
(byte*) bitmap_init::yoffs#4 yoffs zp ZP_WORD:8 11.0
(void()) bitmap_plot((word) bitmap_plot::x , (byte) bitmap_plot::y)
(word~) bitmap_plot::$1 $1 zp ZP_WORD:10 4.0
(byte~) bitmap_plot::$2 reg byte a 4.0
(label) bitmap_plot::@return
(byte*) bitmap_plot::plotter
(word) bitmap_plot::plotter#0 plotter zp ZP_WORD:8 1.0
(byte*) bitmap_plot::plotter#1 plotter zp ZP_WORD:8 3.0
(word) bitmap_plot::x
(word) bitmap_plot::x#0 x zp ZP_WORD:3 3.0
(byte) bitmap_plot::y
(byte) bitmap_plot::y#0 reg byte x 15.0
(const byte[$100]) bitmap_plot_bit bitmap_plot_bit = { fill( $100, 0) }
(const byte[$100]) bitmap_plot_yhi bitmap_plot_yhi = { fill( $100, 0) }
(const byte[$100]) bitmap_plot_ylo bitmap_plot_ylo = { fill( $100, 0) }
(byte*) bitmap_screen
(byte) frame_cnt
(byte) frame_cnt#0 frame_cnt zp ZP_BYTE:7 1.1111111111111112
(byte) frame_cnt#1 frame_cnt zp ZP_BYTE:7 4.0
(byte) frame_cnt#10 frame_cnt zp ZP_BYTE:7 40.0
(void()) init_irq()
(label) init_irq::@return
interrupt(HARDWARE_CLOBBER)(void()) irq()
(label) irq::@1
(label) irq::@2
(label) irq::@return
(void()) main()
(label) main::@1
(label) main::@10
(label) main::@11
(label) main::@12
(label) main::@2
(label) main::@3
(label) main::@4
(label) main::@5
(label) main::@6
(label) main::@7
(label) main::@8
(label) main::@9
(label) main::toD0181
(byte*) main::toD0181_gfx
(byte) main::toD0181_return
(const byte) main::toD0181_return#0 toD0181_return = >(word)(const byte*) SCREEN&(word) $3fff*(byte) 4|>(word)(const byte*) BITMAP/(byte) 4&(byte) $f
(byte*) main::toD0181_screen
(word) main::vx
(word) main::vx#1 vx zp ZP_WORD:5 22.0
(word) main::vx#2 vx zp ZP_WORD:5 5.5
(word) main::vx#6 vx zp ZP_WORD:5 5.5
(byte) main::vy
(byte) main::vy#1 vy zp ZP_BYTE:2 22.0
(byte) main::vy#2 vy zp ZP_BYTE:2 3.6666666666666665
(byte) main::vy#8 vy zp ZP_BYTE:2 16.5
(word) main::x
(word) main::x#1 x zp ZP_WORD:3 4.0
(word) main::x#2 x zp ZP_WORD:3 8.25
(byte) main::y
(byte) main::y#1 y zp ZP_BYTE:12 4.4
(byte) main::y#2 y zp ZP_BYTE:12 6.6000000000000005
(void*()) memset((void*) memset::str , (byte) memset::c , (word) memset::num)
(label) memset::@1
(label) memset::@2
(label) memset::@3
(label) memset::@return
(byte) memset::c
(byte) memset::c#4 reg byte x 1.375
(byte*) memset::dst
(byte*) memset::dst#1 dst zp ZP_WORD:5 22.0
(byte*) memset::dst#2 dst zp ZP_WORD:5 15.333333333333332
(byte*~) memset::dst#4 dst zp ZP_WORD:5 4.0
(byte*) memset::end
(byte*) memset::end#0 end zp ZP_WORD:3 2.1666666666666665
(word) memset::num
(word) memset::num#2 num zp ZP_WORD:3 2.0
(void*) memset::return
(void*) memset::str
(void*) memset::str#3 str zp ZP_WORD:5
(const byte[$100]) plots_per_frame plots_per_frame = { fill( $100, 0) }

zp ZP_BYTE:2 [ main::vy#2 main::vy#8 main::vy#1 ]
zp ZP_WORD:3 [ memset::num#2 memset::end#0 main::x#2 main::x#1 bitmap_plot::x#0 ]
zp ZP_WORD:5 [ memset::str#3 memset::dst#2 memset::dst#4 memset::dst#1 main::vx#2 main::vx#6 main::vx#1 ]
reg byte x [ memset::c#4 ]
reg byte a [ bitmap_init::bits#3 bitmap_init::bits#4 bitmap_init::bits#1 ]
reg byte x [ bitmap_init::x#2 bitmap_init::x#1 ]
reg byte x [ bitmap_init::y#2 bitmap_init::y#1 ]
zp ZP_BYTE:7 [ frame_cnt#10 frame_cnt#0 frame_cnt#1 ]
reg byte x [ bitmap_plot::y#0 ]
zp ZP_WORD:8 [ bitmap_plot::plotter#0 bitmap_plot::plotter#1 bitmap_init::yoffs#2 bitmap_init::yoffs#4 bitmap_init::yoffs#1 ]
zp ZP_WORD:10 [ bitmap_plot::$1 ]
reg byte a [ bitmap_plot::$2 ]
zp ZP_BYTE:12 [ bitmap_init::$7 main::y#2 main::y#1 ]
reg byte a [ bitmap_init::$4 ]
reg byte a [ bitmap_init::$5 ]
reg byte a [ bitmap_init::$6 ]
