(label) @1
(label) @begin
(label) @end
(const byte*) BORDERCOL BORDERCOL = (byte*) 53280
(const byte*) CHUNKY CHUNKY = (byte*) 32768
(const byte*) CIA2_PORT_A CIA2_PORT_A = (byte*) 56576
(const byte*) CIA2_PORT_A_DDR CIA2_PORT_A_DDR = (byte*) 56578
(const byte) DTV_BADLINE_OFF DTV_BADLINE_OFF = (byte) $20
(const byte) DTV_CHUNKY DTV_CHUNKY = (byte) $40
(const byte) DTV_COLORRAM_OFF DTV_COLORRAM_OFF = (byte) $10
(const byte*) DTV_CONTROL DTV_CONTROL = (byte*) 53308
(const byte*) DTV_FEATURE DTV_FEATURE = (byte*) 53311
(const byte) DTV_FEATURE_ENABLE DTV_FEATURE_ENABLE = (byte) 1
(const byte) DTV_HIGHCOLOR DTV_HIGHCOLOR = (byte) 4
(const byte) DTV_LINEAR DTV_LINEAR = (byte) 1
(const byte*) DTV_PALETTE DTV_PALETTE = (byte*) 53760
(const byte*) DTV_PLANEB_MODULO_HI DTV_PLANEB_MODULO_HI = (byte*) 53320
(const byte*) DTV_PLANEB_MODULO_LO DTV_PLANEB_MODULO_LO = (byte*) 53319
(const byte*) DTV_PLANEB_START_HI DTV_PLANEB_START_HI = (byte*) 53323
(const byte*) DTV_PLANEB_START_LO DTV_PLANEB_START_LO = (byte*) 53321
(const byte*) DTV_PLANEB_START_MI DTV_PLANEB_START_MI = (byte*) 53322
(const byte*) DTV_PLANEB_STEP DTV_PLANEB_STEP = (byte*) 53324
(const byte*) PROCPORT PROCPORT = (byte*) 1
(const byte*) PROCPORT_DDR PROCPORT_DDR = (byte*) 0
(const byte) PROCPORT_DDR_MEMORY_MASK PROCPORT_DDR_MEMORY_MASK = (byte) 7
(const byte) PROCPORT_RAM_IO PROCPORT_RAM_IO = (byte) 5
(const byte*) RASTER RASTER = (byte*) 53266
(const byte*) VIC_CONTROL VIC_CONTROL = (byte*) 53265
(const byte*) VIC_CONTROL2 VIC_CONTROL2 = (byte*) 53270
(const byte) VIC_CSEL VIC_CSEL = (byte) 8
(const byte) VIC_DEN VIC_DEN = (byte) $10
(const byte) VIC_ECM VIC_ECM = (byte) $40
(const byte) VIC_MCM VIC_MCM = (byte) $10
(const byte*) VIC_MEMORY VIC_MEMORY = (byte*) 53272
(const byte) VIC_RSEL VIC_RSEL = (byte) 8
(void()) dtvSetCpuBankSegment1((byte) dtvSetCpuBankSegment1::cpuBankIdx)
(label) dtvSetCpuBankSegment1::@return
(const byte*) dtvSetCpuBankSegment1::cpuBank cpuBank = (byte*) 255
(byte) dtvSetCpuBankSegment1::cpuBankIdx
(byte) dtvSetCpuBankSegment1::cpuBankIdx#1 reg byte a 202.0
(byte) dtvSetCpuBankSegment1::cpuBankIdx#3 reg byte a 103.0
(void()) gfx_init_chunky()
(word~) gfx_init_chunky::$8 $8 zp ZP_WORD:7 101.0
(label) gfx_init_chunky::@1
(label) gfx_init_chunky::@2
(label) gfx_init_chunky::@3
(label) gfx_init_chunky::@4
(label) gfx_init_chunky::@5
(label) gfx_init_chunky::@6
(label) gfx_init_chunky::@7
(label) gfx_init_chunky::@return
(byte) gfx_init_chunky::c
(byte) gfx_init_chunky::c#0 reg byte a 202.0
(byte*) gfx_init_chunky::gfxb
(byte*) gfx_init_chunky::gfxb#1 gfxb zp ZP_WORD:5 42.599999999999994
(byte*) gfx_init_chunky::gfxb#3 gfxb zp ZP_WORD:5 157.0
(byte*) gfx_init_chunky::gfxb#4 gfxb zp ZP_WORD:5 75.75
(byte*) gfx_init_chunky::gfxb#5 gfxb zp ZP_WORD:5 22.0
(byte) gfx_init_chunky::gfxbCpuBank
(byte) gfx_init_chunky::gfxbCpuBank#2 reg byte x 202.0
(byte) gfx_init_chunky::gfxbCpuBank#4 reg byte x 103.75
(byte) gfx_init_chunky::gfxbCpuBank#7 reg byte x 22.0
(byte) gfx_init_chunky::gfxbCpuBank#8 reg byte x 34.888888888888886
(word) gfx_init_chunky::x
(word) gfx_init_chunky::x#1 x zp ZP_WORD:3 151.5
(word) gfx_init_chunky::x#2 x zp ZP_WORD:3 30.299999999999997
(byte) gfx_init_chunky::y
(byte) gfx_init_chunky::y#1 y zp ZP_BYTE:2 16.5
(byte) gfx_init_chunky::y#6 y zp ZP_BYTE:2 9.461538461538462
(void()) main()
(byte~) main::$31 reg byte a 202.0
(byte~) main::$32 reg byte a 202.0
(byte~) main::$33 reg byte a 202.0
(label) main::@1
(label) main::@2
(label) main::@3
(label) main::@4
(label) main::@5
(label) main::@6
(byte) main::j
(byte) main::j#1 reg byte x 16.5
(byte) main::j#2 reg byte x 22.0
(byte) main::rst
(byte) main::rst#1 reg byte x 57.714285714285715

reg byte x [ main::j#2 main::j#1 ]
zp ZP_BYTE:2 [ gfx_init_chunky::y#6 gfx_init_chunky::y#1 ]
zp ZP_WORD:3 [ gfx_init_chunky::x#2 gfx_init_chunky::x#1 ]
reg byte x [ gfx_init_chunky::gfxbCpuBank#4 gfx_init_chunky::gfxbCpuBank#7 gfx_init_chunky::gfxbCpuBank#8 gfx_init_chunky::gfxbCpuBank#2 ]
zp ZP_WORD:5 [ gfx_init_chunky::gfxb#4 gfx_init_chunky::gfxb#3 gfx_init_chunky::gfxb#5 gfx_init_chunky::gfxb#1 ]
reg byte a [ dtvSetCpuBankSegment1::cpuBankIdx#3 dtvSetCpuBankSegment1::cpuBankIdx#1 ]
reg byte x [ main::rst#1 ]
reg byte a [ main::$31 ]
reg byte a [ main::$32 ]
reg byte a [ main::$33 ]
zp ZP_WORD:7 [ gfx_init_chunky::$8 ]
reg byte a [ gfx_init_chunky::c#0 ]
