(label) @1
(label) @begin
(label) @end
(void()) main()
(label) main::@1
(label) main::@2
(label) main::@return
(const byte*) main::BGCOL BGCOL = (byte*) 53281
(const byte*) main::SCREEN SCREEN = (byte*) 1024
(const byte) main::max max = (byte) $c8
(byte) main::midb
(const byte) main::midb#0 midb = (const byte) main::sumb#0>>(byte) 1+(byte) 1
(byte) main::midw
(const byte) main::midw#0 midw = (byte)(const word) main::sumw#0>>(byte) 1+(byte) 1
(const byte) main::min min = (byte) $a
(byte) main::sumb
(const byte) main::sumb#0 sumb = (const byte) main::min+(const byte) main::max
(word) main::sumw
(const word) main::sumw#0 sumw = (const byte) main::min+(const byte) main::max

