(label) @1
(label) @2
(label) @begin
(label) @end
(const byte) BLACK BLACK = (byte) 0
(const byte*) BORDERCOL BORDERCOL = (byte*) 53280
(const byte) DARK_GREY DARK_GREY = (byte) $b
(const void()**) KERNEL_IRQ KERNEL_IRQ = (void()**) 788
(const byte*) RASTER RASTER = (byte*) 53266
interrupt(HARDWARE_CLOBBER)(void()) irq()
(byte~) irq::$0 reg byte a 4.0
(label) irq::@1
(label) irq::@2
(label) irq::@return
(byte) irq::raster_next
(byte) irq::raster_next#0 reg byte x 2.6666666666666665
(byte) irq::raster_next#1 reg byte x 4.0
(byte) irq::raster_next#2 reg byte x 6.0
(byte) irq_raster_next
(byte) irq_raster_next#0 irq_raster_next zp ZP_BYTE:2 4.0
(byte) irq_raster_next#1 irq_raster_next zp ZP_BYTE:2 4.0
(void()) main()
(label) main::@return

reg byte x [ irq::raster_next#2 irq::raster_next#0 irq::raster_next#1 ]
zp ZP_BYTE:2 [ irq_raster_next#0 irq_raster_next#1 ]
reg byte a [ irq::$0 ]
