(label) @1
(label) @begin
(label) @end
(void()) main()
(label) main::@1
(label) main::@2
(label) main::@return
(const byte*) main::SCREEN SCREEN = (byte*) 1024
(byte) main::i
(byte) main::i#1 reg byte x 11.0
(byte) main::i#2 reg byte x 14.666666666666666
(byte) main::j
(byte) main::j#1 reg byte a 22.0
(byte) main::j#2 reg byte a 8.25

reg byte x [ main::i#2 main::i#1 ]
reg byte a [ main::j#2 main::j#1 ]
