(label) @1
(label) @begin
(label) @end
(void()) main()
(byte~) main::$4 reg byte a 22.0
(label) main::@1
(label) main::@10
(label) main::@11
(label) main::@12
(label) main::@13
(label) main::@14
(label) main::@15
(label) main::@2
(label) main::@3
(label) main::@4
(label) main::@5
(label) main::@6
(label) main::@7
(label) main::@8
(label) main::@9
(label) main::@return
(const byte[]) main::header header = (string) "  <  <= == >= >"
(byte) main::i
(byte) main::i#1 reg byte x 22.0
(byte) main::i#2 reg byte x 18.333333333333332
(byte) main::i1
(byte) main::i1#1 reg byte x 22.0
(byte) main::i1#10 reg byte x 6.6
(byte*) main::sc
(byte*) main::sc#1 sc zp ZP_WORD:2 16.5
(byte*) main::sc#2 sc zp ZP_WORD:2 16.5
(byte*) main::screen
(byte*) main::screen#1 screen zp ZP_WORD:4 6.285714285714286
(byte*) main::screen#11 screen zp ZP_WORD:4 11.0

zp ZP_WORD:2 [ main::sc#2 main::sc#1 ]
reg byte x [ main::i#2 main::i#1 ]
reg byte x [ main::i1#10 main::i1#1 ]
zp ZP_WORD:4 [ main::screen#11 main::screen#1 ]
reg byte a [ main::$4 ]
