(label) @1
(label) @begin
(label) @end
(const byte*) SCREEN SCREEN = (byte*) 1024
(byte) idx
(byte) idx#1 reg byte y 11.0
(byte) idx#10 reg byte y 7.8
(byte) idx#12 reg byte y 17.5
(byte) idx#13 reg byte y 7.333333333333333
(byte) idx#15 reg byte y 9.25
(byte) idx#2 reg byte y 4.0
(byte) idx#3 reg byte y 22.0
(byte) idx#4 reg byte y 4.0
(void()) main()
(label) main::@1
(label) main::@2
(label) main::@3
(label) main::@4
(label) main::@5
(label) main::@6
(label) main::@7
(label) main::@return
(byte) main::i
(byte) main::i#1 reg byte x 22.0
(byte) main::i#2 reg byte x 11.0
(byte) main::j
(byte) main::j#1 reg byte a 11.0
(byte) main::j#2 reg byte a 22.0
(byte) main::k
(byte) main::k#1 reg byte a 16.5
(byte) main::k#2 reg byte a 11.0

reg byte x [ main::i#2 main::i#1 ]
reg byte y [ idx#15 idx#1 ]
reg byte a [ main::j#2 main::j#1 ]
reg byte y [ idx#10 idx#2 idx#3 ]
reg byte a [ main::k#2 main::k#1 ]
reg byte y [ idx#12 idx#13 idx#4 ]
