(label) @1
(label) @begin
(label) @end
(void()) main()
(byte~) main::$0 reg byte a 4.0
(byte~) main::$1 reg byte a 4.0
(byte~) main::$2 reg byte a 4.0
(label) main::@1
(label) main::@2
(label) main::@3
(label) main::@return
(const byte) main::reverse reverse = (byte) $80
(const byte*) main::screen screen = (byte*) 1024
(byte()) sum((byte) sum::a , (byte) sum::b)
(label) sum::@return
(byte) sum::a
(byte) sum::b
(byte) sum::b#3 reg byte a 2.0
(byte) sum::return
(byte) sum::return#0 reg byte a 4.0
(byte) sum::return#1 reg byte a 4.0
(byte) sum::return#2 reg byte a 4.0
(byte) sum::return#3 reg byte a 1.6

reg byte a [ sum::b#3 ]
reg byte a [ sum::return#0 ]
reg byte a [ main::$0 ]
reg byte a [ sum::return#1 ]
reg byte a [ main::$1 ]
reg byte a [ sum::return#2 ]
reg byte a [ main::$2 ]
reg byte a [ sum::return#3 ]
