(label) @1
(label) @begin
(label) @end
(const byte*) SCREEN SCREEN = (byte*) 1024
(byte*) cursor memory mem cursor 5.0
(void()) main()
(label) main::@1
(label) main::@return
(byte) main::i
(byte) main::i#1 reg byte x 16.5
(byte) main::i#2 reg byte x 7.333333333333333

reg byte x [ main::i#2 main::i#1 ]
mem cursor [ cursor ]
