(label) @1
(label) @begin
(label) @end
(const byte*) SCREEN SCREEN = (byte*) 1024
(byte) idx memory mem idx 20.0
(byte*) idx_p
(const byte*) idx_p#0 idx_p = &(byte) idx
(void()) main()
(label) main::@1
(label) main::@return
(byte) main::i
(byte) main::i#1 reg byte x 16.5
(byte) main::i#2 reg byte x 14.666666666666666

reg byte x [ main::i#2 main::i#1 ]
mem idx [ idx ]
