(const string) $0 $0 = (string) "qwe"
(label) @1
(label) @begin
(label) @end
(const byte) OFFSET_STRUCT_FOO_THING2 OFFSET_STRUCT_FOO_THING2 = (byte) 1
(const byte) OFFSET_STRUCT_FOO_THING3 OFFSET_STRUCT_FOO_THING3 = (byte) 2
(byte) bar_thing1 memory mem bar_thing1 20.0
(byte) bar_thing2 memory mem bar_thing2 20.0
(byte[$c]) bar_thing3
(byte[$c]) bar_thing3#0 bar_thing3 zp ZP_WORD:2 20.0
(byte) foo::thing1
(byte) foo::thing2
(byte[$c]) foo::thing3
(void()) main()
(label) main::@1
(label) main::@return
(const byte*) main::SCREEN SCREEN = (byte*) 1024
(struct foo*) main::barp
(const struct foo*) main::barp#0 barp = (struct foo*)&(byte) bar_thing1
(byte) main::i
(byte) main::i#3 reg byte x 7.333333333333333
(byte) main::i#4 reg byte x 16.5
(byte) main::j
(byte) main::j#1 reg byte y 16.5
(byte) main::j#2 reg byte y 11.0

reg byte y [ main::j#2 main::j#1 ]
reg byte x [ main::i#4 main::i#3 ]
zp ZP_WORD:2 [ bar_thing3#0 ]
mem bar_thing1 [ bar_thing1 ]
mem bar_thing2 [ bar_thing2 ]
