(label) @1
(label) @begin
(label) @end
(void()) main()
(byte*~) main::$1 $1 zp ZP_WORD:4 22.0
(label) main::@1
(label) main::@2
(label) main::@return
(word) main::i
(word) main::i#1 i zp ZP_WORD:2 22.0
(word) main::i#2 i zp ZP_WORD:2 11.0
(const byte*) main::screen screen = (byte*) 1024

zp ZP_WORD:2 [ main::i#2 main::i#1 ]
zp ZP_WORD:4 [ main::$1 ]
