(label) @1
(label) @begin
(label) @end
(const byte[$100]) COLORMAP1 COLORMAP1 = { fill( $100, 0) }
(const byte[$100]) COLORMAP2 COLORMAP2 = { fill( $100, 0) }
(const byte*) COLS COLS = (byte*) 55296
(const byte[$3e8]) MAPDATA MAPDATA = { fill( $3e8, 0) }
(const byte*) SCREEN SCREEN = (byte*) 1024
(void()) main()
(label) main::@1
(label) main::@return
(byte) main::x !reg byte y
(byte) main::x#1 !reg byte y 16.5
(byte) main::x#2 !reg byte y 22.0

reg byte y [ main::x#2 main::x#1 ]
