(label) @1
(label) @begin
(label) @end
(byte) Button::color
(byte) Button::size
(const byte) Color::GREEN GREEN = (byte) 1
(const byte) Color::RED RED = (byte) 0
(const byte) RED RED = (byte) 0
(void()) main()
(label) main::@return
(const byte*) main::SCREEN SCREEN = (byte*) 1024
(const byte) main::button_size button_size = (byte) $18

