(label) @1
(label) @begin
(label) @end
(const byte*) SCREEN SCREEN = (byte*) 1024
(byte()) euclid((byte) euclid::a , (byte) euclid::b)
(label) euclid::@1
(label) euclid::@2
(label) euclid::@3
(label) euclid::@4
(label) euclid::@return
(byte) euclid::a
(byte) euclid::a#10 a zp ZP_BYTE:2 2.0
(byte) euclid::a#4 a zp ZP_BYTE:2 22.0
(byte) euclid::a#5 a zp ZP_BYTE:2 9.666666666666668
(byte) euclid::b
(byte) euclid::b#4 reg byte x 22.0
(byte) euclid::b#5 reg byte x 19.75
(byte) euclid::b#9 reg byte x 2.0
(byte) euclid::return
(byte) euclid::return#0 reg byte a 4.0
(byte) euclid::return#1 reg byte a 4.0
(byte) euclid::return#2 reg byte a 4.0
(byte) euclid::return#3 reg byte a 4.0
(byte) idx
(void()) main()
(byte~) main::$0 reg byte a 4.0
(byte~) main::$1 reg byte a 4.0
(byte~) main::$2 reg byte a 4.0
(byte~) main::$3 reg byte a 4.0
(label) main::@1
(label) main::@2
(label) main::@3
(label) main::@4
(label) main::@return

zp ZP_BYTE:2 [ euclid::a#5 euclid::a#10 euclid::a#4 ]
reg byte x [ euclid::b#5 euclid::b#9 euclid::b#4 ]
reg byte a [ euclid::return#0 ]
reg byte a [ main::$0 ]
reg byte a [ euclid::return#1 ]
reg byte a [ main::$1 ]
reg byte a [ euclid::return#2 ]
reg byte a [ main::$2 ]
reg byte a [ euclid::return#3 ]
reg byte a [ main::$3 ]
