(label) @1
(label) @begin
(label) @end
(void()) main()
(byte*~) main::$5 $5 zp ZP_WORD:4 4.0
(label) main::@return
(word) main::u
(word) main::u#1 u zp ZP_WORD:2 4.0

zp ZP_WORD:2 [ main::u#1 ]
zp ZP_WORD:4 [ main::$5 ]
