(label) @1
(label) @2
(label) @begin
(label) @end
(void()) fn1()
(label) fn1::@return
(const byte*) fn1::BORDERCOL BORDERCOL = (byte*) 53280
(void()) fn2()
(label) fn2::@return
(const byte*) fn2::BGCOL BGCOL = (byte*) 53281
(void()) main()
(byte~) main::$0 reg byte a 22.0
(label) main::@1
(label) main::@2
(label) main::@3
(label) main::@4
(void()*) main::f
(void()*) main::f#3 f zp ZP_WORD:2
(byte) main::i
(byte) main::i#1 reg byte x 5.5
(byte) main::i#2 reg byte x 22.0

reg byte x [ main::i#2 main::i#1 ]
zp ZP_WORD:2 [ main::f#3 ]
reg byte a [ main::$0 ]
