(label) @1
(label) @begin
(label) @end
(const byte*) BGCOL BGCOL = (byte*) 53281
(const byte*) RASTER RASTER = (byte*) 53266
(void()) incScreen()
(label) incScreen::@return
(void()) main()
(label) main::@1
(label) main::@2
(label) main::@3

