(label) @1
(label) @begin
(label) @end
(const byte*) CHARGEN CHARGEN = (byte*) 53248
(const byte*) CHARSET4 CHARSET4 = (byte*) 10240
(const byte*) D018 D018 = (byte*) 53272
(const byte*) PROCPORT PROCPORT = (byte*) 1
(const byte*) SCREEN SCREEN = (byte*) 1024
(const byte[]) bits_count bits_count = { (byte) 0, (byte) 1, (byte) 1, (byte) 2, (byte) 1, (byte) 2, (byte) 2, (byte) 3, (byte) 1, (byte) 2, (byte) 2, (byte) 3, (byte) 2, (byte) 3, (byte) 3, (byte) 4 }
(void()) main()
(byte~) main::$1 $1 zp ZP_BYTE:8 7.333333333333333
(byte~) main::$11 $11 zp ZP_BYTE:9 7.333333333333333
(byte~) main::$12 reg byte a 22.0
(byte~) main::$13 reg byte a 22.0
(byte~) main::$14 reg byte a 22.0
(byte~) main::$15 reg byte a 22.0
(byte~) main::$2 reg byte a 22.0
(byte~) main::$20 reg byte a 22.0
(byte~) main::$21 $21 zp ZP_BYTE:10 7.333333333333333
(byte~) main::$22 reg byte a 22.0
(byte~) main::$23 reg byte a 22.0
(byte~) main::$24 reg byte a 22.0
(byte~) main::$29 reg byte a 22.0
(byte~) main::$3 reg byte a 22.0
(byte~) main::$30 $30 zp ZP_BYTE:11 11.0
(byte~) main::$31 reg byte a 22.0
(byte~) main::$32 reg byte a 22.0
(byte~) main::$4 reg byte a 22.0
(byte~) main::$5 reg byte a 22.0
(byte~) main::$6 reg byte a 22.0
(label) main::@1
(label) main::@10
(label) main::@11
(label) main::@12
(label) main::@2
(label) main::@3
(label) main::@4
(label) main::@5
(label) main::@6
(label) main::@7
(label) main::@8
(label) main::@9
(label) main::@return
(byte) main::bits
(byte) main::bits#0 reg byte a 22.0
(byte) main::bits#1 reg byte a 22.0
(byte) main::bits#2 reg byte a 22.0
(byte) main::bits#3 reg byte a 22.0
(byte) main::bits_gen
(byte) main::bits_gen#1 reg byte x 4.125
(byte) main::bits_gen#11 reg byte x 33.0
(byte) main::bits_gen#13 reg byte x 33.0
(byte) main::bits_gen#14 reg byte x 4.125
(byte) main::bits_gen#15 reg byte x 33.0
(byte) main::bits_gen#16 reg byte x 4.714285714285714
(byte) main::bits_gen#4 reg byte x 22.0
(byte) main::bits_gen#6 reg byte x 22.0
(byte) main::bits_gen#7 reg byte a 22.0
(byte) main::bits_gen#8 reg byte x 22.0
(byte) main::bits_gen#9 reg byte a 11.0
(byte*) main::chargen
(byte*) main::chargen#1 chargen zp ZP_WORD:2 16.5
(byte*) main::chargen#10 chargen zp ZP_WORD:2 1.75
(byte*) main::chargen1
(byte*) main::chargen1#0 chargen1 zp ZP_WORD:6 1.6176470588235294
(byte*) main::charset4
(byte*) main::charset4#1 charset4 zp ZP_WORD:4 7.333333333333333
(byte*) main::charset4#10 charset4 zp ZP_WORD:4 0.7674418604651163
(byte) main::i
(byte) main::i#1 reg byte x 16.5
(byte) main::i#2 reg byte x 22.0

zp ZP_WORD:2 [ main::chargen#10 main::chargen#1 ]
zp ZP_WORD:4 [ main::charset4#10 main::charset4#1 ]
reg byte a [ main::bits_gen#9 ]
reg byte x [ main::bits_gen#11 main::bits_gen#1 main::bits_gen#4 ]
reg byte x [ main::bits_gen#13 main::bits_gen#14 main::bits_gen#6 ]
reg byte x [ main::bits_gen#15 main::bits_gen#16 main::bits_gen#8 ]
reg byte x [ main::i#2 main::i#1 ]
zp ZP_WORD:6 [ main::chargen1#0 ]
zp ZP_BYTE:8 [ main::$1 ]
reg byte a [ main::$2 ]
reg byte a [ main::$3 ]
reg byte a [ main::$4 ]
reg byte a [ main::$5 ]
reg byte a [ main::$6 ]
reg byte a [ main::bits#0 ]
zp ZP_BYTE:9 [ main::$11 ]
reg byte a [ main::$12 ]
reg byte a [ main::$13 ]
reg byte a [ main::$14 ]
reg byte a [ main::$15 ]
reg byte a [ main::bits#1 ]
reg byte a [ main::$20 ]
zp ZP_BYTE:10 [ main::$21 ]
reg byte a [ main::$22 ]
reg byte a [ main::$23 ]
reg byte a [ main::$24 ]
reg byte a [ main::bits#2 ]
reg byte a [ main::$29 ]
zp ZP_BYTE:11 [ main::$30 ]
reg byte a [ main::$31 ]
reg byte a [ main::$32 ]
reg byte a [ main::bits#3 ]
reg byte a [ main::bits_gen#7 ]
