(label) @1
(label) @begin
(label) @end
(const byte*) SCREEN SCREEN = (byte*) 1024
(void()) main()
(label) main::@1
(label) main::@2
(label) main::@3
(label) main::@4
(label) main::@5
(label) main::@6
(byte) main::max
(byte) main::max#2 reg byte y 5.5
(byte) main::max#3 reg byte y 11.0
(byte~) main::max#9 reg byte y 22.0
(byte) main::min
(byte) main::min#2 reg byte x 11.0
(byte) main::min#3 reg byte x 6.285714285714286
(byte~) main::min#9 reg byte x 22.0
(byte) main::pos
(byte) main::pos#1 reg byte a 7.699999999999999
(byte) main::pos#2 reg byte a 22.0

reg byte a [ main::pos#2 main::pos#1 ]
reg byte x [ main::min#2 main::min#3 main::min#9 ]
reg byte y [ main::max#2 main::max#3 main::max#9 ]
