(label) @1
(label) @begin
(label) @end
(void()) main()
(label) main::@1
(label) main::@2
(label) main::@return
(byte) x
(byte) x#0 x zp ZP_BYTE:2 1.3333333333333333
(byte) x#1 x zp ZP_BYTE:2 16.5
(byte) x#2 x zp ZP_BYTE:2 20.0
(byte) x#5 x zp ZP_BYTE:2 24.0

zp ZP_BYTE:2 [ x#5 x#0 x#1 x#2 ]
