(label) @1
(label) @begin
(label) @end
(void()) main()
(byte~) main::$0 reg byte a 22.0
(byte~) main::$1 reg byte a 22.0
(byte~) main::$4 reg byte y 8.25
(label) main::@1
(label) main::@return
(const byte*) main::SCREEN SCREEN = (byte*) 1024
(byte) main::i
(byte) main::i#1 i zp ZP_BYTE:2 16.5
(byte) main::i#2 i zp ZP_BYTE:2 4.125
(byte) main::idx
(byte) main::idx#1 reg byte x 11.0
(byte) main::idx#2 reg byte x 7.333333333333333
(byte) main::idx#3 reg byte x 8.25
(const word[]) words words = { (word) 1, (word) 2, (word) 3 }

zp ZP_BYTE:2 [ main::i#2 main::i#1 ]
reg byte x [ main::idx#3 main::idx#2 ]
reg byte y [ main::$4 ]
reg byte a [ main::$0 ]
reg byte x [ main::idx#1 ]
reg byte a [ main::$1 ]
