Warning! Adding boolean cast to non-boolean condition *((byte*) print::msg + (byte) print::i)
Identified constant variable (byte*) screen
Identified constant variable (byte*) main::hello
Inlined call call print (byte*) screen (byte*) main::hello 
Inlined call call print (byte*~) main::$1 (byte*) main::hello 
Culled Empty Block (label) main::print1_@4
Culled Empty Block (label) main::print1_@3
Culled Empty Block (label) main::print1_@5
Culled Empty Block (label) main::print1_@6
Culled Empty Block (label) main::print1_@return
Culled Empty Block (label) main::print2_@4
Culled Empty Block (label) main::print2_@3
Culled Empty Block (label) main::print2_@5
Culled Empty Block (label) main::print2_@6
Culled Empty Block (label) main::print2_@return
Culled Empty Block (label) main::@2
Culled Empty Block (label) @1

CONTROL FLOW GRAPH SSA
@begin: scope:[]  from
  (byte*) screen ← ((byte*)) (number) $400
  to:@2

(void()) main()
main: scope:[main]  from @2
  (byte*) main::hello ← (const string) main::$3
  (byte*) main::print1_at#0 ← (byte*) screen
  (byte*) main::print1_msg#0 ← (byte*) main::hello
  to:main::print1
main::print1: scope:[main]  from main
  (byte*) main::print1_at#3 ← phi( main/(byte*) main::print1_at#0 )
  (byte*) main::print1_msg#3 ← phi( main/(byte*) main::print1_msg#0 )
  (byte) main::print1_j#0 ← (number) 0
  (byte) main::print1_i#0 ← (number) 0
  to:main::print1_@1
main::print1_@1: scope:[main]  from main::print1 main::print1_@2
  (byte) main::print1_j#3 ← phi( main::print1/(byte) main::print1_j#0 main::print1_@2/(byte) main::print1_j#1 )
  (byte*) main::print1_at#2 ← phi( main::print1/(byte*) main::print1_at#3 main::print1_@2/(byte*) main::print1_at#1 )
  (byte) main::print1_i#2 ← phi( main::print1/(byte) main::print1_i#0 main::print1_@2/(byte) main::print1_i#1 )
  (byte*) main::print1_msg#1 ← phi( main::print1/(byte*) main::print1_msg#3 main::print1_@2/(byte*) main::print1_msg#2 )
  (bool~) main::print1_$0 ← (number) 0 != *((byte*) main::print1_msg#1 + (byte) main::print1_i#2)
  if((bool~) main::print1_$0) goto main::print1_@2
  to:main::@1
main::print1_@2: scope:[main]  from main::print1_@1
  (byte) main::print1_j#2 ← phi( main::print1_@1/(byte) main::print1_j#3 )
  (byte*) main::print1_at#1 ← phi( main::print1_@1/(byte*) main::print1_at#2 )
  (byte) main::print1_i#3 ← phi( main::print1_@1/(byte) main::print1_i#2 )
  (byte*) main::print1_msg#2 ← phi( main::print1_@1/(byte*) main::print1_msg#1 )
  *((byte*) main::print1_at#1 + (byte) main::print1_j#2) ← *((byte*) main::print1_msg#2 + (byte) main::print1_i#3)
  (byte) main::print1_j#1 ← (byte) main::print1_j#2 + (number) 2
  (byte) main::print1_i#1 ← ++ (byte) main::print1_i#3
  to:main::print1_@1
main::@1: scope:[main]  from main::print1_@1
  (byte*~) main::$1 ← (byte*) screen + (number) 2*(number) $28
  (byte*) main::print2_at#0 ← (byte*~) main::$1
  (byte*) main::print2_msg#0 ← (byte*) main::hello
  to:main::print2
main::print2: scope:[main]  from main::@1
  (byte*) main::print2_at#3 ← phi( main::@1/(byte*) main::print2_at#0 )
  (byte*) main::print2_msg#3 ← phi( main::@1/(byte*) main::print2_msg#0 )
  (byte) main::print2_j#0 ← (number) 0
  (byte) main::print2_i#0 ← (number) 0
  to:main::print2_@1
main::print2_@1: scope:[main]  from main::print2 main::print2_@2
  (byte) main::print2_j#3 ← phi( main::print2/(byte) main::print2_j#0 main::print2_@2/(byte) main::print2_j#1 )
  (byte*) main::print2_at#2 ← phi( main::print2/(byte*) main::print2_at#3 main::print2_@2/(byte*) main::print2_at#1 )
  (byte) main::print2_i#2 ← phi( main::print2/(byte) main::print2_i#0 main::print2_@2/(byte) main::print2_i#1 )
  (byte*) main::print2_msg#1 ← phi( main::print2/(byte*) main::print2_msg#3 main::print2_@2/(byte*) main::print2_msg#2 )
  (bool~) main::print2_$0 ← (number) 0 != *((byte*) main::print2_msg#1 + (byte) main::print2_i#2)
  if((bool~) main::print2_$0) goto main::print2_@2
  to:main::@return
main::print2_@2: scope:[main]  from main::print2_@1
  (byte) main::print2_j#2 ← phi( main::print2_@1/(byte) main::print2_j#3 )
  (byte*) main::print2_at#1 ← phi( main::print2_@1/(byte*) main::print2_at#2 )
  (byte) main::print2_i#3 ← phi( main::print2_@1/(byte) main::print2_i#2 )
  (byte*) main::print2_msg#2 ← phi( main::print2_@1/(byte*) main::print2_msg#1 )
  *((byte*) main::print2_at#1 + (byte) main::print2_j#2) ← *((byte*) main::print2_msg#2 + (byte) main::print2_i#3)
  (byte) main::print2_j#1 ← (byte) main::print2_j#2 + (number) 2
  (byte) main::print2_i#1 ← ++ (byte) main::print2_i#3
  to:main::print2_@1
main::@return: scope:[main]  from main::print2_@1
  return 
  to:@return
@2: scope:[]  from @begin
  call main 
  to:@3
@3: scope:[]  from @2
  to:@end
@end: scope:[]  from @3

SYMBOL TABLE SSA
(label) @2
(label) @3
(label) @begin
(label) @end
(void()) main()
(byte*~) main::$1
(const string) main::$3 = (string) "hello world!"
(label) main::@1
(label) main::@return
(byte*) main::hello
(label) main::print1
(bool~) main::print1_$0
(label) main::print1_@1
(label) main::print1_@2
(byte*) main::print1_at
(byte*) main::print1_at#0
(byte*) main::print1_at#1
(byte*) main::print1_at#2
(byte*) main::print1_at#3
(byte) main::print1_i
(byte) main::print1_i#0
(byte) main::print1_i#1
(byte) main::print1_i#2
(byte) main::print1_i#3
(byte) main::print1_j
(byte) main::print1_j#0
(byte) main::print1_j#1
(byte) main::print1_j#2
(byte) main::print1_j#3
(byte*) main::print1_msg
(byte*) main::print1_msg#0
(byte*) main::print1_msg#1
(byte*) main::print1_msg#2
(byte*) main::print1_msg#3
(label) main::print2
(bool~) main::print2_$0
(label) main::print2_@1
(label) main::print2_@2
(byte*) main::print2_at
(byte*) main::print2_at#0
(byte*) main::print2_at#1
(byte*) main::print2_at#2
(byte*) main::print2_at#3
(byte) main::print2_i
(byte) main::print2_i#0
(byte) main::print2_i#1
(byte) main::print2_i#2
(byte) main::print2_i#3
(byte) main::print2_j
(byte) main::print2_j#0
(byte) main::print2_j#1
(byte) main::print2_j#2
(byte) main::print2_j#3
(byte*) main::print2_msg
(byte*) main::print2_msg#0
(byte*) main::print2_msg#1
(byte*) main::print2_msg#2
(byte*) main::print2_msg#3
(byte*) screen

Adding number conversion cast (unumber) 0 in (byte) main::print1_j#0 ← (number) 0
Adding number conversion cast (unumber) 0 in (byte) main::print1_i#0 ← (number) 0
Adding number conversion cast (unumber) 0 in (bool~) main::print1_$0 ← (number) 0 != *((byte*) main::print1_msg#1 + (byte) main::print1_i#2)
Adding number conversion cast (unumber) 2 in (byte) main::print1_j#1 ← (byte) main::print1_j#2 + (number) 2
Adding number conversion cast (unumber) 2*$28 in (byte*~) main::$1 ← (byte*) screen + (number) 2*(number) $28
Adding number conversion cast (unumber) 0 in (byte) main::print2_j#0 ← (number) 0
Adding number conversion cast (unumber) 0 in (byte) main::print2_i#0 ← (number) 0
Adding number conversion cast (unumber) 0 in (bool~) main::print2_$0 ← (number) 0 != *((byte*) main::print2_msg#1 + (byte) main::print2_i#2)
Adding number conversion cast (unumber) 2 in (byte) main::print2_j#1 ← (byte) main::print2_j#2 + (number) 2
Successful SSA optimization PassNAddNumberTypeConversions
Inlining cast (byte*) screen ← (byte*)(number) $400
Inlining cast (byte) main::print1_j#0 ← (unumber)(number) 0
Inlining cast (byte) main::print1_i#0 ← (unumber)(number) 0
Inlining cast (byte) main::print2_j#0 ← (unumber)(number) 0
Inlining cast (byte) main::print2_i#0 ← (unumber)(number) 0
Successful SSA optimization Pass2InlineCast
Simplifying constant pointer cast (byte*) 1024
Simplifying constant integer cast 0
Simplifying constant integer cast 0
Simplifying constant integer cast 0
Simplifying constant integer cast 2
Simplifying constant integer cast 0
Simplifying constant integer cast 0
Simplifying constant integer cast 0
Simplifying constant integer cast 2
Successful SSA optimization PassNCastSimplification
Finalized unsigned number type (byte) 0
Finalized unsigned number type (byte) 0
Finalized unsigned number type (byte) 0
Finalized unsigned number type (byte) 2
Finalized unsigned number type (byte) 0
Finalized unsigned number type (byte) 0
Finalized unsigned number type (byte) 0
Finalized unsigned number type (byte) 2
Successful SSA optimization PassNFinalizeNumberTypeConversions
Alias (byte*) main::hello = (byte*) main::print1_msg#0 (byte*) main::print1_msg#3 (byte*) main::print2_msg#0 (byte*) main::print2_msg#3 
Alias (byte*) main::print1_at#0 = (byte*) main::print1_at#3 
Alias (byte*) main::print1_msg#1 = (byte*) main::print1_msg#2 
Alias (byte) main::print1_i#2 = (byte) main::print1_i#3 
Alias (byte*) main::print1_at#1 = (byte*) main::print1_at#2 
Alias (byte) main::print1_j#2 = (byte) main::print1_j#3 
Alias (byte*) main::print2_at#0 = (byte*~) main::$1 (byte*) main::print2_at#3 
Alias (byte*) main::print2_msg#1 = (byte*) main::print2_msg#2 
Alias (byte) main::print2_i#2 = (byte) main::print2_i#3 
Alias (byte*) main::print2_at#1 = (byte*) main::print2_at#2 
Alias (byte) main::print2_j#2 = (byte) main::print2_j#3 
Successful SSA optimization Pass2AliasElimination
Identical Phi Values (byte*) main::print1_msg#1 (byte*) main::hello
Identical Phi Values (byte*) main::print1_at#1 (byte*) main::print1_at#0
Identical Phi Values (byte*) main::print2_msg#1 (byte*) main::hello
Identical Phi Values (byte*) main::print2_at#1 (byte*) main::print2_at#0
Successful SSA optimization Pass2IdenticalPhiElimination
Simple Condition (bool~) main::print1_$0 [9] if((byte) 0!=*((byte*) main::hello + (byte) main::print1_i#2)) goto main::print1_@2
Simple Condition (bool~) main::print2_$0 [22] if((byte) 0!=*((byte*) main::hello + (byte) main::print2_i#2)) goto main::print2_@2
Successful SSA optimization Pass2ConditionalJumpSimplification
Constant (const byte*) screen = (byte*) 1024
Constant (const byte*) main::hello = main::$3
Constant (const byte) main::print1_j#0 = 0
Constant (const byte) main::print1_i#0 = 0
Constant (const byte) main::print2_j#0 = 0
Constant (const byte) main::print2_i#0 = 0
Successful SSA optimization Pass2ConstantIdentification
Constant (const byte*) main::print1_at#0 = screen
Successful SSA optimization Pass2ConstantIdentification
Constant right-side identified [5] (byte*) main::print2_at#0 ← (const byte*) screen + (byte)(number) 2*(number) $28
Successful SSA optimization Pass2ConstantRValueConsolidation
Constant (const byte*) main::print2_at#0 = screen+(byte)2*$28
Successful SSA optimization Pass2ConstantIdentification
Inlining constant with var siblings (const byte) main::print1_j#0
Inlining constant with var siblings (const byte) main::print1_i#0
Inlining constant with var siblings (const byte) main::print2_j#0
Inlining constant with var siblings (const byte) main::print2_i#0
Constant inlined main::print2_j#0 = (byte) 0
Constant inlined main::print1_at#0 = (const byte*) screen
Constant inlined main::$3 = (const byte*) main::hello
Constant inlined main::print2_i#0 = (byte) 0
Constant inlined main::print1_i#0 = (byte) 0
Constant inlined main::print1_j#0 = (byte) 0
Successful SSA optimization Pass2ConstantInlining
Adding NOP phi() at start of @begin
Adding NOP phi() at start of @2
Adding NOP phi() at start of @3
Adding NOP phi() at start of @end
Adding NOP phi() at start of main
Adding NOP phi() at start of main::print1
Adding NOP phi() at start of main::@1
Adding NOP phi() at start of main::print2
CALL GRAPH
Calls in [] to main:2 

Created 4 initial phi equivalence classes
Coalesced [17] main::print2_i#4 ← main::print2_i#1
Coalesced [18] main::print2_j#4 ← main::print2_j#1
Coalesced [22] main::print1_i#4 ← main::print1_i#1
Coalesced [23] main::print1_j#4 ← main::print1_j#1
Coalesced down to 4 phi equivalence classes
Culled Empty Block (label) @3
Culled Empty Block (label) main::@1
Renumbering block @2 to @1
Adding NOP phi() at start of @begin
Adding NOP phi() at start of @1
Adding NOP phi() at start of @end
Adding NOP phi() at start of main
Adding NOP phi() at start of main::print1
Adding NOP phi() at start of main::print2

FINAL CONTROL FLOW GRAPH
@begin: scope:[]  from
  [0] phi()
  to:@1
@1: scope:[]  from @begin
  [1] phi()
  [2] call main 
  to:@end
@end: scope:[]  from @1
  [3] phi()

(void()) main()
main: scope:[main]  from @1
  [4] phi()
  to:main::print1
main::print1: scope:[main]  from main
  [5] phi()
  to:main::print1_@1
main::print1_@1: scope:[main]  from main::print1 main::print1_@2
  [6] (byte) main::print1_j#2 ← phi( main::print1/(byte) 0 main::print1_@2/(byte) main::print1_j#1 )
  [6] (byte) main::print1_i#2 ← phi( main::print1/(byte) 0 main::print1_@2/(byte) main::print1_i#1 )
  [7] if((byte) 0!=*((const byte*) main::hello + (byte) main::print1_i#2)) goto main::print1_@2
  to:main::print2
main::print2: scope:[main]  from main::print1_@1
  [8] phi()
  to:main::print2_@1
main::print2_@1: scope:[main]  from main::print2 main::print2_@2
  [9] (byte) main::print2_j#2 ← phi( main::print2/(byte) 0 main::print2_@2/(byte) main::print2_j#1 )
  [9] (byte) main::print2_i#2 ← phi( main::print2/(byte) 0 main::print2_@2/(byte) main::print2_i#1 )
  [10] if((byte) 0!=*((const byte*) main::hello + (byte) main::print2_i#2)) goto main::print2_@2
  to:main::@return
main::@return: scope:[main]  from main::print2_@1
  [11] return 
  to:@return
main::print2_@2: scope:[main]  from main::print2_@1
  [12] *((const byte*) main::print2_at#0 + (byte) main::print2_j#2) ← *((const byte*) main::hello + (byte) main::print2_i#2)
  [13] (byte) main::print2_j#1 ← (byte) main::print2_j#2 + (byte) 2
  [14] (byte) main::print2_i#1 ← ++ (byte) main::print2_i#2
  to:main::print2_@1
main::print1_@2: scope:[main]  from main::print1_@1
  [15] *((const byte*) screen + (byte) main::print1_j#2) ← *((const byte*) main::hello + (byte) main::print1_i#2)
  [16] (byte) main::print1_j#1 ← (byte) main::print1_j#2 + (byte) 2
  [17] (byte) main::print1_i#1 ← ++ (byte) main::print1_i#2
  to:main::print1_@1


VARIABLE REGISTER WEIGHTS
(void()) main()
(byte*) main::print1_at
(byte) main::print1_i
(byte) main::print1_i#1 22.0
(byte) main::print1_i#2 11.0
(byte) main::print1_j
(byte) main::print1_j#1 11.0
(byte) main::print1_j#2 11.0
(byte*) main::print1_msg
(byte*) main::print2_at
(byte) main::print2_i
(byte) main::print2_i#1 22.0
(byte) main::print2_i#2 11.0
(byte) main::print2_j
(byte) main::print2_j#1 11.0
(byte) main::print2_j#2 11.0
(byte*) main::print2_msg

Initial phi equivalence classes
[ main::print1_i#2 main::print1_i#1 ]
[ main::print1_j#2 main::print1_j#1 ]
[ main::print2_i#2 main::print2_i#1 ]
[ main::print2_j#2 main::print2_j#1 ]
Complete equivalence classes
[ main::print1_i#2 main::print1_i#1 ]
[ main::print1_j#2 main::print1_j#1 ]
[ main::print2_i#2 main::print2_i#1 ]
[ main::print2_j#2 main::print2_j#1 ]
Allocated zp ZP_BYTE:2 [ main::print1_i#2 main::print1_i#1 ]
Allocated zp ZP_BYTE:3 [ main::print1_j#2 main::print1_j#1 ]
Allocated zp ZP_BYTE:4 [ main::print2_i#2 main::print2_i#1 ]
Allocated zp ZP_BYTE:5 [ main::print2_j#2 main::print2_j#1 ]

INITIAL ASM
Target platform is c64basic / MOS6502X
  // File Comments
// TEst inlining a slightly complex print function (containing a loop)
  // Upstart
.pc = $801 "Basic"
:BasicUpstart(__bbegin)
.pc = $80d "Program"
  // Global Constants & labels
  .label screen = $400
  // @begin
__bbegin:
  // [1] phi from @begin to @1 [phi:@begin->@1]
__b1_from___bbegin:
  jmp __b1
  // @1
__b1:
  // [2] call main 
  // [4] phi from @1 to main [phi:@1->main]
main_from___b1:
  jsr main
  // [3] phi from @1 to @end [phi:@1->@end]
__bend_from___b1:
  jmp __bend
  // @end
__bend:
  // main
main: {
    .label print2_at = screen+2*$28
    .label print1_j = 3
    .label print1_i = 2
    .label print2_j = 5
    .label print2_i = 4
    // [5] phi from main to main::print1 [phi:main->main::print1]
  print1_from_main:
    jmp print1
    // main::print1
  print1:
    // [6] phi from main::print1 to main::print1_@1 [phi:main::print1->main::print1_@1]
  print1___b1_from_print1:
    // [6] phi (byte) main::print1_j#2 = (byte) 0 [phi:main::print1->main::print1_@1#0] -- vbuz1=vbuc1 
    lda #0
    sta.z print1_j
    // [6] phi (byte) main::print1_i#2 = (byte) 0 [phi:main::print1->main::print1_@1#1] -- vbuz1=vbuc1 
    lda #0
    sta.z print1_i
    jmp print1___b1
    // main::print1_@1
  print1___b1:
    // [7] if((byte) 0!=*((const byte*) main::hello + (byte) main::print1_i#2)) goto main::print1_@2 -- vbuc1_neq_pbuc2_derefidx_vbuz1_then_la1 
    lda #0
    ldy.z print1_i
    cmp hello,y
    bne print1___b2
    // [8] phi from main::print1_@1 to main::print2 [phi:main::print1_@1->main::print2]
  print2_from_print1___b1:
    jmp print2
    // main::print2
  print2:
    // [9] phi from main::print2 to main::print2_@1 [phi:main::print2->main::print2_@1]
  print2___b1_from_print2:
    // [9] phi (byte) main::print2_j#2 = (byte) 0 [phi:main::print2->main::print2_@1#0] -- vbuz1=vbuc1 
    lda #0
    sta.z print2_j
    // [9] phi (byte) main::print2_i#2 = (byte) 0 [phi:main::print2->main::print2_@1#1] -- vbuz1=vbuc1 
    lda #0
    sta.z print2_i
    jmp print2___b1
    // main::print2_@1
  print2___b1:
    // [10] if((byte) 0!=*((const byte*) main::hello + (byte) main::print2_i#2)) goto main::print2_@2 -- vbuc1_neq_pbuc2_derefidx_vbuz1_then_la1 
    lda #0
    ldy.z print2_i
    cmp hello,y
    bne print2___b2
    jmp __breturn
    // main::@return
  __breturn:
    // [11] return 
    rts
    // main::print2_@2
  print2___b2:
    // [12] *((const byte*) main::print2_at#0 + (byte) main::print2_j#2) ← *((const byte*) main::hello + (byte) main::print2_i#2) -- pbuc1_derefidx_vbuz1=pbuc2_derefidx_vbuz2 
    ldy.z print2_i
    lda hello,y
    ldy.z print2_j
    sta print2_at,y
    // [13] (byte) main::print2_j#1 ← (byte) main::print2_j#2 + (byte) 2 -- vbuz1=vbuz1_plus_2 
    lda.z print2_j
    clc
    adc #2
    sta.z print2_j
    // [14] (byte) main::print2_i#1 ← ++ (byte) main::print2_i#2 -- vbuz1=_inc_vbuz1 
    inc.z print2_i
    // [9] phi from main::print2_@2 to main::print2_@1 [phi:main::print2_@2->main::print2_@1]
  print2___b1_from_print2___b2:
    // [9] phi (byte) main::print2_j#2 = (byte) main::print2_j#1 [phi:main::print2_@2->main::print2_@1#0] -- register_copy 
    // [9] phi (byte) main::print2_i#2 = (byte) main::print2_i#1 [phi:main::print2_@2->main::print2_@1#1] -- register_copy 
    jmp print2___b1
    // main::print1_@2
  print1___b2:
    // [15] *((const byte*) screen + (byte) main::print1_j#2) ← *((const byte*) main::hello + (byte) main::print1_i#2) -- pbuc1_derefidx_vbuz1=pbuc2_derefidx_vbuz2 
    ldy.z print1_i
    lda hello,y
    ldy.z print1_j
    sta screen,y
    // [16] (byte) main::print1_j#1 ← (byte) main::print1_j#2 + (byte) 2 -- vbuz1=vbuz1_plus_2 
    lda.z print1_j
    clc
    adc #2
    sta.z print1_j
    // [17] (byte) main::print1_i#1 ← ++ (byte) main::print1_i#2 -- vbuz1=_inc_vbuz1 
    inc.z print1_i
    // [6] phi from main::print1_@2 to main::print1_@1 [phi:main::print1_@2->main::print1_@1]
  print1___b1_from_print1___b2:
    // [6] phi (byte) main::print1_j#2 = (byte) main::print1_j#1 [phi:main::print1_@2->main::print1_@1#0] -- register_copy 
    // [6] phi (byte) main::print1_i#2 = (byte) main::print1_i#1 [phi:main::print1_@2->main::print1_@1#1] -- register_copy 
    jmp print1___b1
    hello: .text "hello world!"
    .byte 0
}
  // File Data

REGISTER UPLIFT POTENTIAL REGISTERS
Statement [7] if((byte) 0!=*((const byte*) main::hello + (byte) main::print1_i#2)) goto main::print1_@2 [ main::print1_i#2 main::print1_j#2 ] ( main:2 [ main::print1_i#2 main::print1_j#2 ] ) always clobbers reg byte a 
Removing always clobbered register reg byte a as potential for zp ZP_BYTE:2 [ main::print1_i#2 main::print1_i#1 ]
Removing always clobbered register reg byte a as potential for zp ZP_BYTE:3 [ main::print1_j#2 main::print1_j#1 ]
Statement [10] if((byte) 0!=*((const byte*) main::hello + (byte) main::print2_i#2)) goto main::print2_@2 [ main::print2_i#2 main::print2_j#2 ] ( main:2 [ main::print2_i#2 main::print2_j#2 ] ) always clobbers reg byte a 
Removing always clobbered register reg byte a as potential for zp ZP_BYTE:4 [ main::print2_i#2 main::print2_i#1 ]
Removing always clobbered register reg byte a as potential for zp ZP_BYTE:5 [ main::print2_j#2 main::print2_j#1 ]
Statement [12] *((const byte*) main::print2_at#0 + (byte) main::print2_j#2) ← *((const byte*) main::hello + (byte) main::print2_i#2) [ main::print2_i#2 main::print2_j#2 ] ( main:2 [ main::print2_i#2 main::print2_j#2 ] ) always clobbers reg byte a 
Statement [15] *((const byte*) screen + (byte) main::print1_j#2) ← *((const byte*) main::hello + (byte) main::print1_i#2) [ main::print1_i#2 main::print1_j#2 ] ( main:2 [ main::print1_i#2 main::print1_j#2 ] ) always clobbers reg byte a 
Statement [7] if((byte) 0!=*((const byte*) main::hello + (byte) main::print1_i#2)) goto main::print1_@2 [ main::print1_i#2 main::print1_j#2 ] ( main:2 [ main::print1_i#2 main::print1_j#2 ] ) always clobbers reg byte a 
Statement [10] if((byte) 0!=*((const byte*) main::hello + (byte) main::print2_i#2)) goto main::print2_@2 [ main::print2_i#2 main::print2_j#2 ] ( main:2 [ main::print2_i#2 main::print2_j#2 ] ) always clobbers reg byte a 
Statement [12] *((const byte*) main::print2_at#0 + (byte) main::print2_j#2) ← *((const byte*) main::hello + (byte) main::print2_i#2) [ main::print2_i#2 main::print2_j#2 ] ( main:2 [ main::print2_i#2 main::print2_j#2 ] ) always clobbers reg byte a 
Statement [15] *((const byte*) screen + (byte) main::print1_j#2) ← *((const byte*) main::hello + (byte) main::print1_i#2) [ main::print1_i#2 main::print1_j#2 ] ( main:2 [ main::print1_i#2 main::print1_j#2 ] ) always clobbers reg byte a 
Potential registers zp ZP_BYTE:2 [ main::print1_i#2 main::print1_i#1 ] : zp ZP_BYTE:2 , reg byte x , reg byte y , 
Potential registers zp ZP_BYTE:3 [ main::print1_j#2 main::print1_j#1 ] : zp ZP_BYTE:3 , reg byte x , reg byte y , 
Potential registers zp ZP_BYTE:4 [ main::print2_i#2 main::print2_i#1 ] : zp ZP_BYTE:4 , reg byte x , reg byte y , 
Potential registers zp ZP_BYTE:5 [ main::print2_j#2 main::print2_j#1 ] : zp ZP_BYTE:5 , reg byte x , reg byte y , 

REGISTER UPLIFT SCOPES
Uplift Scope [main] 33: zp ZP_BYTE:2 [ main::print1_i#2 main::print1_i#1 ] 33: zp ZP_BYTE:4 [ main::print2_i#2 main::print2_i#1 ] 22: zp ZP_BYTE:3 [ main::print1_j#2 main::print1_j#1 ] 22: zp ZP_BYTE:5 [ main::print2_j#2 main::print2_j#1 ] 
Uplift Scope [] 

Uplifting [main] best 744 combination reg byte y [ main::print1_i#2 main::print1_i#1 ] reg byte y [ main::print2_i#2 main::print2_i#1 ] reg byte x [ main::print1_j#2 main::print1_j#1 ] reg byte x [ main::print2_j#2 main::print2_j#1 ] 
Uplifting [] best 744 combination 

ASSEMBLER BEFORE OPTIMIZATION
  // File Comments
// TEst inlining a slightly complex print function (containing a loop)
  // Upstart
.pc = $801 "Basic"
:BasicUpstart(__bbegin)
.pc = $80d "Program"
  // Global Constants & labels
  .label screen = $400
  // @begin
__bbegin:
  // [1] phi from @begin to @1 [phi:@begin->@1]
__b1_from___bbegin:
  jmp __b1
  // @1
__b1:
  // [2] call main 
  // [4] phi from @1 to main [phi:@1->main]
main_from___b1:
  jsr main
  // [3] phi from @1 to @end [phi:@1->@end]
__bend_from___b1:
  jmp __bend
  // @end
__bend:
  // main
main: {
    .label print2_at = screen+2*$28
    // [5] phi from main to main::print1 [phi:main->main::print1]
  print1_from_main:
    jmp print1
    // main::print1
  print1:
    // [6] phi from main::print1 to main::print1_@1 [phi:main::print1->main::print1_@1]
  print1___b1_from_print1:
    // [6] phi (byte) main::print1_j#2 = (byte) 0 [phi:main::print1->main::print1_@1#0] -- vbuxx=vbuc1 
    ldx #0
    // [6] phi (byte) main::print1_i#2 = (byte) 0 [phi:main::print1->main::print1_@1#1] -- vbuyy=vbuc1 
    ldy #0
    jmp print1___b1
    // main::print1_@1
  print1___b1:
    // [7] if((byte) 0!=*((const byte*) main::hello + (byte) main::print1_i#2)) goto main::print1_@2 -- vbuc1_neq_pbuc2_derefidx_vbuyy_then_la1 
    lda #0
    cmp hello,y
    bne print1___b2
    // [8] phi from main::print1_@1 to main::print2 [phi:main::print1_@1->main::print2]
  print2_from_print1___b1:
    jmp print2
    // main::print2
  print2:
    // [9] phi from main::print2 to main::print2_@1 [phi:main::print2->main::print2_@1]
  print2___b1_from_print2:
    // [9] phi (byte) main::print2_j#2 = (byte) 0 [phi:main::print2->main::print2_@1#0] -- vbuxx=vbuc1 
    ldx #0
    // [9] phi (byte) main::print2_i#2 = (byte) 0 [phi:main::print2->main::print2_@1#1] -- vbuyy=vbuc1 
    ldy #0
    jmp print2___b1
    // main::print2_@1
  print2___b1:
    // [10] if((byte) 0!=*((const byte*) main::hello + (byte) main::print2_i#2)) goto main::print2_@2 -- vbuc1_neq_pbuc2_derefidx_vbuyy_then_la1 
    lda #0
    cmp hello,y
    bne print2___b2
    jmp __breturn
    // main::@return
  __breturn:
    // [11] return 
    rts
    // main::print2_@2
  print2___b2:
    // [12] *((const byte*) main::print2_at#0 + (byte) main::print2_j#2) ← *((const byte*) main::hello + (byte) main::print2_i#2) -- pbuc1_derefidx_vbuxx=pbuc2_derefidx_vbuyy 
    lda hello,y
    sta print2_at,x
    // [13] (byte) main::print2_j#1 ← (byte) main::print2_j#2 + (byte) 2 -- vbuxx=vbuxx_plus_2 
    inx
    inx
    // [14] (byte) main::print2_i#1 ← ++ (byte) main::print2_i#2 -- vbuyy=_inc_vbuyy 
    iny
    // [9] phi from main::print2_@2 to main::print2_@1 [phi:main::print2_@2->main::print2_@1]
  print2___b1_from_print2___b2:
    // [9] phi (byte) main::print2_j#2 = (byte) main::print2_j#1 [phi:main::print2_@2->main::print2_@1#0] -- register_copy 
    // [9] phi (byte) main::print2_i#2 = (byte) main::print2_i#1 [phi:main::print2_@2->main::print2_@1#1] -- register_copy 
    jmp print2___b1
    // main::print1_@2
  print1___b2:
    // [15] *((const byte*) screen + (byte) main::print1_j#2) ← *((const byte*) main::hello + (byte) main::print1_i#2) -- pbuc1_derefidx_vbuxx=pbuc2_derefidx_vbuyy 
    lda hello,y
    sta screen,x
    // [16] (byte) main::print1_j#1 ← (byte) main::print1_j#2 + (byte) 2 -- vbuxx=vbuxx_plus_2 
    inx
    inx
    // [17] (byte) main::print1_i#1 ← ++ (byte) main::print1_i#2 -- vbuyy=_inc_vbuyy 
    iny
    // [6] phi from main::print1_@2 to main::print1_@1 [phi:main::print1_@2->main::print1_@1]
  print1___b1_from_print1___b2:
    // [6] phi (byte) main::print1_j#2 = (byte) main::print1_j#1 [phi:main::print1_@2->main::print1_@1#0] -- register_copy 
    // [6] phi (byte) main::print1_i#2 = (byte) main::print1_i#1 [phi:main::print1_@2->main::print1_@1#1] -- register_copy 
    jmp print1___b1
    hello: .text "hello world!"
    .byte 0
}
  // File Data

ASSEMBLER OPTIMIZATIONS
Removing instruction jmp __b1
Removing instruction jmp __bend
Removing instruction jmp print1
Removing instruction jmp print1___b1
Removing instruction jmp print2
Removing instruction jmp print2___b1
Removing instruction jmp __breturn
Succesful ASM optimization Pass5NextJumpElimination
Replacing label __bbegin with __b1
Removing instruction __bbegin:
Removing instruction __b1_from___bbegin:
Removing instruction main_from___b1:
Removing instruction __bend_from___b1:
Removing instruction print1_from_main:
Removing instruction print1___b1_from_print1:
Removing instruction print2_from_print1___b1:
Removing instruction print2___b1_from_print2:
Succesful ASM optimization Pass5RedundantLabelElimination
Removing instruction __bend:
Removing instruction print1:
Removing instruction print2:
Removing instruction __breturn:
Removing instruction print2___b1_from_print2___b2:
Removing instruction print1___b1_from_print1___b2:
Succesful ASM optimization Pass5UnusedLabelElimination
Updating BasicUpstart to call main directly
Removing instruction jsr main
Succesful ASM optimization Pass5SkipBegin
Replacing instruction ldx #0 with TAX
Replacing instruction ldy #0 with TAY
Removing instruction __b1:
Succesful ASM optimization Pass5UnusedLabelElimination

FINAL SYMBOL TABLE
(label) @1
(label) @begin
(label) @end
(void()) main()
(label) main::@return
(const byte*) main::hello hello = (string) "hello world!"
(label) main::print1
(label) main::print1_@1
(label) main::print1_@2
(byte*) main::print1_at
(byte) main::print1_i
(byte) main::print1_i#1 reg byte y 22.0
(byte) main::print1_i#2 reg byte y 11.0
(byte) main::print1_j
(byte) main::print1_j#1 reg byte x 11.0
(byte) main::print1_j#2 reg byte x 11.0
(byte*) main::print1_msg
(label) main::print2
(label) main::print2_@1
(label) main::print2_@2
(byte*) main::print2_at
(const byte*) main::print2_at#0 print2_at = (const byte*) screen+(byte)(number) 2*(number) $28
(byte) main::print2_i
(byte) main::print2_i#1 reg byte y 22.0
(byte) main::print2_i#2 reg byte y 11.0
(byte) main::print2_j
(byte) main::print2_j#1 reg byte x 11.0
(byte) main::print2_j#2 reg byte x 11.0
(byte*) main::print2_msg
(const byte*) screen screen = (byte*) 1024

reg byte y [ main::print1_i#2 main::print1_i#1 ]
reg byte x [ main::print1_j#2 main::print1_j#1 ]
reg byte y [ main::print2_i#2 main::print2_i#1 ]
reg byte x [ main::print2_j#2 main::print2_j#1 ]


FINAL ASSEMBLER
Score: 636

  // File Comments
// TEst inlining a slightly complex print function (containing a loop)
  // Upstart
.pc = $801 "Basic"
:BasicUpstart(main)
.pc = $80d "Program"
  // Global Constants & labels
  .label screen = $400
  // @begin
  // [1] phi from @begin to @1 [phi:@begin->@1]
  // @1
  // [2] call main 
  // [4] phi from @1 to main [phi:@1->main]
  // [3] phi from @1 to @end [phi:@1->@end]
  // @end
  // main
main: {
    .label print2_at = screen+2*$28
    // [5] phi from main to main::print1 [phi:main->main::print1]
    // main::print1
    // [6] phi from main::print1 to main::print1_@1 [phi:main::print1->main::print1_@1]
    // [6] phi (byte) main::print1_j#2 = (byte) 0 [phi:main::print1->main::print1_@1#0] -- vbuxx=vbuc1 
    ldx #0
    // [6] phi (byte) main::print1_i#2 = (byte) 0 [phi:main::print1->main::print1_@1#1] -- vbuyy=vbuc1 
    ldy #0
    // main::print1_@1
  print1___b1:
    // for(byte i=0; msg[i]; i++)
    // [7] if((byte) 0!=*((const byte*) main::hello + (byte) main::print1_i#2)) goto main::print1_@2 -- vbuc1_neq_pbuc2_derefidx_vbuyy_then_la1 
    lda #0
    cmp hello,y
    bne print1___b2
    // [8] phi from main::print1_@1 to main::print2 [phi:main::print1_@1->main::print2]
    // main::print2
    // [9] phi from main::print2 to main::print2_@1 [phi:main::print2->main::print2_@1]
    // [9] phi (byte) main::print2_j#2 = (byte) 0 [phi:main::print2->main::print2_@1#0] -- vbuxx=vbuc1 
    tax
    // [9] phi (byte) main::print2_i#2 = (byte) 0 [phi:main::print2->main::print2_@1#1] -- vbuyy=vbuc1 
    tay
    // main::print2_@1
  print2___b1:
    // for(byte i=0; msg[i]; i++)
    // [10] if((byte) 0!=*((const byte*) main::hello + (byte) main::print2_i#2)) goto main::print2_@2 -- vbuc1_neq_pbuc2_derefidx_vbuyy_then_la1 
    lda #0
    cmp hello,y
    bne print2___b2
    // main::@return
    // }
    // [11] return 
    rts
    // main::print2_@2
  print2___b2:
    // at[j] = msg[i]
    // [12] *((const byte*) main::print2_at#0 + (byte) main::print2_j#2) ← *((const byte*) main::hello + (byte) main::print2_i#2) -- pbuc1_derefidx_vbuxx=pbuc2_derefidx_vbuyy 
    lda hello,y
    sta print2_at,x
    // j += 2
    // [13] (byte) main::print2_j#1 ← (byte) main::print2_j#2 + (byte) 2 -- vbuxx=vbuxx_plus_2 
    inx
    inx
    // for(byte i=0; msg[i]; i++)
    // [14] (byte) main::print2_i#1 ← ++ (byte) main::print2_i#2 -- vbuyy=_inc_vbuyy 
    iny
    // [9] phi from main::print2_@2 to main::print2_@1 [phi:main::print2_@2->main::print2_@1]
    // [9] phi (byte) main::print2_j#2 = (byte) main::print2_j#1 [phi:main::print2_@2->main::print2_@1#0] -- register_copy 
    // [9] phi (byte) main::print2_i#2 = (byte) main::print2_i#1 [phi:main::print2_@2->main::print2_@1#1] -- register_copy 
    jmp print2___b1
    // main::print1_@2
  print1___b2:
    // at[j] = msg[i]
    // [15] *((const byte*) screen + (byte) main::print1_j#2) ← *((const byte*) main::hello + (byte) main::print1_i#2) -- pbuc1_derefidx_vbuxx=pbuc2_derefidx_vbuyy 
    lda hello,y
    sta screen,x
    // j += 2
    // [16] (byte) main::print1_j#1 ← (byte) main::print1_j#2 + (byte) 2 -- vbuxx=vbuxx_plus_2 
    inx
    inx
    // for(byte i=0; msg[i]; i++)
    // [17] (byte) main::print1_i#1 ← ++ (byte) main::print1_i#2 -- vbuyy=_inc_vbuyy 
    iny
    // [6] phi from main::print1_@2 to main::print1_@1 [phi:main::print1_@2->main::print1_@1]
    // [6] phi (byte) main::print1_j#2 = (byte) main::print1_j#1 [phi:main::print1_@2->main::print1_@1#0] -- register_copy 
    // [6] phi (byte) main::print1_i#2 = (byte) main::print1_i#1 [phi:main::print1_@2->main::print1_@1#1] -- register_copy 
    jmp print1___b1
    hello: .text "hello world!"
    .byte 0
}
  // File Data

