(label) @1
(label) @begin
(label) @end
(const byte*) SCREEN SCREEN = (byte*) 1024
(void()) main()
(label) main::@1
(label) main::@2
(label) main::@3
(label) main::@4
(label) main::@5
(label) main::@return
(byte) main::k
(byte) main::k#1 k zp ZP_BYTE:2 16.5
(byte) main::k#6 k zp ZP_BYTE:2 2.75
(byte) main::l
(byte) main::l#1 l zp ZP_BYTE:3 151.5
(byte) main::l#4 l zp ZP_BYTE:3 40.4
(byte) main::m
(byte) main::m#1 reg byte y 1501.5
(byte) main::m#2 reg byte y 1001.0

zp ZP_BYTE:2 [ main::k#6 main::k#1 ]
zp ZP_BYTE:3 [ main::l#4 main::l#1 ]
reg byte y [ main::m#2 main::m#1 ]
