(label) @1
(label) @begin
(label) @end
(const byte) GREEN GREEN = (byte) 5
(const byte) RED RED = (byte) 2
(const byte) WHITE WHITE = (byte) 1
(void()) main()
(label) main::@1
(label) main::@2
(label) main::@3
(label) main::@return
(const byte*) main::cols cols = (byte*) 55296
(const byte[]) main::colseq colseq = { (const byte) WHITE, (const byte) RED, (const byte) GREEN }
(byte) main::i
(byte) main::i#1 reg byte x 16.5
(byte) main::i#2 reg byte x 6.285714285714286
(byte) main::j
(byte) main::j#1 reg byte y 11.0
(byte) main::j#3 reg byte y 11.0
(byte) main::j#4 reg byte y 7.333333333333333
(const byte*) main::screen screen = (byte*) 1024

reg byte x [ main::i#2 main::i#1 ]
reg byte y [ main::j#3 main::j#4 main::j#1 ]
