(label) @1
(label) @begin
(label) @end
(const byte*) BGCOL BGCOL = (byte*) 53280
(const byte) BLACK BLACK = (byte) 0
(const byte*) CIA1_INTERRUPT CIA1_INTERRUPT = (byte*) 56333
(const byte) CIA_INTERRUPT_CLEAR CIA_INTERRUPT_CLEAR = (byte) $7f
(const byte*) IRQ_ENABLE IRQ_ENABLE = (byte*) 53274
(const byte) IRQ_RASTER IRQ_RASTER = (byte) 1
(const byte*) IRQ_STATUS IRQ_STATUS = (byte*) 53273
(const void()**) KERNEL_IRQ KERNEL_IRQ = (void()**) 788
(const byte*) RASTER RASTER = (byte*) 53266
(const byte*) VIC_CONTROL VIC_CONTROL = (byte*) 53265
(const byte) WHITE WHITE = (byte) 1
interrupt(KERNEL_KEYBOARD)(void()) irq()
(label) irq::@return
(void()) main()
(label) main::@return

