(label) @1
(label) @begin
(label) @end
(const byte*) BGCOL BGCOL = (byte*) 53281
(const byte) BLACK BLACK = (byte) 0
(const byte*) BORDERCOL BORDERCOL = (byte*) 53280
(const byte*) CIA1_INTERRUPT CIA1_INTERRUPT = (byte*) 56333
(const byte) CIA_INTERRUPT_CLEAR CIA_INTERRUPT_CLEAR = (byte) $7f
(const void()**) HARDWARE_IRQ HARDWARE_IRQ = (void()**) 65534
(const byte*) IRQ_ENABLE IRQ_ENABLE = (byte*) 53274
(const byte) IRQ_RASTER IRQ_RASTER = (byte) 1
(const byte*) IRQ_STATUS IRQ_STATUS = (byte*) 53273
(const byte*) PROCPORT PROCPORT = (byte*) 1
(const byte*) PROCPORT_DDR PROCPORT_DDR = (byte*) 0
(const byte) PROCPORT_DDR_MEMORY_MASK PROCPORT_DDR_MEMORY_MASK = (byte) 7
(const byte) PROCPORT_RAM_IO PROCPORT_RAM_IO = (byte) 5
(const byte*) RASTER RASTER = (byte*) 53266
(const byte*) VIC_CONTROL VIC_CONTROL = (byte*) 53265
(const byte) WHITE WHITE = (byte) 1
(void()) do_irq()
(label) do_irq::@return
interrupt(HARDWARE_CLOBBER)(void()) irq()
(label) irq::@return
(void()) main()
(label) main::@1

