Warning! Adding boolean cast to non-boolean condition *((byte[]) main::msg + (byte) main::i)
Identified constant variable (byte*) main::screen
Culled Empty Block (label) main::@4
Culled Empty Block (label) main::@3
Culled Empty Block (label) main::@5
Culled Empty Block (label) main::@6

CONTROL FLOW GRAPH SSA
@begin: scope:[]  from
  to:@1

(void()) main()
main: scope:[main]  from @1
  (byte*) main::screen ← ((byte*)) (number) $400
  (byte[]) main::msg ← (const string) main::$1
  (byte) main::i#0 ← (number) 0
  to:main::@1
main::@1: scope:[main]  from main main::@2
  (byte) main::i#2 ← phi( main/(byte) main::i#0 main::@2/(byte) main::i#1 )
  (bool~) main::$0 ← (number) 0 != *((byte[]) main::msg + (byte) main::i#2)
  if((bool~) main::$0) goto main::@2
  to:main::@return
main::@2: scope:[main]  from main::@1
  (byte) main::i#3 ← phi( main::@1/(byte) main::i#2 )
  *((byte*) main::screen + (byte) main::i#3) ← *((byte[]) main::msg + (byte) main::i#3)
  (byte) main::i#1 ← ++ (byte) main::i#3
  to:main::@1
main::@return: scope:[main]  from main::@1
  return 
  to:@return
@1: scope:[]  from @begin
  call main 
  to:@2
@2: scope:[]  from @1
  to:@end
@end: scope:[]  from @2

SYMBOL TABLE SSA
(label) @1
(label) @2
(label) @begin
(label) @end
(void()) main()
(bool~) main::$0
(const string) main::$1 = (string) "message 2 "
(label) main::@1
(label) main::@2
(label) main::@return
(byte) main::i
(byte) main::i#0
(byte) main::i#1
(byte) main::i#2
(byte) main::i#3
(byte[]) main::msg
(byte*) main::screen

Adding number conversion cast (unumber) 0 in (byte) main::i#0 ← (number) 0
Adding number conversion cast (unumber) 0 in (bool~) main::$0 ← (number) 0 != *((byte[]) main::msg + (byte) main::i#2)
Successful SSA optimization PassNAddNumberTypeConversions
Inlining cast (byte*) main::screen ← (byte*)(number) $400
Inlining cast (byte) main::i#0 ← (unumber)(number) 0
Successful SSA optimization Pass2InlineCast
Simplifying constant pointer cast (byte*) 1024
Simplifying constant integer cast 0
Simplifying constant integer cast 0
Successful SSA optimization PassNCastSimplification
Finalized unsigned number type (byte) 0
Finalized unsigned number type (byte) 0
Successful SSA optimization PassNFinalizeNumberTypeConversions
Alias (byte) main::i#2 = (byte) main::i#3 
Successful SSA optimization Pass2AliasElimination
Simple Condition (bool~) main::$0 [5] if((byte) 0!=*((byte[]) main::msg + (byte) main::i#2)) goto main::@2
Successful SSA optimization Pass2ConditionalJumpSimplification
Constant (const byte*) main::screen = (byte*) 1024
Constant (const byte[]) main::msg = main::$1
Constant (const byte) main::i#0 = 0
Successful SSA optimization Pass2ConstantIdentification
Inlining constant with var siblings (const byte) main::i#0
Constant inlined main::$1 = (const byte[]) main::msg
Constant inlined main::i#0 = (byte) 0
Successful SSA optimization Pass2ConstantInlining
Adding NOP phi() at start of @begin
Adding NOP phi() at start of @1
Adding NOP phi() at start of @2
Adding NOP phi() at start of @end
Adding NOP phi() at start of main
CALL GRAPH
Calls in [] to main:2 

Created 1 initial phi equivalence classes
Coalesced [11] main::i#4 ← main::i#1
Coalesced down to 1 phi equivalence classes
Culled Empty Block (label) @2
Adding NOP phi() at start of @begin
Adding NOP phi() at start of @1
Adding NOP phi() at start of @end
Adding NOP phi() at start of main

FINAL CONTROL FLOW GRAPH
@begin: scope:[]  from
  [0] phi()
  to:@1
@1: scope:[]  from @begin
  [1] phi()
  [2] call main 
  to:@end
@end: scope:[]  from @1
  [3] phi()

(void()) main()
main: scope:[main]  from @1
  [4] phi()
  to:main::@1
main::@1: scope:[main]  from main main::@2
  [5] (byte) main::i#2 ← phi( main/(byte) 0 main::@2/(byte) main::i#1 )
  [6] if((byte) 0!=*((const byte[]) main::msg + (byte) main::i#2)) goto main::@2
  to:main::@return
main::@return: scope:[main]  from main::@1
  [7] return 
  to:@return
main::@2: scope:[main]  from main::@1
  [8] *((const byte*) main::screen + (byte) main::i#2) ← *((const byte[]) main::msg + (byte) main::i#2)
  [9] (byte) main::i#1 ← ++ (byte) main::i#2
  to:main::@1


VARIABLE REGISTER WEIGHTS
(void()) main()
(byte) main::i
(byte) main::i#1 22.0
(byte) main::i#2 18.333333333333332

Initial phi equivalence classes
[ main::i#2 main::i#1 ]
Complete equivalence classes
[ main::i#2 main::i#1 ]
Allocated zp ZP_BYTE:2 [ main::i#2 main::i#1 ]

INITIAL ASM
Target platform is c64basic / MOS6502X
  // File Comments
// Local constant strings are placed at the start of the method. This means the generated ASM jumps / calls straignt into the constant string
  // Upstart
.pc = $801 "Basic"
:BasicUpstart(__bbegin)
.pc = $80d "Program"
  // Global Constants & labels
  // @begin
__bbegin:
  // [1] phi from @begin to @1 [phi:@begin->@1]
__b1_from___bbegin:
  jmp __b1
  // @1
__b1:
  // [2] call main 
  // [4] phi from @1 to main [phi:@1->main]
main_from___b1:
  jsr main
  // [3] phi from @1 to @end [phi:@1->@end]
__bend_from___b1:
  jmp __bend
  // @end
__bend:
  // main
main: {
    .label screen = $400
    .label i = 2
    // [5] phi from main to main::@1 [phi:main->main::@1]
  __b1_from_main:
    // [5] phi (byte) main::i#2 = (byte) 0 [phi:main->main::@1#0] -- vbuz1=vbuc1 
    lda #0
    sta.z i
    jmp __b1
    // main::@1
  __b1:
    // [6] if((byte) 0!=*((const byte[]) main::msg + (byte) main::i#2)) goto main::@2 -- vbuc1_neq_pbuc2_derefidx_vbuz1_then_la1 
    lda #0
    ldy.z i
    cmp msg,y
    bne __b2
    jmp __breturn
    // main::@return
  __breturn:
    // [7] return 
    rts
    // main::@2
  __b2:
    // [8] *((const byte*) main::screen + (byte) main::i#2) ← *((const byte[]) main::msg + (byte) main::i#2) -- pbuc1_derefidx_vbuz1=pbuc2_derefidx_vbuz1 
    ldy.z i
    lda msg,y
    sta screen,y
    // [9] (byte) main::i#1 ← ++ (byte) main::i#2 -- vbuz1=_inc_vbuz1 
    inc.z i
    // [5] phi from main::@2 to main::@1 [phi:main::@2->main::@1]
  __b1_from___b2:
    // [5] phi (byte) main::i#2 = (byte) main::i#1 [phi:main::@2->main::@1#0] -- register_copy 
    jmp __b1
    msg: .text "message 2 "
    .byte 0
}
  // File Data

REGISTER UPLIFT POTENTIAL REGISTERS
Statement [6] if((byte) 0!=*((const byte[]) main::msg + (byte) main::i#2)) goto main::@2 [ main::i#2 ] ( main:2 [ main::i#2 ] ) always clobbers reg byte a 
Removing always clobbered register reg byte a as potential for zp ZP_BYTE:2 [ main::i#2 main::i#1 ]
Statement [8] *((const byte*) main::screen + (byte) main::i#2) ← *((const byte[]) main::msg + (byte) main::i#2) [ main::i#2 ] ( main:2 [ main::i#2 ] ) always clobbers reg byte a 
Statement [6] if((byte) 0!=*((const byte[]) main::msg + (byte) main::i#2)) goto main::@2 [ main::i#2 ] ( main:2 [ main::i#2 ] ) always clobbers reg byte a 
Statement [8] *((const byte*) main::screen + (byte) main::i#2) ← *((const byte[]) main::msg + (byte) main::i#2) [ main::i#2 ] ( main:2 [ main::i#2 ] ) always clobbers reg byte a 
Potential registers zp ZP_BYTE:2 [ main::i#2 main::i#1 ] : zp ZP_BYTE:2 , reg byte x , reg byte y , 

REGISTER UPLIFT SCOPES
Uplift Scope [main] 40.33: zp ZP_BYTE:2 [ main::i#2 main::i#1 ] 
Uplift Scope [] 

Uplifting [main] best 333 combination reg byte x [ main::i#2 main::i#1 ] 
Uplifting [] best 333 combination 

ASSEMBLER BEFORE OPTIMIZATION
  // File Comments
// Local constant strings are placed at the start of the method. This means the generated ASM jumps / calls straignt into the constant string
  // Upstart
.pc = $801 "Basic"
:BasicUpstart(__bbegin)
.pc = $80d "Program"
  // Global Constants & labels
  // @begin
__bbegin:
  // [1] phi from @begin to @1 [phi:@begin->@1]
__b1_from___bbegin:
  jmp __b1
  // @1
__b1:
  // [2] call main 
  // [4] phi from @1 to main [phi:@1->main]
main_from___b1:
  jsr main
  // [3] phi from @1 to @end [phi:@1->@end]
__bend_from___b1:
  jmp __bend
  // @end
__bend:
  // main
main: {
    .label screen = $400
    // [5] phi from main to main::@1 [phi:main->main::@1]
  __b1_from_main:
    // [5] phi (byte) main::i#2 = (byte) 0 [phi:main->main::@1#0] -- vbuxx=vbuc1 
    ldx #0
    jmp __b1
    // main::@1
  __b1:
    // [6] if((byte) 0!=*((const byte[]) main::msg + (byte) main::i#2)) goto main::@2 -- vbuc1_neq_pbuc2_derefidx_vbuxx_then_la1 
    lda msg,x
    cmp #0
    bne __b2
    jmp __breturn
    // main::@return
  __breturn:
    // [7] return 
    rts
    // main::@2
  __b2:
    // [8] *((const byte*) main::screen + (byte) main::i#2) ← *((const byte[]) main::msg + (byte) main::i#2) -- pbuc1_derefidx_vbuxx=pbuc2_derefidx_vbuxx 
    lda msg,x
    sta screen,x
    // [9] (byte) main::i#1 ← ++ (byte) main::i#2 -- vbuxx=_inc_vbuxx 
    inx
    // [5] phi from main::@2 to main::@1 [phi:main::@2->main::@1]
  __b1_from___b2:
    // [5] phi (byte) main::i#2 = (byte) main::i#1 [phi:main::@2->main::@1#0] -- register_copy 
    jmp __b1
    msg: .text "message 2 "
    .byte 0
}
  // File Data

ASSEMBLER OPTIMIZATIONS
Removing instruction jmp __b1
Removing instruction jmp __bend
Removing instruction jmp __b1
Removing instruction jmp __breturn
Succesful ASM optimization Pass5NextJumpElimination
Replacing label __bbegin with __b1
Removing instruction __bbegin:
Removing instruction __b1_from___bbegin:
Removing instruction main_from___b1:
Removing instruction __bend_from___b1:
Succesful ASM optimization Pass5RedundantLabelElimination
Removing instruction __bend:
Removing instruction __b1_from_main:
Removing instruction __breturn:
Removing instruction __b1_from___b2:
Succesful ASM optimization Pass5UnusedLabelElimination
Updating BasicUpstart to call main directly
Removing instruction jsr main
Succesful ASM optimization Pass5SkipBegin
Removing instruction __b1:
Succesful ASM optimization Pass5UnusedLabelElimination

FINAL SYMBOL TABLE
(label) @1
(label) @begin
(label) @end
(void()) main()
(label) main::@1
(label) main::@2
(label) main::@return
(byte) main::i
(byte) main::i#1 reg byte x 22.0
(byte) main::i#2 reg byte x 18.333333333333332
(const byte[]) main::msg msg = (string) "message 2 "
(const byte*) main::screen screen = (byte*) 1024

reg byte x [ main::i#2 main::i#1 ]


FINAL ASSEMBLER
Score: 261

  // File Comments
// Local constant strings are placed at the start of the method. This means the generated ASM jumps / calls straignt into the constant string
  // Upstart
.pc = $801 "Basic"
:BasicUpstart(main)
.pc = $80d "Program"
  // Global Constants & labels
  // @begin
  // [1] phi from @begin to @1 [phi:@begin->@1]
  // @1
  // [2] call main 
  // [4] phi from @1 to main [phi:@1->main]
  // [3] phi from @1 to @end [phi:@1->@end]
  // @end
  // main
main: {
    .label screen = $400
    // [5] phi from main to main::@1 [phi:main->main::@1]
    // [5] phi (byte) main::i#2 = (byte) 0 [phi:main->main::@1#0] -- vbuxx=vbuc1 
    ldx #0
    // main::@1
  __b1:
    // while(msg[i])
    // [6] if((byte) 0!=*((const byte[]) main::msg + (byte) main::i#2)) goto main::@2 -- vbuc1_neq_pbuc2_derefidx_vbuxx_then_la1 
    lda msg,x
    cmp #0
    bne __b2
    // main::@return
    // }
    // [7] return 
    rts
    // main::@2
  __b2:
    // screen[i++] = msg[i]
    // [8] *((const byte*) main::screen + (byte) main::i#2) ← *((const byte[]) main::msg + (byte) main::i#2) -- pbuc1_derefidx_vbuxx=pbuc2_derefidx_vbuxx 
    lda msg,x
    sta screen,x
    // screen[i++] = msg[i];
    // [9] (byte) main::i#1 ← ++ (byte) main::i#2 -- vbuxx=_inc_vbuxx 
    inx
    // [5] phi from main::@2 to main::@1 [phi:main::@2->main::@1]
    // [5] phi (byte) main::i#2 = (byte) main::i#1 [phi:main::@2->main::@1#0] -- register_copy 
    jmp __b1
    msg: .text "message 2 "
    .byte 0
}
  // File Data

