(label) @1
(label) @begin
(label) @end
(void()) main()
(label) main::@1
(label) main::@2
(label) main::@3
(label) main::@4
(label) main::@5
(label) main::@return
(const byte*) main::SCREEN SCREEN = (byte*) 1024
(byte) main::i
(byte) main::i#1 reg byte x 11.0
(byte) main::i#2 reg byte x 33.0
(byte) main::s
(byte) main::s#1 reg byte y 22.0
(byte) main::s#2 reg byte y 22.0
(byte) main::s#3 reg byte y 11.5

reg byte x [ main::i#2 main::i#1 ]
reg byte y [ main::s#3 main::s#1 main::s#2 ]
