(label) @1
(label) @begin
(label) @end
(const byte[]) MESSAGE MESSAGE = (string) "hello brave new world!"
(const byte*) SCREEN SCREEN = (byte*) 1024
(void()) main()
(label) main::@1
(label) main::@2
(label) main::@3
(label) main::@4
(label) main::@return
(byte) main::i
(byte) main::i#1 reg byte x 22.0
(byte) main::i#2 reg byte x 9.166666666666666
(byte) main::idx
(byte) main::idx#1 reg byte y 22.0
(byte) main::idx#2 reg byte y 11.0
(byte) main::idx#5 reg byte y 16.5

reg byte x [ main::i#2 main::i#1 ]
reg byte y [ main::idx#2 main::idx#5 main::idx#1 ]
