(label) @1
(label) @begin
(label) @end
(const byte*) SCREEN SCREEN = (byte*) 1024
(void()) b()
(label) b::@1
(label) b::@2
(label) b::@return
(byte) b::i
(byte) b::i#1 reg byte x 16.5
(byte) b::i#2 reg byte x 11.0
(void()) d()
(label) d::@return
(void()) main()
(label) main::@1
(label) main::@return

reg byte x [ b::i#2 b::i#1 ]
