(label) @1
(label) @begin
(label) @end
(void()) main()
(label) main::@1
(label) main::@return
(byte) opcode
(byte) opcode#12 reg byte a 0.5
(void()) popup_selector()
(label) popup_selector::@1
(label) popup_selector::@2
(label) popup_selector::@return
(byte) popup_selector::k
(byte) popup_selector::k#1 reg byte x 22.0
(byte) popup_selector::k#2 reg byte x 14.666666666666666
(const byte*) screen screen = (byte*) 1024

reg byte x [ popup_selector::k#2 popup_selector::k#1 ]
reg byte a [ opcode#12 ]
