(label) @1
(label) @begin
(label) @end
(void()) main()
(label) main::@1
(label) main::@2
(label) main::@3
(label) main::@4
(label) main::@return
(byte) main::i
(byte) main::i#1 reg byte x 16.5
(byte) main::i#2 reg byte x 9.166666666666666
(byte*) main::screen
(byte*) main::screen#1 screen zp ZP_WORD:2 22.0
(byte*) main::screen#2 screen zp ZP_WORD:2 11.0
(byte*) main::screen#5 screen zp ZP_WORD:2 11.0
(const byte[]) main::str str = (string) "hello brave new world"

reg byte x [ main::i#2 main::i#1 ]
zp ZP_WORD:2 [ main::screen#2 main::screen#5 main::screen#1 ]
