(label) @1
(label) @begin
(label) @end
(void()) main()
(label) main::@1
(label) main::@2
(label) main::@3
(label) main::@4
(label) main::@5
(label) main::@return
(byte) main::i
(byte) main::i#1 reg byte y 151.5
(byte) main::i#2 reg byte y 134.66666666666666
(byte*) main::line
(byte*) main::line#1 line zp ZP_WORD:2 22.0
(byte*) main::line#2 line zp ZP_WORD:2 30.75

zp ZP_WORD:2 [ main::line#2 main::line#1 ]
reg byte y [ main::i#2 main::i#1 ]
