(label) @1
(label) @begin
(label) @end
(const signed word[8]) ball_y ball_y = { (signed word) $32, (signed word) $64, (signed word) -$c8, (signed word) $c, (signed word) -$64, (signed word) $4b, (signed word) 0, (signed word) -$79 }
(void()) main()
(byte~) main::$1 reg byte a 4.0
(byte~) main::$2 reg byte a 4.0
(byte~) main::$4 reg byte x 2.0
(label) main::@1
(label) main::@return
(byte) main::hit_check
(byte) main::hit_check#0 reg byte a 3.0
(const byte*) main::screen screen = (byte*) 1024
(byte()) scan_for_lowest()
(byte~) scan_for_lowest::$3 reg byte a 22.0
(byte~) scan_for_lowest::$4 reg byte a 22.0
(label) scan_for_lowest::@1
(label) scan_for_lowest::@2
(label) scan_for_lowest::@3
(label) scan_for_lowest::@4
(label) scan_for_lowest::@return
(signed word) scan_for_lowest::height
(signed word) scan_for_lowest::height#1 height zp ZP_WORD:2 11.0
(signed word) scan_for_lowest::height#2 height zp ZP_WORD:2 8.25
(signed word) scan_for_lowest::height#4 height zp ZP_WORD:2 16.5
(byte) scan_for_lowest::i
(byte) scan_for_lowest::i#1 reg byte x 22.0
(byte) scan_for_lowest::i#2 reg byte x 8.25
(byte) scan_for_lowest::lowest
(byte) scan_for_lowest::lowest#2 lowest zp ZP_BYTE:4 4.0
(byte) scan_for_lowest::lowest#4 lowest zp ZP_BYTE:4 16.5
(byte~) scan_for_lowest::lowest#8 lowest zp ZP_BYTE:4 22.0
(byte) scan_for_lowest::return
(byte) scan_for_lowest::return#0 reg byte a 4.0

reg byte x [ scan_for_lowest::i#2 scan_for_lowest::i#1 ]
zp ZP_WORD:2 [ scan_for_lowest::height#2 scan_for_lowest::height#4 scan_for_lowest::height#1 ]
zp ZP_BYTE:4 [ scan_for_lowest::lowest#2 scan_for_lowest::lowest#4 scan_for_lowest::lowest#8 ]
reg byte a [ scan_for_lowest::return#0 ]
reg byte a [ main::hit_check#0 ]
reg byte x [ main::$4 ]
reg byte a [ main::$1 ]
reg byte a [ main::$2 ]
reg byte a [ scan_for_lowest::$3 ]
reg byte a [ scan_for_lowest::$4 ]
