(label) @1
(label) @begin
(label) @end
(const byte*) SCREEN SCREEN = (byte*) 1024
(void()) main()
(label) main::@1
(label) main::@2
(label) main::@return
(byte) main::i
(byte) main::i#1 reg byte y 16.5
(byte) main::i#2 reg byte y 11.0
(void()) nest()
(label) nest::@1
(label) nest::@return
(byte) nest::j
(byte) nest::j#1 reg byte x 151.5
(byte) nest::j#2 reg byte x 151.5

reg byte y [ main::i#2 main::i#1 ]
reg byte x [ nest::j#2 nest::j#1 ]
