(label) @1
(label) @begin
(label) @end
(void()) main()
(label) main::@1
(label) main::@return
(void()) testBytes()
(label) testBytes::@return
(const byte*) testBytes::SCREEN SCREEN = (byte*) 1024
(byte) testBytes::idx
(void()) testSBytes()
(label) testSBytes::@return
(const signed byte*) testSBytes::SCREEN SCREEN = (signed byte*) 1064
(byte) testSBytes::idx

