(label) @1
(label) @begin
(label) @end
(void()) main()
(label) main::@1
(label) main::@2
(label) main::@3
(label) main::@4
(label) main::@return
(byte) main::i
(byte) main::i#1 reg byte x 16.5
(byte) main::i#5 reg byte x 3.142857142857143
(byte*) main::screen
(byte*) main::screen#1 screen zp ZP_WORD:5 101.0
(byte*) main::screen#2 screen zp ZP_WORD:5 65.0
(byte*) main::screen#4 screen zp ZP_WORD:5 11.0
(byte*) main::text
(byte*) main::text#0 text zp ZP_WORD:2 4.0
(byte*) main::text#1 text zp ZP_WORD:2 202.0
(byte*) main::text#2 text zp ZP_WORD:2 12.0
(byte*) main::text#3 text zp ZP_WORD:2 70.99999999999999
(void()) nexttext((byte**) nexttext::textp)
(byte~) nexttext::$0 reg byte a 2.0
(label) nexttext::@1
(label) nexttext::@2
(label) nexttext::@return
(byte**) nexttext::textp
(const byte**) nexttext::textp#0 textp = &(byte*) main::text#2
(const byte[]) text1 text1 = (string) "camelot "
(const byte[]) text2 text2 = (string) "rex "
(byte) textid
(byte) textid#11 textid zp ZP_BYTE:4 7.5
(byte) textid#13 textid zp ZP_BYTE:4 1.0

zp ZP_WORD:2 [ main::text#2 main::text#0 main::text#3 main::text#1 ]
zp ZP_BYTE:4 [ textid#11 textid#13 ]
zp ZP_WORD:5 [ main::screen#4 main::screen#2 main::screen#1 ]
reg byte x [ main::i#5 main::i#1 ]
reg byte a [ nexttext::$0 ]
