(label) @1
(label) @begin
(label) @end
(void()) main()
(label) main::@1
(label) main::@2
(label) main::@return
(byte*) screen
(byte*) screen#0 screen zp ZP_WORD:4 0.6666666666666666
(const byte*) screen1 screen1 = (byte*) 1024
(const byte*) screen2 screen2 = (byte*)(number) $400+(number) $28
(void()) setscreen((byte**) setscreen::screen , (byte*) setscreen::val)
(label) setscreen::@return
(byte**) setscreen::screen
(byte*) setscreen::val
(byte*) setscreen::val#2 val zp ZP_WORD:2 2.0

zp ZP_WORD:2 [ setscreen::val#2 ]
zp ZP_WORD:4 [ screen#0 ]
