(label) @1
(label) @begin
(label) @end
(void()) main()
(label) main::@return
(signed byte) main::sb
(signed byte) main::sb#0 sb zp ZP_BYTE:3 2.0
(signed byte*) main::sb_ptr
(const signed byte*) main::sb_ptr#0 sb_ptr = (signed byte*)&(byte) main::ub#0
(const signed byte*) main::sb_screen sb_screen = (signed byte*) 1064
(byte) main::ub
(byte) main::ub#0 ub zp ZP_BYTE:2 2.0
(byte*) main::ub_ptr
(const byte*) main::ub_ptr#0 ub_ptr = (byte*)&(signed byte) main::sb#0
(const byte*) main::ub_screen ub_screen = (byte*) 1024

zp ZP_BYTE:2 [ main::ub#0 ]
zp ZP_BYTE:3 [ main::sb#0 ]
