(label) @1
(label) @begin
(label) @end
(const word*) SCREEN SCREEN = (word*) 1024
(const word) STACK_BASE STACK_BASE = (word) $103
(void()) main()
(word~) main::$0 $0 zp ZP_WORD:2 2.0
(label) main::@return
__stackcall (word()) plus((word) plus::a , (word) plus::b)
(label) plus::@return
(const byte) plus::OFFSET_STACK_A OFFSET_STACK_A = (byte) 0
(const byte) plus::OFFSET_STACK_B OFFSET_STACK_B = (byte) 2
(const byte) plus::OFFSET_STACK_RETURN OFFSET_STACK_RETURN = (byte) 2
(word) plus::a
(word) plus::a#0 a zp ZP_WORD:2 2.0
(word) plus::b
(word) plus::b#0 b zp ZP_WORD:4 4.0
(word) plus::return
(word) plus::return#0 return zp ZP_WORD:2 2.0

zp ZP_WORD:2 [ plus::a#0 plus::return#0 main::$0 ]
zp ZP_WORD:4 [ plus::b#0 ]
