(label) @1
(label) @begin
(label) @end
(const byte*) CHARSET CHARSET = (byte*) 8192
(const dword*) CIA2_TIMER_AB CIA2_TIMER_AB = (dword*) 56580
(const byte*) CIA2_TIMER_A_CONTROL CIA2_TIMER_A_CONTROL = (byte*) 56590
(const byte*) CIA2_TIMER_B_CONTROL CIA2_TIMER_B_CONTROL = (byte*) 56591
(const byte) CIA_TIMER_CONTROL_B_COUNT_UNDERFLOW_A CIA_TIMER_CONTROL_B_COUNT_UNDERFLOW_A = (byte) $40
(const byte) CIA_TIMER_CONTROL_CONTINUOUS CIA_TIMER_CONTROL_CONTINUOUS = (byte) 0
(const byte) CIA_TIMER_CONTROL_START CIA_TIMER_CONTROL_START = (byte) 1
(const dword) CLOCKS_PER_INIT CLOCKS_PER_INIT = (byte) $12
(const byte*) D018 D018 = (byte*) 53272
(const byte[]) FONT_HEX_PROTO FONT_HEX_PROTO = { (byte) 2, (byte) 5, (byte) 5, (byte) 5, (byte) 2, (byte) 6, (byte) 2, (byte) 2, (byte) 2, (byte) 7, (byte) 6, (byte) 1, (byte) 2, (byte) 4, (byte) 7, (byte) 6, (byte) 1, (byte) 2, (byte) 1, (byte) 6, (byte) 5, (byte) 5, (byte) 7, (byte) 1, (byte) 1, (byte) 7, (byte) 4, (byte) 6, (byte) 1, (byte) 6, (byte) 3, (byte) 4, (byte) 6, (byte) 5, (byte) 2, (byte) 7, (byte) 1, (byte) 1, (byte) 1, (byte) 1, (byte) 2, (byte) 5, (byte) 2, (byte) 5, (byte) 2, (byte) 2, (byte) 5, (byte) 3, (byte) 1, (byte) 1, (byte) 2, (byte) 5, (byte) 7, (byte) 5, (byte) 5, (byte) 6, (byte) 5, (byte) 6, (byte) 5, (byte) 6, (byte) 2, (byte) 5, (byte) 4, (byte) 5, (byte) 2, (byte) 6, (byte) 5, (byte) 5, (byte) 5, (byte) 6, (byte) 7, (byte) 4, (byte) 6, (byte) 4, (byte) 7, (byte) 7, (byte) 4, (byte) 6, (byte) 4, (byte) 4 }
(const byte*) HEAP_TOP HEAP_TOP = (byte*) 40960
(byte) NUM_SQUARES
(const byte) NUM_SQUARES#3 NUM_SQUARES = (byte) $30
(const byte) RADIX::BINARY BINARY = (number) 2
(const byte) RADIX::DECIMAL DECIMAL = (number) $a
(const byte) RADIX::HEXADECIMAL HEXADECIMAL = (number) $10
(const byte) RADIX::OCTAL OCTAL = (number) 8
(const byte*) SCREEN SCREEN = (byte*) 10240
(const byte) SIZEOF_WORD SIZEOF_WORD = (byte) 2
(word*) SQUARES
(const word*) SQUARES#1 SQUARES = (word*)(const void*) malloc::return#0
(word*()) bsearch16u((word) bsearch16u::key , (word*) bsearch16u::items , (byte) bsearch16u::num)
(byte~) bsearch16u::$16 reg byte a 2002.0
(word*~) bsearch16u::$2 $2 zp ZP_WORD:2 4.0
(byte~) bsearch16u::$6 reg byte a 2002.0
(label) bsearch16u::@1
(label) bsearch16u::@2
(label) bsearch16u::@3
(label) bsearch16u::@4
(label) bsearch16u::@5
(label) bsearch16u::@6
(label) bsearch16u::@7
(label) bsearch16u::@8
(label) bsearch16u::@9
(label) bsearch16u::@return
(word*) bsearch16u::items
(word*) bsearch16u::items#0 items zp ZP_WORD:2 1001.0
(word*) bsearch16u::items#2 items zp ZP_WORD:2 334.33333333333337
(word*) bsearch16u::items#8 items zp ZP_WORD:2 1501.5
(word) bsearch16u::key
(word) bsearch16u::key#0 key zp ZP_WORD:19 0.2857142857142857
(byte) bsearch16u::num
(byte) bsearch16u::num#0 reg byte x 2002.0
(byte) bsearch16u::num#1 reg byte x 2002.0
(byte) bsearch16u::num#3 reg byte x 556.1111111111111
(byte) bsearch16u::num#5 reg byte x 3003.0
(word*) bsearch16u::pivot
(word*) bsearch16u::pivot#0 pivot zp ZP_WORD:21 501.0
(signed word) bsearch16u::result
(signed word) bsearch16u::result#0 result zp ZP_WORD:23 1501.5
(word*) bsearch16u::return
(word*) bsearch16u::return#1 return zp ZP_WORD:2 2.0
(word*) bsearch16u::return#2 return zp ZP_WORD:2 6.0
(word*) bsearch16u::return#3 return zp ZP_WORD:2 4.0
(word*~) bsearch16u::return#6 return zp ZP_WORD:2 4.0
(dword()) clock()
(label) clock::@return
(dword) clock::return
(dword) clock::return#0 return zp ZP_DWORD:13 1.3333333333333333
(dword) clock::return#2 return zp ZP_DWORD:13 4.0
(void()) clock_start()
(label) clock_start::@return
(byte*) heap_head
(void()) init_dist_screen((byte*) init_dist_screen::screen)
(byte~) init_dist_screen::$14 reg byte a 202.0
(byte~) init_dist_screen::$16 reg byte a 202.0
(byte~) init_dist_screen::$5 reg byte a 22.0
(byte~) init_dist_screen::$7 reg byte a 22.0
(label) init_dist_screen::@1
(label) init_dist_screen::@10
(label) init_dist_screen::@11
(label) init_dist_screen::@12
(label) init_dist_screen::@13
(label) init_dist_screen::@2
(label) init_dist_screen::@3
(label) init_dist_screen::@4
(label) init_dist_screen::@5
(label) init_dist_screen::@6
(label) init_dist_screen::@7
(label) init_dist_screen::@8
(label) init_dist_screen::@9
(label) init_dist_screen::@return
(byte) init_dist_screen::d
(byte) init_dist_screen::d#0 reg byte a 126.25
(word) init_dist_screen::ds
(word) init_dist_screen::ds#0 ds zp ZP_WORD:19 202.0
(byte*) init_dist_screen::screen
(byte*) init_dist_screen::screen_bottomline
(byte*) init_dist_screen::screen_bottomline#1 screen_bottomline zp ZP_WORD:9 7.333333333333333
(byte*) init_dist_screen::screen_bottomline#11 screen_bottomline zp ZP_WORD:9 6.787878787878787
(byte*) init_dist_screen::screen_topline
(byte*) init_dist_screen::screen_topline#1 screen_topline zp ZP_WORD:4 5.5
(byte*) init_dist_screen::screen_topline#11 screen_topline zp ZP_WORD:4 7.0
(byte) init_dist_screen::x
(byte) init_dist_screen::x#1 x zp ZP_BYTE:6 101.0
(byte) init_dist_screen::x#2 x zp ZP_BYTE:6 30.3
(byte) init_dist_screen::x2
(byte) init_dist_screen::x2#0 reg byte a 202.0
(byte) init_dist_screen::xb
(byte) init_dist_screen::xb#1 xb zp ZP_BYTE:11 202.0
(byte) init_dist_screen::xb#2 xb zp ZP_BYTE:11 19.238095238095237
(byte) init_dist_screen::xd
(byte) init_dist_screen::xd#0 reg byte a 303.0
(word) init_dist_screen::xds
(word) init_dist_screen::xds#0 xds zp ZP_WORD:19 202.0
(byte) init_dist_screen::y
(byte) init_dist_screen::y#1 y zp ZP_BYTE:12 16.5
(byte) init_dist_screen::y#10 y zp ZP_BYTE:12 0.9705882352941178
(byte) init_dist_screen::y2
(byte) init_dist_screen::y2#0 reg byte a 22.0
(byte) init_dist_screen::yd
(byte) init_dist_screen::yd#0 reg byte a 33.0
(word) init_dist_screen::yds
(word) init_dist_screen::yds#0 yds zp ZP_WORD:17 4.869565217391305
(void()) init_font_hex((byte*) init_font_hex::charset)
(byte~) init_font_hex::$0 $0 zp ZP_BYTE:25 1001.0
(byte~) init_font_hex::$1 reg byte a 2002.0
(byte~) init_font_hex::$2 reg byte a 2002.0
(label) init_font_hex::@1
(label) init_font_hex::@2
(label) init_font_hex::@3
(label) init_font_hex::@4
(label) init_font_hex::@5
(label) init_font_hex::@return
(byte) init_font_hex::c
(byte) init_font_hex::c#1 c zp ZP_BYTE:6 16.5
(byte) init_font_hex::c#6 c zp ZP_BYTE:6 1.1578947368421053
(byte) init_font_hex::c1
(byte) init_font_hex::c1#1 c1 zp ZP_BYTE:11 151.5
(byte) init_font_hex::c1#4 c1 zp ZP_BYTE:11 13.466666666666667
(byte*) init_font_hex::charset
(byte*) init_font_hex::charset#0 charset zp ZP_WORD:9 35.5
(byte*) init_font_hex::charset#2 charset zp ZP_WORD:9 108.35714285714285
(byte*) init_font_hex::charset#5 charset zp ZP_WORD:9 22.0
(byte) init_font_hex::i
(byte) init_font_hex::i#1 reg byte x 1501.5
(byte) init_font_hex::i#2 reg byte x 667.3333333333334
(byte) init_font_hex::idx
(byte) init_font_hex::idx#2 idx zp ZP_BYTE:12 551.0
(byte) init_font_hex::idx#3 reg byte y 202.0
(byte) init_font_hex::idx#5 idx zp ZP_BYTE:12 600.5999999999999
(byte*) init_font_hex::proto_hi
(byte*) init_font_hex::proto_hi#1 proto_hi zp ZP_WORD:4 7.333333333333333
(byte*) init_font_hex::proto_hi#6 proto_hi zp ZP_WORD:4 56.83333333333334
(byte*) init_font_hex::proto_lo
(byte*) init_font_hex::proto_lo#1 proto_lo zp ZP_WORD:17 50.5
(byte*) init_font_hex::proto_lo#4 proto_lo zp ZP_WORD:17 92.53846153846155
(void()) init_squares()
(byte~) init_squares::$3 reg byte a 22.0
(byte~) init_squares::$4 reg byte a 22.0
(label) init_squares::@1
(label) init_squares::@return
(byte) init_squares::i
(byte) init_squares::i#1 reg byte x 16.5
(byte) init_squares::i#2 reg byte x 5.5
(word) init_squares::sqr
(word) init_squares::sqr#1 sqr zp ZP_WORD:4 7.333333333333333
(word) init_squares::sqr#2 sqr zp ZP_WORD:4 6.6000000000000005
(word*) init_squares::squares
(word*) init_squares::squares#1 squares zp ZP_WORD:9 3.6666666666666665
(word*) init_squares::squares#2 squares zp ZP_WORD:9 16.5
(void()) main()
(dword~) main::$4 $4 zp ZP_DWORD:13 4.0
(label) main::@1
(label) main::@2
(label) main::@3
(label) main::@4
(label) main::@5
(label) main::@return
(const byte*) main::BASE_CHARSET BASE_CHARSET = (byte*) 4096
(const byte*) main::BASE_SCREEN BASE_SCREEN = (byte*) 1024
(dword) main::cyclecount
(dword) main::cyclecount#0 cyclecount zp ZP_DWORD:13 4.0
(label) main::toD0181
(byte*) main::toD0181_gfx
(byte) main::toD0181_return
(const byte) main::toD0181_return#0 toD0181_return = >(word)(const byte*) SCREEN&(word) $3fff*(byte) 4|>(word)(const byte*) CHARSET/(byte) 4&(byte) $f
(byte*) main::toD0181_screen
(label) main::toD0182
(byte*) main::toD0182_gfx
(byte) main::toD0182_return
(const byte) main::toD0182_return#0 toD0182_return = >(word)(const byte*) main::BASE_SCREEN&(word) $3fff*(byte) 4|>(word)(const byte*) main::BASE_CHARSET/(byte) 4&(byte) $f
(byte*) main::toD0182_screen
(void*()) malloc((word) malloc::size)
(label) malloc::@return
(byte*) malloc::mem
(const byte*) malloc::mem#0 mem = (const byte*) HEAP_TOP-(const word) malloc::size#0
(void*) malloc::return
(const void*) malloc::return#0 return = (void*)(const byte*) malloc::mem#0
(word) malloc::size
(const word) malloc::size#0 size = (const byte) NUM_SQUARES#3*(const byte) SIZEOF_WORD
(void()) print_byte_at((byte) print_byte_at::b , (byte*) print_byte_at::at)
(byte~) print_byte_at::$0 reg byte a 4.0
(byte~) print_byte_at::$2 reg byte y 2.0
(label) print_byte_at::@1
(label) print_byte_at::@return
(byte*) print_byte_at::at
(byte*) print_byte_at::at#0 at zp ZP_WORD:9 4.0
(byte*) print_byte_at::at#1 at zp ZP_WORD:9 4.0
(byte*) print_byte_at::at#2 at zp ZP_WORD:9 1.3333333333333333
(byte) print_byte_at::b
(byte) print_byte_at::b#0 b zp ZP_BYTE:12 2.0
(byte) print_byte_at::b#1 b zp ZP_BYTE:12 2.0
(byte) print_byte_at::b#2 b zp ZP_BYTE:12 1.6
(void()) print_char_at((byte) print_char_at::ch , (byte*) print_char_at::at)
(label) print_char_at::@return
(byte*) print_char_at::at
(byte*) print_char_at::at#0 at zp ZP_WORD:2 4.0
(byte*) print_char_at::at#1 at zp ZP_WORD:2 2.0
(byte*) print_char_at::at#2 at zp ZP_WORD:2 6.0
(byte) print_char_at::ch
(byte) print_char_at::ch#0 reg byte x 2.0
(byte) print_char_at::ch#1 reg byte x 4.0
(byte) print_char_at::ch#2 reg byte x 6.0
(void()) print_dword_at((dword) print_dword_at::dw , (byte*) print_dword_at::at)
(label) print_dword_at::@1
(label) print_dword_at::@return
(byte*) print_dword_at::at
(dword) print_dword_at::dw
(dword) print_dword_at::dw#0 dw zp ZP_DWORD:13 2.0
(const byte[]) print_hextab print_hextab = (string) "0123456789abcdef"z
(void()) print_word_at((word) print_word_at::w , (byte*) print_word_at::at)
(label) print_word_at::@1
(label) print_word_at::@return
(byte*) print_word_at::at
(byte*) print_word_at::at#2 at zp ZP_WORD:9 0.8
(word) print_word_at::w
(word) print_word_at::w#0 w zp ZP_WORD:4 4.0
(word) print_word_at::w#1 w zp ZP_WORD:4 4.0
(word) print_word_at::w#2 w zp ZP_WORD:4 2.0
(word()) sqr((byte) sqr::val)
(byte~) sqr::$0 reg byte a 4.0
(label) sqr::@return
(word) sqr::return
(word) sqr::return#0 return zp ZP_WORD:19 28.5
(word) sqr::return#2 return#2 zp ZP_WORD:17 22.0
(word) sqr::return#3 return zp ZP_WORD:19 202.0
(byte) sqr::val
(byte) sqr::val#0 reg byte a 22.0
(byte) sqr::val#1 reg byte a 202.0
(byte) sqr::val#2 reg byte a 114.0
(byte()) sqrt((word) sqrt::val)
(word~) sqrt::$1 $1 zp ZP_WORD:2 2.0
(word~) sqrt::$3 $3 zp ZP_WORD:2 4.0
(label) sqrt::@1
(label) sqrt::@return
(word*) sqrt::found
(word*) sqrt::found#0 found zp ZP_WORD:2 4.0
(byte) sqrt::return
(byte) sqrt::return#0 reg byte a 34.33333333333333
(byte) sqrt::return#2 reg byte a 202.0
(byte) sqrt::sq
(word) sqrt::val
(word) sqrt::val#0 val zp ZP_WORD:19 103.0

reg byte x [ print_char_at::ch#2 print_char_at::ch#0 print_char_at::ch#1 ]
reg byte a [ init_dist_screen::yd#0 init_dist_screen::$7 init_dist_screen::$5 ]
reg byte a [ init_dist_screen::xd#0 init_dist_screen::$16 init_dist_screen::$14 ]
zp ZP_WORD:2 [ bsearch16u::return#1 bsearch16u::return#6 bsearch16u::return#2 bsearch16u::items#2 bsearch16u::items#8 bsearch16u::$2 bsearch16u::items#0 bsearch16u::return#3 sqrt::found#0 sqrt::$3 sqrt::$1 print_char_at::at#2 print_char_at::at#0 print_char_at::at#1 ]
reg byte x [ bsearch16u::num#5 bsearch16u::num#1 bsearch16u::num#3 bsearch16u::num#0 ]
reg byte a [ sqr::val#2 sqr::val#1 sqr::val#0 ]
reg byte x [ init_squares::i#2 init_squares::i#1 ]
zp ZP_WORD:4 [ init_font_hex::proto_hi#6 init_font_hex::proto_hi#1 init_squares::sqr#2 init_squares::sqr#1 init_dist_screen::screen_topline#11 init_dist_screen::screen_topline#1 print_word_at::w#2 print_word_at::w#0 print_word_at::w#1 ]
zp ZP_BYTE:6 [ init_font_hex::c#6 init_font_hex::c#1 init_dist_screen::x#2 init_dist_screen::x#1 ]
zp ZP_WORD:9 [ init_font_hex::charset#2 init_font_hex::charset#5 init_font_hex::charset#0 init_squares::squares#2 init_squares::squares#1 init_dist_screen::screen_bottomline#11 init_dist_screen::screen_bottomline#1 print_word_at::at#2 print_byte_at::at#2 print_byte_at::at#0 print_byte_at::at#1 ]
zp ZP_BYTE:11 [ init_font_hex::c1#4 init_font_hex::c1#1 init_dist_screen::xb#2 init_dist_screen::xb#1 ]
reg byte x [ init_font_hex::i#2 init_font_hex::i#1 ]
zp ZP_BYTE:12 [ init_font_hex::idx#5 init_font_hex::idx#2 init_dist_screen::y#10 init_dist_screen::y#1 print_byte_at::b#2 print_byte_at::b#0 print_byte_at::b#1 ]
zp ZP_DWORD:13 [ clock::return#2 main::$4 clock::return#0 main::cyclecount#0 print_dword_at::dw#0 ]
reg byte a [ print_byte_at::$0 ]
reg byte y [ print_byte_at::$2 ]
reg byte a [ init_dist_screen::y2#0 ]
zp ZP_WORD:17 [ sqr::return#2 init_dist_screen::yds#0 init_font_hex::proto_lo#4 init_font_hex::proto_lo#1 ]
reg byte a [ init_dist_screen::x2#0 ]
zp ZP_WORD:19 [ sqr::return#3 init_dist_screen::xds#0 sqr::return#0 init_dist_screen::ds#0 sqrt::val#0 bsearch16u::key#0 ]
reg byte a [ sqrt::return#2 ]
reg byte a [ init_dist_screen::d#0 ]
reg byte a [ sqrt::return#0 ]
reg byte a [ bsearch16u::$6 ]
reg byte a [ bsearch16u::$16 ]
zp ZP_WORD:21 [ bsearch16u::pivot#0 ]
zp ZP_WORD:23 [ bsearch16u::result#0 ]
reg byte a [ sqr::$0 ]
reg byte a [ init_squares::$3 ]
reg byte a [ init_squares::$4 ]
zp ZP_BYTE:25 [ init_font_hex::$0 ]
reg byte a [ init_font_hex::$1 ]
reg byte a [ init_font_hex::$2 ]
reg byte y [ init_font_hex::idx#3 ]
