(label) @1
(label) @begin
(label) @end
(const byte*) SCREEN SCREEN = (byte*) 1024
(void()) debug((signed byte) debug::dy)
(label) debug::@1
(label) debug::@return
(signed byte) debug::dy
(signed byte) debug::dy#0 reg byte x 6.5
(byte) debug::i
(void()) main()
(label) main::@1
(label) main::@2
(label) main::@return
(signed byte) main::dy
(signed byte) main::dy#1 reg byte x 16.5
(signed byte) main::dy#2 reg byte x 11.0

reg byte x [ main::dy#2 main::dy#1 ]
reg byte x [ debug::dy#0 ]
