(label) @1
(label) @begin
(label) @end
(const byte*) SCREEN SCREEN = (byte*) 1024
(const byte) SIZEOF_BYTE SIZEOF_BYTE = (byte) 1
(const byte) SIZEOF_WORD SIZEOF_WORD = (byte) 2
(void()) main()
(label) main::@return
(byte) main::idx
(const byte) main::sz sz = (byte) 7

