(label) @1
(label) @begin
(label) @end
(const byte[]) MESSAGE MESSAGE = (string) "hello
world"pm
(void()) main()
(byte~) main::$0 reg byte a 22.0
(label) main::@1
(label) main::@2
(label) main::@3
(label) main::@4
(label) main::@5
(label) main::@return
(byte*) main::cursor
(byte*) main::cursor#1 cursor zp ZP_WORD:6 16.5
(byte*) main::cursor#2 cursor zp ZP_WORD:6 22.0
(byte*) main::cursor#3 cursor zp ZP_WORD:6 6.6000000000000005
(byte*) main::cursor#6 cursor zp ZP_WORD:6 16.5
(byte*) main::line
(byte*) main::line#2 line zp ZP_WORD:4 5.5
(byte*) main::line#5 line zp ZP_WORD:4 16.5
(byte*~) main::line#8 line zp ZP_WORD:4 22.0
(byte*) main::msg
(byte*) main::msg#1 msg zp ZP_WORD:2 22.0
(byte*) main::msg#2 msg zp ZP_WORD:2 6.111111111111112

zp ZP_WORD:2 [ main::msg#2 main::msg#1 ]
zp ZP_WORD:4 [ main::line#2 main::line#5 main::line#8 ]
zp ZP_WORD:6 [ main::cursor#3 main::cursor#6 main::cursor#1 main::cursor#2 ]
reg byte a [ main::$0 ]
