(label) @1
(label) @begin
(label) @end
(void()) main()
(label) main::@1
(label) main::@return
(const byte*) main::SCREEN SCREEN = (byte*) 1024
(byte) main::i
(byte) main::i#1 reg byte x 16.5
(byte) main::i#2 reg byte x 22.000000000000004
(const byte[]) petscii_mixed1 petscii_mixed1 = (string) "abcABC2"pm
(const byte[]) petscii_mixed2 petscii_mixed2 = (string) "abcABC3"pm
(const byte[]) screencode_mixed1 screencode_mixed1 = (string) "abcABC1"
(const byte[]) screencode_mixed2 screencode_mixed2 = (string) "abcABC4"
(const byte[]) screencode_mixed3 screencode_mixed3 = (string) "abcABC6"
(const byte[]) screencode_upper screencode_upper = (string) "abcABC5"su

reg byte x [ main::i#2 main::i#1 ]
