(label) @1
(label) @begin
(label) @end
(const byte) OFFSET_STRUCT_POINT_Y OFFSET_STRUCT_POINT_Y = (byte) 1
(byte) Point::x
(byte) Point::y
(void()) main()
(label) main::@return
(const byte*) main::SCREEN SCREEN = (byte*) 1024
(const struct Point*) points points = (struct Point*) 4096

