(label) @1
(label) @begin
(label) @end
(byte[]) DIGIT
(const byte[]) DIGIT#0 DIGIT = (string) "0123456789"
(const byte) OFFSET_STRUCT_PERSON_NAME OFFSET_STRUCT_PERSON_NAME = (byte) 1
(byte) Person::id
(byte[$10]) Person::name
(byte*) SCREEN
(const byte*) SCREEN#0 SCREEN = (byte*) 1024
(byte) idx
(byte) idx#13 reg byte x 3.0
(byte) idx#14 reg byte x 9.75
(byte) idx#16 reg byte x 0.8
(byte) idx#4 reg byte x 3.0
(byte) idx#5 reg byte x 4.0
(byte) idx#6 reg byte x 11.0
(void()) main()
(const string) main::$4 $4 = (string) "jesper"
(const string) main::$5 $5 = (string) "henriette"
(label) main::@1
(label) main::@return
(struct Person) main::henriette
(byte) main::henriette_id
(byte) main::henriette_id#0 henriette_id zp ZP_BYTE:8 20.0
(byte[$10]) main::henriette_name
(byte[$10]) main::henriette_name#0 henriette_name zp ZP_WORD:9 20.0
(struct Person) main::jesper
(byte) main::jesper_id
(byte) main::jesper_id#0 jesper_id zp ZP_BYTE:5 20.0
(byte[$10]) main::jesper_name
(byte[$10]) main::jesper_name#0 jesper_name zp ZP_WORD:6 20.0
(void()) print_person((struct Person*) print_person::person)
(label) print_person::@1
(label) print_person::@2
(label) print_person::@3
(label) print_person::@return
(byte) print_person::i
(byte) print_person::i#1 i zp ZP_BYTE:4 22.0
(byte) print_person::i#2 i zp ZP_BYTE:4 11.0
(struct Person*) print_person::person
(struct Person*) print_person::person#2 person zp ZP_WORD:2

zp ZP_WORD:2 [ print_person::person#2 ]
reg byte x [ idx#13 idx#16 ]
zp ZP_BYTE:4 [ print_person::i#2 print_person::i#1 ]
reg byte x [ idx#14 idx#5 idx#6 ]
zp ZP_BYTE:5 [ main::jesper_id#0 ]
zp ZP_WORD:6 [ main::jesper_name#0 ]
zp ZP_BYTE:8 [ main::henriette_id#0 ]
zp ZP_WORD:9 [ main::henriette_name#0 ]
reg byte x [ idx#4 ]
