(label) @1
(label) @begin
(label) @end
(const byte) OFFSET_STRUCT_SETTING_BUF OFFSET_STRUCT_SETTING_BUF = (byte) 1
(const word*) SCREEN SCREEN = (word*) 1024
(word*) Setting::buf
(byte) Setting::len
(void()) main()
(byte~) main::$3 reg byte a 33.0
(label) main::@1
(label) main::@2
(label) main::@return
(byte) main::i
(byte) main::i#1 reg byte x 22.0
(byte) main::i#2 reg byte x 11.0
(struct Setting*) main::setting
(const word[]) seq seq = { (word) 1, (word) 2, (word) 3 }
(const struct Setting[]) settings settings = { { len: (byte) 3, buf: (const word[]) seq } }

reg byte x [ main::i#2 main::i#1 ]
reg byte a [ main::$3 ]
