(label) @1
(label) @begin
(label) @end
(struct Point) Circle::center
(byte) Circle::radius
(byte) Point::x
(byte) Point::y
(struct Circle) TwoCircles::c1
(struct Circle) TwoCircles::c2
(void()) main()
(label) main::@return
(const byte*) main::SCREEN SCREEN = (byte*) 1024
(const byte) main::t_c1_center_x t_c1_center_x = (byte) 1
(const byte) main::t_c1_center_y t_c1_center_y = (byte) 2
(const byte) main::t_c1_radius t_c1_radius = (byte) 3
(const byte) main::t_c2_center_x t_c2_center_x = (byte) 4
(const byte) main::t_c2_center_y t_c2_center_y = (byte) 5
(const byte) main::t_c2_radius t_c2_radius = (byte) 6

