(label) @1
(label) @begin
(label) @end
(const byte) OFFS_Y OFFS_Y = (byte) 1
(byte) Point::x
(byte) Point::y
(void()) main()
(byte~) main::$17 reg byte x 16.5
(byte~) main::$6 reg byte y 11.0
(byte~) main::$8 reg byte a 22.0
(label) main::@1
(label) main::@2
(label) main::@return
(const byte*) main::SCREEN SCREEN = (byte*) 1024
(byte) main::i
(byte) main::i#1 reg byte x 16.5
(byte) main::i#2 reg byte x 11.0
(byte) main::i1
(byte) main::i1#1 reg byte y 16.5
(byte) main::i1#2 reg byte y 13.75
(const struct Point[4]) points points = { fill( 4, 0) }

reg byte x [ main::i#2 main::i#1 ]
reg byte y [ main::i1#2 main::i1#1 ]
reg byte y [ main::$6 ]
reg byte a [ main::$8 ]
reg byte x [ main::$17 ]
