Culled Empty Block (label) main::@2

CONTROL FLOW GRAPH SSA
@begin: scope:[]  from
  to:@1

(void()) main()
main: scope:[main]  from @1
  (byte*) main::screen#0 ← ((byte*)) (number) $400
  (byte) main::i#0 ← (byte) 0
  to:main::@1
main::@1: scope:[main]  from main main::@1
  (byte*) main::screen#3 ← phi( main/(byte*) main::screen#0 main::@1/(byte*) main::screen#2 )
  (byte) main::i#2 ← phi( main/(byte) main::i#0 main::@1/(byte) main::i#1 )
  (number~) main::$0 ← (byte) main::i#2 * (number) 2
  *((byte*) main::screen#3) ← (number~) main::$0
  (byte*) main::screen#1 ← ++ (byte*) main::screen#3
  (number~) main::$1 ← (byte) main::i#2 * (number) 2
  *((byte*) main::screen#1) ← (number~) main::$1
  (byte*) main::screen#2 ← ++ (byte*) main::screen#1
  (byte) main::i#1 ← (byte) main::i#2 + rangenext(0,2)
  (bool~) main::$2 ← (byte) main::i#1 != rangelast(0,2)
  if((bool~) main::$2) goto main::@1
  to:main::@return
main::@return: scope:[main]  from main::@1
  return 
  to:@return
@1: scope:[]  from @begin
  call main 
  to:@2
@2: scope:[]  from @1
  to:@end
@end: scope:[]  from @2

SYMBOL TABLE SSA
(label) @1
(label) @2
(label) @begin
(label) @end
(void()) main()
(number~) main::$0
(number~) main::$1
(bool~) main::$2
(label) main::@1
(label) main::@return
(byte) main::i
(byte) main::i#0
(byte) main::i#1
(byte) main::i#2
(byte*) main::screen
(byte*) main::screen#0
(byte*) main::screen#1
(byte*) main::screen#2
(byte*) main::screen#3

Adding number conversion cast (unumber) 2 in (number~) main::$0 ← (byte) main::i#2 * (number) 2
Adding number conversion cast (unumber) main::$0 in (number~) main::$0 ← (byte) main::i#2 * (unumber)(number) 2
Adding number conversion cast (unumber) 2 in (number~) main::$1 ← (byte) main::i#2 * (number) 2
Adding number conversion cast (unumber) main::$1 in (number~) main::$1 ← (byte) main::i#2 * (unumber)(number) 2
Successful SSA optimization PassNAddNumberTypeConversions
Inlining cast (byte*) main::screen#0 ← (byte*)(number) $400
Successful SSA optimization Pass2InlineCast
Simplifying constant pointer cast (byte*) 1024
Simplifying constant integer cast 2
Simplifying constant integer cast 2
Successful SSA optimization PassNCastSimplification
Finalized unsigned number type (byte) 2
Finalized unsigned number type (byte) 2
Successful SSA optimization PassNFinalizeNumberTypeConversions
Inferred type updated to byte in (unumber~) main::$0 ← (byte) main::i#2 * (byte) 2
Inferred type updated to byte in (unumber~) main::$1 ← (byte) main::i#2 * (byte) 2
Identified duplicate assignment right side [6] (byte~) main::$1 ← (byte) main::i#2 * (byte) 2
Successful SSA optimization Pass2DuplicateRValueIdentification
Simple Condition (bool~) main::$2 [11] if((byte) main::i#1!=rangelast(0,2)) goto main::@1
Successful SSA optimization Pass2ConditionalJumpSimplification
Constant (const byte*) main::screen#0 = (byte*) 1024
Constant (const byte) main::i#0 = 0
Successful SSA optimization Pass2ConstantIdentification
Resolved ranged next value [9] main::i#1 ← ++ main::i#2 to ++
Resolved ranged comparison value [11] if(main::i#1!=rangelast(0,2)) goto main::@1 to (number) 3
Adding number conversion cast (unumber) 3 in if((byte) main::i#1!=(number) 3) goto main::@1
Successful SSA optimization PassNAddNumberTypeConversions
Simplifying constant integer cast 3
Successful SSA optimization PassNCastSimplification
Finalized unsigned number type (byte) 3
Successful SSA optimization PassNFinalizeNumberTypeConversions
Alias (byte~) main::$1 = (byte~) main::$0 
Successful SSA optimization Pass2AliasElimination
Rewriting multiplication to use shift [1] (byte~) main::$1 ← (byte) main::i#2 * (byte) 2
Successful SSA optimization Pass2MultiplyToShiftRewriting
Inlining constant with var siblings (const byte*) main::screen#0
Inlining constant with var siblings (const byte) main::i#0
Constant inlined main::screen#0 = (byte*) 1024
Constant inlined main::i#0 = (byte) 0
Successful SSA optimization Pass2ConstantInlining
Added new block during phi lifting main::@3(between main::@1 and main::@1)
Adding NOP phi() at start of @begin
Adding NOP phi() at start of @1
Adding NOP phi() at start of @2
Adding NOP phi() at start of @end
Adding NOP phi() at start of main
CALL GRAPH
Calls in [] to main:2 

Created 2 initial phi equivalence classes
Coalesced [15] main::i#3 ← main::i#1
Coalesced [16] main::screen#4 ← main::screen#2
Coalesced down to 2 phi equivalence classes
Culled Empty Block (label) @2
Culled Empty Block (label) main::@3
Adding NOP phi() at start of @begin
Adding NOP phi() at start of @1
Adding NOP phi() at start of @end
Adding NOP phi() at start of main

FINAL CONTROL FLOW GRAPH
@begin: scope:[]  from
  [0] phi()
  to:@1
@1: scope:[]  from @begin
  [1] phi()
  [2] call main 
  to:@end
@end: scope:[]  from @1
  [3] phi()

(void()) main()
main: scope:[main]  from @1
  [4] phi()
  to:main::@1
main::@1: scope:[main]  from main main::@1
  [5] (byte*) main::screen#3 ← phi( main/(byte*) 1024 main::@1/(byte*) main::screen#2 )
  [5] (byte) main::i#2 ← phi( main/(byte) 0 main::@1/(byte) main::i#1 )
  [6] (byte~) main::$1 ← (byte) main::i#2 << (byte) 1
  [7] *((byte*) main::screen#3) ← (byte~) main::$1
  [8] (byte*) main::screen#1 ← ++ (byte*) main::screen#3
  [9] *((byte*) main::screen#1) ← (byte~) main::$1
  [10] (byte*) main::screen#2 ← ++ (byte*) main::screen#1
  [11] (byte) main::i#1 ← ++ (byte) main::i#2
  [12] if((byte) main::i#1!=(byte) 3) goto main::@1
  to:main::@return
main::@return: scope:[main]  from main::@1
  [13] return 
  to:@return


VARIABLE REGISTER WEIGHTS
(void()) main()
(byte~) main::$1 11.0
(byte) main::i
(byte) main::i#1 16.5
(byte) main::i#2 5.5
(byte*) main::screen
(byte*) main::screen#1 16.5
(byte*) main::screen#2 7.333333333333333
(byte*) main::screen#3 11.0

Initial phi equivalence classes
[ main::i#2 main::i#1 ]
[ main::screen#3 main::screen#2 ]
Added variable main::$1 to zero page equivalence class [ main::$1 ]
Added variable main::screen#1 to zero page equivalence class [ main::screen#1 ]
Complete equivalence classes
[ main::i#2 main::i#1 ]
[ main::screen#3 main::screen#2 ]
[ main::$1 ]
[ main::screen#1 ]
Allocated zp ZP_BYTE:2 [ main::i#2 main::i#1 ]
Allocated zp ZP_WORD:3 [ main::screen#3 main::screen#2 ]
Allocated zp ZP_BYTE:5 [ main::$1 ]
Allocated zp ZP_WORD:6 [ main::screen#1 ]

INITIAL ASM
Target platform is c64basic / MOS6502X
  // File Comments
// Tests optimization of identical sub-expressions
// The two examples of i*2 is detected as identical leading to optimized ASM where *2 is only calculated once
  // Upstart
.pc = $801 "Basic"
:BasicUpstart(__bbegin)
.pc = $80d "Program"
  // Global Constants & labels
  // @begin
__bbegin:
  // [1] phi from @begin to @1 [phi:@begin->@1]
__b1_from___bbegin:
  jmp __b1
  // @1
__b1:
  // [2] call main 
  // [4] phi from @1 to main [phi:@1->main]
main_from___b1:
  jsr main
  // [3] phi from @1 to @end [phi:@1->@end]
__bend_from___b1:
  jmp __bend
  // @end
__bend:
  // main
main: {
    .label __1 = 5
    .label screen = 6
    .label screen_2 = 3
    .label i = 2
    .label screen_3 = 3
    // [5] phi from main to main::@1 [phi:main->main::@1]
  __b1_from_main:
    // [5] phi (byte*) main::screen#3 = (byte*) 1024 [phi:main->main::@1#0] -- pbuz1=pbuc1 
    lda #<$400
    sta.z screen_3
    lda #>$400
    sta.z screen_3+1
    // [5] phi (byte) main::i#2 = (byte) 0 [phi:main->main::@1#1] -- vbuz1=vbuc1 
    lda #0
    sta.z i
    jmp __b1
    // [5] phi from main::@1 to main::@1 [phi:main::@1->main::@1]
  __b1_from___b1:
    // [5] phi (byte*) main::screen#3 = (byte*) main::screen#2 [phi:main::@1->main::@1#0] -- register_copy 
    // [5] phi (byte) main::i#2 = (byte) main::i#1 [phi:main::@1->main::@1#1] -- register_copy 
    jmp __b1
    // main::@1
  __b1:
    // [6] (byte~) main::$1 ← (byte) main::i#2 << (byte) 1 -- vbuz1=vbuz2_rol_1 
    lda.z i
    asl
    sta.z __1
    // [7] *((byte*) main::screen#3) ← (byte~) main::$1 -- _deref_pbuz1=vbuz2 
    lda.z __1
    ldy #0
    sta (screen_3),y
    // [8] (byte*) main::screen#1 ← ++ (byte*) main::screen#3 -- pbuz1=_inc_pbuz2 
    lda.z screen_3
    clc
    adc #1
    sta.z screen
    lda.z screen_3+1
    adc #0
    sta.z screen+1
    // [9] *((byte*) main::screen#1) ← (byte~) main::$1 -- _deref_pbuz1=vbuz2 
    lda.z __1
    ldy #0
    sta (screen),y
    // [10] (byte*) main::screen#2 ← ++ (byte*) main::screen#1 -- pbuz1=_inc_pbuz2 
    lda.z screen
    clc
    adc #1
    sta.z screen_2
    lda.z screen+1
    adc #0
    sta.z screen_2+1
    // [11] (byte) main::i#1 ← ++ (byte) main::i#2 -- vbuz1=_inc_vbuz1 
    inc.z i
    // [12] if((byte) main::i#1!=(byte) 3) goto main::@1 -- vbuz1_neq_vbuc1_then_la1 
    lda #3
    cmp.z i
    bne __b1_from___b1
    jmp __breturn
    // main::@return
  __breturn:
    // [13] return 
    rts
}
  // File Data

REGISTER UPLIFT POTENTIAL REGISTERS
Statement [6] (byte~) main::$1 ← (byte) main::i#2 << (byte) 1 [ main::i#2 main::screen#3 main::$1 ] ( main:2 [ main::i#2 main::screen#3 main::$1 ] ) always clobbers reg byte a 
Removing always clobbered register reg byte a as potential for zp ZP_BYTE:2 [ main::i#2 main::i#1 ]
Statement [7] *((byte*) main::screen#3) ← (byte~) main::$1 [ main::i#2 main::screen#3 main::$1 ] ( main:2 [ main::i#2 main::screen#3 main::$1 ] ) always clobbers reg byte y 
Removing always clobbered register reg byte y as potential for zp ZP_BYTE:2 [ main::i#2 main::i#1 ]
Removing always clobbered register reg byte y as potential for zp ZP_BYTE:5 [ main::$1 ]
Statement [8] (byte*) main::screen#1 ← ++ (byte*) main::screen#3 [ main::i#2 main::$1 main::screen#1 ] ( main:2 [ main::i#2 main::$1 main::screen#1 ] ) always clobbers reg byte a 
Removing always clobbered register reg byte a as potential for zp ZP_BYTE:5 [ main::$1 ]
Statement [9] *((byte*) main::screen#1) ← (byte~) main::$1 [ main::i#2 main::screen#1 ] ( main:2 [ main::i#2 main::screen#1 ] ) always clobbers reg byte a reg byte y 
Statement [10] (byte*) main::screen#2 ← ++ (byte*) main::screen#1 [ main::i#2 main::screen#2 ] ( main:2 [ main::i#2 main::screen#2 ] ) always clobbers reg byte a 
Statement [6] (byte~) main::$1 ← (byte) main::i#2 << (byte) 1 [ main::i#2 main::screen#3 main::$1 ] ( main:2 [ main::i#2 main::screen#3 main::$1 ] ) always clobbers reg byte a 
Statement [7] *((byte*) main::screen#3) ← (byte~) main::$1 [ main::i#2 main::screen#3 main::$1 ] ( main:2 [ main::i#2 main::screen#3 main::$1 ] ) always clobbers reg byte a reg byte y 
Statement [8] (byte*) main::screen#1 ← ++ (byte*) main::screen#3 [ main::i#2 main::$1 main::screen#1 ] ( main:2 [ main::i#2 main::$1 main::screen#1 ] ) always clobbers reg byte a 
Statement [9] *((byte*) main::screen#1) ← (byte~) main::$1 [ main::i#2 main::screen#1 ] ( main:2 [ main::i#2 main::screen#1 ] ) always clobbers reg byte a reg byte y 
Statement [10] (byte*) main::screen#2 ← ++ (byte*) main::screen#1 [ main::i#2 main::screen#2 ] ( main:2 [ main::i#2 main::screen#2 ] ) always clobbers reg byte a 
Potential registers zp ZP_BYTE:2 [ main::i#2 main::i#1 ] : zp ZP_BYTE:2 , reg byte x , 
Potential registers zp ZP_WORD:3 [ main::screen#3 main::screen#2 ] : zp ZP_WORD:3 , 
Potential registers zp ZP_BYTE:5 [ main::$1 ] : zp ZP_BYTE:5 , reg byte x , 
Potential registers zp ZP_WORD:6 [ main::screen#1 ] : zp ZP_WORD:6 , 

REGISTER UPLIFT SCOPES
Uplift Scope [main] 22: zp ZP_BYTE:2 [ main::i#2 main::i#1 ] 18.33: zp ZP_WORD:3 [ main::screen#3 main::screen#2 ] 16.5: zp ZP_WORD:6 [ main::screen#1 ] 11: zp ZP_BYTE:5 [ main::$1 ] 
Uplift Scope [] 

Uplifting [main] best 943 combination reg byte x [ main::i#2 main::i#1 ] zp ZP_WORD:3 [ main::screen#3 main::screen#2 ] zp ZP_WORD:6 [ main::screen#1 ] zp ZP_BYTE:5 [ main::$1 ] 
Uplifting [] best 943 combination 
Attempting to uplift remaining variables inzp ZP_BYTE:5 [ main::$1 ]
Uplifting [main] best 943 combination zp ZP_BYTE:5 [ main::$1 ] 
Coalescing zero page register [ zp ZP_WORD:3 [ main::screen#3 main::screen#2 ] ] with [ zp ZP_WORD:6 [ main::screen#1 ] ] - score: 2
Allocated (was zp ZP_WORD:3) zp ZP_WORD:2 [ main::screen#3 main::screen#2 main::screen#1 ]
Allocated (was zp ZP_BYTE:5) zp ZP_BYTE:4 [ main::$1 ]

ASSEMBLER BEFORE OPTIMIZATION
  // File Comments
// Tests optimization of identical sub-expressions
// The two examples of i*2 is detected as identical leading to optimized ASM where *2 is only calculated once
  // Upstart
.pc = $801 "Basic"
:BasicUpstart(__bbegin)
.pc = $80d "Program"
  // Global Constants & labels
  // @begin
__bbegin:
  // [1] phi from @begin to @1 [phi:@begin->@1]
__b1_from___bbegin:
  jmp __b1
  // @1
__b1:
  // [2] call main 
  // [4] phi from @1 to main [phi:@1->main]
main_from___b1:
  jsr main
  // [3] phi from @1 to @end [phi:@1->@end]
__bend_from___b1:
  jmp __bend
  // @end
__bend:
  // main
main: {
    .label __1 = 4
    .label screen = 2
    // [5] phi from main to main::@1 [phi:main->main::@1]
  __b1_from_main:
    // [5] phi (byte*) main::screen#3 = (byte*) 1024 [phi:main->main::@1#0] -- pbuz1=pbuc1 
    lda #<$400
    sta.z screen
    lda #>$400
    sta.z screen+1
    // [5] phi (byte) main::i#2 = (byte) 0 [phi:main->main::@1#1] -- vbuxx=vbuc1 
    ldx #0
    jmp __b1
    // [5] phi from main::@1 to main::@1 [phi:main::@1->main::@1]
  __b1_from___b1:
    // [5] phi (byte*) main::screen#3 = (byte*) main::screen#2 [phi:main::@1->main::@1#0] -- register_copy 
    // [5] phi (byte) main::i#2 = (byte) main::i#1 [phi:main::@1->main::@1#1] -- register_copy 
    jmp __b1
    // main::@1
  __b1:
    // [6] (byte~) main::$1 ← (byte) main::i#2 << (byte) 1 -- vbuz1=vbuxx_rol_1 
    txa
    asl
    sta.z __1
    // [7] *((byte*) main::screen#3) ← (byte~) main::$1 -- _deref_pbuz1=vbuz2 
    lda.z __1
    ldy #0
    sta (screen),y
    // [8] (byte*) main::screen#1 ← ++ (byte*) main::screen#3 -- pbuz1=_inc_pbuz1 
    inc.z screen
    bne !+
    inc.z screen+1
  !:
    // [9] *((byte*) main::screen#1) ← (byte~) main::$1 -- _deref_pbuz1=vbuz2 
    lda.z __1
    ldy #0
    sta (screen),y
    // [10] (byte*) main::screen#2 ← ++ (byte*) main::screen#1 -- pbuz1=_inc_pbuz1 
    inc.z screen
    bne !+
    inc.z screen+1
  !:
    // [11] (byte) main::i#1 ← ++ (byte) main::i#2 -- vbuxx=_inc_vbuxx 
    inx
    // [12] if((byte) main::i#1!=(byte) 3) goto main::@1 -- vbuxx_neq_vbuc1_then_la1 
    cpx #3
    bne __b1_from___b1
    jmp __breturn
    // main::@return
  __breturn:
    // [13] return 
    rts
}
  // File Data

ASSEMBLER OPTIMIZATIONS
Removing instruction jmp __b1
Removing instruction jmp __bend
Removing instruction jmp __b1
Removing instruction jmp __breturn
Succesful ASM optimization Pass5NextJumpElimination
Removing instruction lda.z __1
Succesful ASM optimization Pass5UnnecesaryLoadElimination
Replacing label __bbegin with __b1
Replacing label __b1_from___b1 with __b1
Removing instruction __bbegin:
Removing instruction __b1_from___bbegin:
Removing instruction main_from___b1:
Removing instruction __bend_from___b1:
Removing instruction __b1_from___b1:
Succesful ASM optimization Pass5RedundantLabelElimination
Removing instruction __bend:
Removing instruction __b1_from_main:
Removing instruction __breturn:
Succesful ASM optimization Pass5UnusedLabelElimination
Updating BasicUpstart to call main directly
Removing instruction jsr main
Succesful ASM optimization Pass5SkipBegin
Removing instruction jmp __b1
Succesful ASM optimization Pass5NextJumpElimination
Removing instruction __b1:
Succesful ASM optimization Pass5UnusedLabelElimination

FINAL SYMBOL TABLE
(label) @1
(label) @begin
(label) @end
(void()) main()
(byte~) main::$1 $1 zp ZP_BYTE:4 11.0
(label) main::@1
(label) main::@return
(byte) main::i
(byte) main::i#1 reg byte x 16.5
(byte) main::i#2 reg byte x 5.5
(byte*) main::screen
(byte*) main::screen#1 screen zp ZP_WORD:2 16.5
(byte*) main::screen#2 screen zp ZP_WORD:2 7.333333333333333
(byte*) main::screen#3 screen zp ZP_WORD:2 11.0

reg byte x [ main::i#2 main::i#1 ]
zp ZP_WORD:2 [ main::screen#3 main::screen#2 main::screen#1 ]
zp ZP_BYTE:4 [ main::$1 ]


FINAL ASSEMBLER
Score: 701

  // File Comments
// Tests optimization of identical sub-expressions
// The two examples of i*2 is detected as identical leading to optimized ASM where *2 is only calculated once
  // Upstart
.pc = $801 "Basic"
:BasicUpstart(main)
.pc = $80d "Program"
  // Global Constants & labels
  // @begin
  // [1] phi from @begin to @1 [phi:@begin->@1]
  // @1
  // [2] call main 
  // [4] phi from @1 to main [phi:@1->main]
  // [3] phi from @1 to @end [phi:@1->@end]
  // @end
  // main
main: {
    .label __1 = 4
    .label screen = 2
    // [5] phi from main to main::@1 [phi:main->main::@1]
    // [5] phi (byte*) main::screen#3 = (byte*) 1024 [phi:main->main::@1#0] -- pbuz1=pbuc1 
    lda #<$400
    sta.z screen
    lda #>$400
    sta.z screen+1
    // [5] phi (byte) main::i#2 = (byte) 0 [phi:main->main::@1#1] -- vbuxx=vbuc1 
    ldx #0
    // [5] phi from main::@1 to main::@1 [phi:main::@1->main::@1]
    // [5] phi (byte*) main::screen#3 = (byte*) main::screen#2 [phi:main::@1->main::@1#0] -- register_copy 
    // [5] phi (byte) main::i#2 = (byte) main::i#1 [phi:main::@1->main::@1#1] -- register_copy 
    // main::@1
  __b1:
    // i*2
    // [6] (byte~) main::$1 ← (byte) main::i#2 << (byte) 1 -- vbuz1=vbuxx_rol_1 
    txa
    asl
    sta.z __1
    // *screen++ = i*2
    // [7] *((byte*) main::screen#3) ← (byte~) main::$1 -- _deref_pbuz1=vbuz2 
    ldy #0
    sta (screen),y
    // *screen++ = i*2;
    // [8] (byte*) main::screen#1 ← ++ (byte*) main::screen#3 -- pbuz1=_inc_pbuz1 
    inc.z screen
    bne !+
    inc.z screen+1
  !:
    // *screen++ = i*2
    // [9] *((byte*) main::screen#1) ← (byte~) main::$1 -- _deref_pbuz1=vbuz2 
    lda.z __1
    ldy #0
    sta (screen),y
    // *screen++ = i*2;
    // [10] (byte*) main::screen#2 ← ++ (byte*) main::screen#1 -- pbuz1=_inc_pbuz1 
    inc.z screen
    bne !+
    inc.z screen+1
  !:
    // for( byte i: 0..2)
    // [11] (byte) main::i#1 ← ++ (byte) main::i#2 -- vbuxx=_inc_vbuxx 
    inx
    // [12] if((byte) main::i#1!=(byte) 3) goto main::@1 -- vbuxx_neq_vbuc1_then_la1 
    cpx #3
    bne __b1
    // main::@return
    // }
    // [13] return 
    rts
}
  // File Data

