(label) @1
(label) @begin
(label) @end
(void()) main()
(byte~) main::$1 $1 zp ZP_BYTE:4 11.0
(label) main::@1
(label) main::@return
(byte) main::i
(byte) main::i#1 reg byte x 16.5
(byte) main::i#2 reg byte x 5.5
(byte*) main::screen
(byte*) main::screen#1 screen zp ZP_WORD:2 16.5
(byte*) main::screen#2 screen zp ZP_WORD:2 7.333333333333333
(byte*) main::screen#3 screen zp ZP_WORD:2 11.0

reg byte x [ main::i#2 main::i#1 ]
zp ZP_WORD:2 [ main::screen#3 main::screen#2 main::screen#1 ]
zp ZP_BYTE:4 [ main::$1 ]
