(label) @1
(label) @begin
(label) @end
(void()) main()
(byte~) main::$3 reg byte a 11.0
(byte~) main::$4 reg byte a 22.0
(label) main::@1
(label) main::@2
(label) main::@3
(label) main::@return
(byte) main::i
(byte) main::i#1 reg byte x 16.5
(byte) main::i#2 reg byte x 9.166666666666666
(const byte*) main::screen screen = (byte*) 1024

reg byte x [ main::i#2 main::i#1 ]
reg byte a [ main::$3 ]
reg byte a [ main::$4 ]
