(label) @1
(label) @begin
(label) @end
(const byte*) BGCOL BGCOL = (byte*) 53280
(const byte*) FGCOL FGCOL = (byte*) 53281
(const void()**) KERNEL_IRQ KERNEL_IRQ = (void()**) 788
interrupt(KERNEL_MIN)(void()) irq()
(label) irq::@return
(void()) main()
(label) main::@1

