(label) @1
(label) @begin
(label) @end
(const byte*) BGCOL BGCOL = (byte*) 53281
(const byte) BLUE BLUE = (byte) 6
(const byte*) CIA1_PORT_A CIA1_PORT_A = (byte*) 56320
(const byte*) CIA1_PORT_A_DDR CIA1_PORT_A_DDR = (byte*) 56322
(const byte*) CIA1_PORT_B CIA1_PORT_B = (byte*) 56321
(const byte*) CIA1_PORT_B_DDR CIA1_PORT_B_DDR = (byte*) 56323
(const byte) GREEN GREEN = (byte) 5
(const byte) KEY_SPACE KEY_SPACE = (byte) $3c
(const byte*) RASTER RASTER = (byte*) 53266
(void()) keyboard_init()
(label) keyboard_init::@return
(byte()) keyboard_key_pressed((byte) keyboard_key_pressed::key)
(byte~) keyboard_key_pressed::$2 reg byte a 4.0
(label) keyboard_key_pressed::@1
(label) keyboard_key_pressed::@return
(byte) keyboard_key_pressed::colidx
(const byte) keyboard_key_pressed::colidx#0 colidx = (const byte) KEY_SPACE&(byte) 7
(byte) keyboard_key_pressed::key
(byte) keyboard_key_pressed::return
(byte) keyboard_key_pressed::return#0 reg byte a 4.333333333333333
(byte) keyboard_key_pressed::return#2 reg byte a 22.0
(byte) keyboard_key_pressed::rowidx
(const byte) keyboard_key_pressed::rowidx#0 rowidx = (const byte) KEY_SPACE>>(byte) 3
(const byte[8]) keyboard_matrix_col_bitmask keyboard_matrix_col_bitmask = { (byte) 1, (byte) 2, (byte) 4, (byte) 8, (byte) $10, (byte) $20, (byte) $40, (byte) $80 }
(byte()) keyboard_matrix_read((byte) keyboard_matrix_read::rowid)
(label) keyboard_matrix_read::@return
(byte) keyboard_matrix_read::return
(byte) keyboard_matrix_read::return#0 reg byte a 1.3333333333333333
(byte) keyboard_matrix_read::return#2 reg byte a 4.0
(byte) keyboard_matrix_read::row_pressed_bits
(byte) keyboard_matrix_read::rowid
(const byte[8]) keyboard_matrix_row_bitmask keyboard_matrix_row_bitmask = { (byte) $fe, (byte) $fd, (byte) $fb, (byte) $f7, (byte) $ef, (byte) $df, (byte) $bf, (byte) $7f }
(void()) main()
(byte~) main::$2 reg byte a 22.0
(label) main::@1
(label) main::@2
(label) main::@3
(label) main::@4
(label) main::@5

reg byte a [ keyboard_key_pressed::return#2 ]
reg byte a [ main::$2 ]
reg byte a [ keyboard_matrix_read::return#2 ]
reg byte a [ keyboard_key_pressed::$2 ]
reg byte a [ keyboard_key_pressed::return#0 ]
reg byte a [ keyboard_matrix_read::return#0 ]
