(label) @1
(label) @begin
(label) @end
(void()) main()
(word~) main::$2 $2 zp ZP_WORD:6 67.33333333333333
(word~) main::$4 $4 zp ZP_WORD:8 202.0
(word~) main::$6 $6 zp ZP_WORD:4 22.0
(byte*~) main::$7 $7 zp ZP_WORD:8 101.0
(byte*~) main::$8 $8 zp ZP_WORD:6 202.0
(byte*~) main::$9 $9 zp ZP_WORD:4 22.0
(label) main::@1
(label) main::@2
(label) main::@3
(label) main::@4
(label) main::@5
(label) main::@6
(label) main::@return
(byte) main::c
(byte) main::c#1 reg byte x 202.0
(byte) main::c#2 reg byte x 72.14285714285714
(byte) main::c1
(byte) main::c1#1 reg byte x 22.0
(byte) main::c1#2 reg byte x 8.8
(word) main::line
(word) main::line#10 line zp ZP_WORD:2 15.375
(word) main::line#2 line zp ZP_WORD:2 22.0
(const byte*) main::screen screen = (byte*) 1024

zp ZP_WORD:2 [ main::line#10 main::line#2 ]
reg byte x [ main::c1#2 main::c1#1 ]
reg byte x [ main::c#2 main::c#1 ]
zp ZP_WORD:4 [ main::$6 main::$9 ]
zp ZP_WORD:6 [ main::$2 main::$8 ]
zp ZP_WORD:8 [ main::$4 main::$7 ]
