(label) @1
(label) @begin
(label) @end
(const byte) RADIX::BINARY BINARY = (number) 2
(const byte) RADIX::DECIMAL DECIMAL = (number) $a
(const byte) RADIX::HEXADECIMAL HEXADECIMAL = (number) $10
(const byte) RADIX::OCTAL OCTAL = (number) 8
(const byte) READY_FRAMES READY_FRAMES = (byte) 5
(byte) action_count
(byte) action_count#10 reg byte x 2.0
(byte) action_count#11 reg byte x 1.25
(byte) action_count#13 reg byte x 5.0
(bool()) game_ready()
(label) game_ready::@1
(label) game_ready::@2
(label) game_ready::@3
(label) game_ready::@return
(bool) game_ready::return
(bool) game_ready::return#0 reg byte a 22.0
(bool) game_ready::return#1 reg byte a 4.333333333333333
(const string) game_ready::str str = (string) "ready"
(void()) main()
(bool~) main::$0 reg byte a 22.0
(label) main::@1
(label) main::@2
(label) main::@3
(label) main::@4
(label) main::@5
(label) main::@return
(byte) main::i
(byte) main::i#1 i zp ZP_BYTE:2 11.0
(byte) main::i#2 i zp ZP_BYTE:2 3.142857142857143
(const string) main::str str = (string) "ready!"
(byte*) print_char_cursor
(byte*) print_char_cursor#17 print_char_cursor zp ZP_WORD:7 40.6
(byte*) print_char_cursor#27 print_char_cursor zp ZP_WORD:7 5.0
(byte*) print_char_cursor#30 print_char_cursor zp ZP_WORD:7 3.25
(byte*) print_char_cursor#4 print_char_cursor zp ZP_WORD:7 101.0
(byte*~) print_char_cursor#41 print_char_cursor zp ZP_WORD:7 22.0
(byte*~) print_char_cursor#44 print_char_cursor zp ZP_WORD:7 22.0
(byte*) print_line_cursor
(byte*) print_line_cursor#13 print_line_cursor zp ZP_WORD:5 204.0
(byte*) print_line_cursor#14 print_line_cursor zp ZP_WORD:5 19.27777777777778
(byte*) print_line_cursor#22 print_line_cursor zp ZP_WORD:5 3.0
(byte*) print_line_cursor#24 print_line_cursor zp ZP_WORD:5 3.25
(void()) print_ln()
(label) print_ln::@1
(label) print_ln::@return
(byte*) print_screen
(void()) print_str((byte*) print_str::str)
(label) print_str::@1
(label) print_str::@2
(label) print_str::@return
(byte*) print_str::str
(byte*) print_str::str#0 str zp ZP_WORD:3 2.0
(byte*) print_str::str#1 str zp ZP_WORD:3 202.0
(byte*) print_str::str#2 str zp ZP_WORD:3 101.5
(void()) print_str_ln((byte*) print_str_ln::str)
(label) print_str_ln::@1
(label) print_str_ln::@return
(byte*) print_str_ln::str
(byte*) print_str_ln::str#2 str zp ZP_WORD:3 2.0

zp ZP_BYTE:2 [ main::i#2 main::i#1 ]
zp ZP_WORD:3 [ print_str_ln::str#2 print_str::str#2 print_str::str#0 print_str::str#1 ]
zp ZP_WORD:5 [ print_line_cursor#13 print_line_cursor#22 print_line_cursor#24 print_line_cursor#14 ]
zp ZP_WORD:7 [ print_char_cursor#17 print_char_cursor#27 print_char_cursor#30 print_char_cursor#44 print_char_cursor#41 print_char_cursor#4 ]
reg byte x [ action_count#10 action_count#13 action_count#11 ]
reg byte a [ game_ready::return#0 ]
reg byte a [ main::$0 ]
reg byte a [ game_ready::return#1 ]
