(label) @1
(label) @begin
(label) @end
(const byte) RADIX::BINARY BINARY = (number) 2
(const byte) RADIX::DECIMAL DECIMAL = (number) $a
(const byte) RADIX::HEXADECIMAL HEXADECIMAL = (number) $10
(const byte) RADIX::OCTAL OCTAL = (number) 8
(void()) main()
(label) main::@1
(label) main::@2
(label) main::@3
(label) main::@4
(label) main::@5
(label) main::@6
(label) main::@return
(signed word) main::a
(signed word) main::a#1 a zp ZP_WORD:2 2.5384615384615383
(signed word) main::a#2 a zp ZP_WORD:2 22.0
(word) main::b
(word) main::b#1 b zp ZP_WORD:4 2.75
(word) main::b#2 b zp ZP_WORD:4 11.0
(byte) main::i
(byte) main::i#1 reg byte x 11.0
(byte) main::i#2 reg byte x 2.0
(void()) print_byte((byte) print_byte::b)
(byte~) print_byte::$0 reg byte a 4.0
(byte~) print_byte::$2 reg byte a 4.0
(label) print_byte::@1
(label) print_byte::@return
(byte) print_byte::b
(byte) print_byte::b#0 b zp ZP_BYTE:10 4.0
(byte) print_byte::b#1 b zp ZP_BYTE:10 4.0
(byte) print_byte::b#2 b zp ZP_BYTE:10 2.0
(void()) print_char((byte) print_char::ch)
(label) print_char::@return
(byte) print_char::ch
(byte) print_char::ch#2 reg byte a 4.0
(byte) print_char::ch#3 reg byte a 4.0
(byte) print_char::ch#5 reg byte a 6.0
(byte*) print_char_cursor
(byte*) print_char_cursor#13 print_char_cursor zp ZP_WORD:11 3.5757575757575757
(byte*) print_char_cursor#33 print_char_cursor zp ZP_WORD:11 11.5
(byte*) print_char_cursor#47 print_char_cursor zp ZP_WORD:11 2.142857142857143
(byte*~) print_char_cursor#57 print_char_cursor zp ZP_WORD:11 22.0
(const byte[]) print_hextab print_hextab = (string) "0123456789abcdef"z
(byte*) print_line_cursor
(byte*) print_line_cursor#1 print_line_cursor zp ZP_WORD:6 46.42857142857143
(byte*) print_line_cursor#13 print_line_cursor zp ZP_WORD:6 1.1818181818181819
(byte*) print_line_cursor#6 print_line_cursor zp ZP_WORD:6 204.0
(void()) print_ln()
(label) print_ln::@1
(label) print_ln::@return
(byte*) print_screen
(void()) print_sword((signed word) print_sword::w)
(label) print_sword::@1
(label) print_sword::@2
(label) print_sword::@3
(label) print_sword::@4
(label) print_sword::@return
(signed word) print_sword::w
(signed word) print_sword::w#0 w zp ZP_WORD:8 4.0
(signed word) print_sword::w#1 w zp ZP_WORD:8 2.8333333333333335
(signed word) print_sword::w#4 w zp ZP_WORD:8 4.0
(void()) print_word((word) print_word::w)
(label) print_word::@1
(label) print_word::@return
(word) print_word::w
(word) print_word::w#0 w zp ZP_WORD:8 4.0
(word) print_word::w#1 w zp ZP_WORD:8 22.0
(word) print_word::w#2 w zp ZP_WORD:8 5.666666666666667

zp ZP_WORD:2 [ main::a#2 main::a#1 ]
zp ZP_WORD:4 [ main::b#2 main::b#1 ]
reg byte x [ main::i#2 main::i#1 ]
zp ZP_WORD:6 [ print_line_cursor#6 print_line_cursor#13 print_line_cursor#1 ]
zp ZP_WORD:8 [ print_word::w#2 print_word::w#1 print_word::w#0 print_sword::w#4 print_sword::w#0 print_sword::w#1 ]
zp ZP_BYTE:10 [ print_byte::b#2 print_byte::b#0 print_byte::b#1 ]
reg byte a [ print_char::ch#5 print_char::ch#2 print_char::ch#3 ]
zp ZP_WORD:11 [ print_char_cursor#33 print_char_cursor#13 print_char_cursor#47 print_char_cursor#57 ]
reg byte a [ print_byte::$0 ]
reg byte a [ print_byte::$2 ]
