(label) @1
(label) @begin
(label) @end
(const byte*) SCREEN SCREEN = (byte*) 1024
(const signed byte*) SSCREEN SSCREEN = (signed byte*) 1024
(const byte) TYPEID_BYTE TYPEID_BYTE = (number) 1
(const byte) TYPEID_SIGNED_BYTE TYPEID_SIGNED_BYTE = (number) 2
(byte) idx
(void()) main()
(label) main::@1
(label) main::@2
(label) main::@3
(label) main::@return
(void()) testSigned()
(label) testSigned::@return
(signed byte) testSigned::sbv1
(signed byte) testSigned::sbv1#0 sbv1 zp ZP_BYTE:4 20.0
(void()) testSignedVals()
(signed byte~) testSignedVals::$2 reg byte a 4.0
(signed byte~) testSignedVals::$3 reg byte a 4.0
(signed byte~) testSignedVals::$4 reg byte a 4.0
(signed byte~) testSignedVals::$5 reg byte a 4.0
(signed byte~) testSignedVals::$6 reg byte a 4.0
(label) testSignedVals::@return
(const signed byte) testSignedVals::sbc1 sbc1 = (signed byte) -$78
(signed byte) testSignedVals::sbv1
(signed byte) testSignedVals::sbv1#0 sbv1 zp ZP_BYTE:5 1.0666666666666667
(void()) testUnsigned()
(label) testUnsigned::@return
(byte) testUnsigned::ubv1
(byte) testUnsigned::ubv1#0 ubv1 zp ZP_BYTE:2 20.0
(void()) testUnsignedVals()
(byte~) testUnsignedVals::$2 reg byte x 4.0
(byte~) testUnsignedVals::$3 reg byte x 4.0
(byte~) testUnsignedVals::$4 reg byte a 4.0
(byte~) testUnsignedVals::$5 reg byte a 4.0
(byte~) testUnsignedVals::$6 reg byte a 4.0
(label) testUnsignedVals::@return
(const byte) testUnsignedVals::ubc1 ubc1 = (byte) $fa
(byte) testUnsignedVals::ubv1
(byte) testUnsignedVals::ubv1#0 ubv1 zp ZP_BYTE:3 1.0666666666666667

zp ZP_BYTE:2 [ testUnsigned::ubv1#0 ]
zp ZP_BYTE:3 [ testUnsignedVals::ubv1#0 ]
zp ZP_BYTE:4 [ testSigned::sbv1#0 ]
zp ZP_BYTE:5 [ testSignedVals::sbv1#0 ]
reg byte a [ testSignedVals::$2 ]
reg byte a [ testSignedVals::$3 ]
reg byte a [ testSignedVals::$4 ]
reg byte a [ testSignedVals::$5 ]
reg byte a [ testSignedVals::$6 ]
reg byte x [ testUnsignedVals::$2 ]
reg byte x [ testUnsignedVals::$3 ]
reg byte a [ testUnsignedVals::$4 ]
reg byte a [ testUnsignedVals::$5 ]
reg byte a [ testUnsignedVals::$6 ]
