(label) @1
(label) @begin
(label) @end
(void()) main()
(label) main::@1
(label) main::@2
(label) main::@2_1
(label) main::@2_10
(label) main::@2_11
(label) main::@2_12
(label) main::@2_13
(label) main::@2_14
(label) main::@2_15
(label) main::@2_16
(label) main::@2_17
(label) main::@2_18
(label) main::@2_19
(label) main::@2_2
(label) main::@2_20
(label) main::@2_21
(label) main::@2_22
(label) main::@2_23
(label) main::@2_24
(label) main::@2_3
(label) main::@2_4
(label) main::@2_5
(label) main::@2_6
(label) main::@2_7
(label) main::@2_8
(label) main::@2_9
(label) main::@3
(label) main::@return
(const byte*) main::SCREEN SCREEN = (byte*) 1024
(byte) main::line
(byte) main::x
(byte) main::x#1 reg byte x 16.5
(byte) main::x#4 reg byte x 22.00000000000001

reg byte x [ main::x#4 main::x#1 ]
