(label) @1
(label) @begin
(label) @end
(void()) main()
(byte~) main::$1 reg byte a 22.0
(byte~) main::$2 reg byte a 22.0
(byte~) main::$4 reg byte a 22.0
(label) main::@1
(label) main::@return
(const byte*) main::SCREEN SCREEN = (byte*) 1024
(byte) main::i
(byte) main::i#1 reg byte x 16.5
(byte) main::i#2 reg byte x 3.3000000000000003
(byte) main::idx
(byte) main::idx#1 reg byte y 11.0
(byte) main::idx#2 reg byte a 22.0
(byte) main::idx#3 idx zp ZP_BYTE:2 7.333333333333333
(byte) main::idx#4 idx zp ZP_BYTE:2 6.6000000000000005
(word) main::w
(word) main::w#0 w zp ZP_WORD:3 8.25
(const word[]) main::words words = { (word) $3130, (word) $3332, (word) $3534, (word) $3736 }

reg byte x [ main::i#2 main::i#1 ]
zp ZP_BYTE:2 [ main::idx#4 main::idx#3 ]
reg byte a [ main::$4 ]
zp ZP_WORD:3 [ main::w#0 ]
reg byte a [ main::$1 ]
reg byte y [ main::idx#1 ]
reg byte a [ main::$2 ]
reg byte a [ main::idx#2 ]
