(label) @1
(label) @begin
(label) @end
(void()) main()
(label) main::@return
(byte*) main::c
(const byte*) main::c#0 c = (byte*)&(dword) main::t#0
(dword) main::t
(dword) main::t#0 t zp ZP_DWORD:2 20.0

zp ZP_DWORD:2 [ main::t#0 ]
