(label) @1
(label) @begin
(label) @end
(const byte*) BORDERCOL BORDERCOL = (byte*) 53280
(const byte*) CIA1_INTERRUPT CIA1_INTERRUPT = (byte*) 56333
(const byte) CIA_INTERRUPT_CLEAR CIA_INTERRUPT_CLEAR = (byte) $7f
(const byte*) GHOST_BYTE GHOST_BYTE = (byte*) 16383
(const byte*) IRQ_ENABLE IRQ_ENABLE = (byte*) 53274
(const byte) IRQ_RASTER IRQ_RASTER = (byte) 1
(const byte*) IRQ_STATUS IRQ_STATUS = (byte*) 53273
(const void()**) KERNEL_IRQ KERNEL_IRQ = (void()**) 788
(const byte*) RASTER RASTER = (byte*) 53266
(const byte) RED RED = (byte) 2
(const byte*) VIC_CONTROL VIC_CONTROL = (byte*) 53265
(const byte) VIC_RSEL VIC_RSEL = (byte) 8
(const byte) WHITE WHITE = (byte) 1
interrupt(KERNEL_MIN)(void()) irq_bottom_1()
(label) irq_bottom_1::@return
interrupt(KERNEL_KEYBOARD)(void()) irq_bottom_2()
(label) irq_bottom_2::@return
(void()) main()
(label) main::@return

