(label) @1
(label) @begin
(label) @end
(const byte*) BGCOL BGCOL = (byte*) 53281
(const byte) BLACK BLACK = (byte) 0
(const byte*) BORDERCOL BORDERCOL = (byte*) 53280
(const byte*) BUFFER BUFFER = (byte*) 16384
(const byte*) CHARSET CHARSET = (byte*) 12288
(const byte*) COLS COLS = (byte*) 55296
(const byte*) D018 D018 = (byte*) 53272
(const byte*) SCREEN1 SCREEN1 = (byte*) 14336
(const byte*) SCREEN2 SCREEN2 = (byte*) 15360
(const byte) SID_CONTROL_NOISE SID_CONTROL_NOISE = (byte) $80
(const byte*) SID_VOICE3_CONTROL SID_VOICE3_CONTROL = (byte*) 54290
(const word*) SID_VOICE3_FREQ SID_VOICE3_FREQ = (word*) 54286
(const byte*) SID_VOICE3_OSC SID_VOICE3_OSC = (byte*) 54299
(const byte) YELLOW YELLOW = (byte) 7
(void()) fillscreen((byte*) fillscreen::screen , (byte) fillscreen::fill)
(label) fillscreen::@1
(label) fillscreen::@return
(byte) fillscreen::fill
(byte) fillscreen::fill#5 reg byte x 1.8333333333333333
(word) fillscreen::i
(word) fillscreen::i#1 i zp ZP_WORD:9 16.5
(word) fillscreen::i#2 i zp ZP_WORD:9 7.333333333333333
(byte*) fillscreen::screen
(byte*) fillscreen::screen#4 screen zp ZP_WORD:11 7.333333333333333
(byte*) fillscreen::screen#5 screen zp ZP_WORD:11 17.5
(byte*) fillscreen::screen#6 screen zp ZP_WORD:11 2.0
(void()) fire((byte*) fire::screenbase)
(byte~) fire::$12 reg byte a 202.0
(byte~) fire::$13 reg byte a 202.0
(byte~) fire::$14 reg byte a 202.0
(byte~) fire::$4 reg byte a 202.0
(byte~) fire::$5 reg byte a 202.0
(byte~) fire::$6 reg byte a 202.0
(label) fire::@1
(label) fire::@2
(label) fire::@3
(label) fire::@4
(label) fire::@5
(label) fire::@6
(label) fire::@7
(label) fire::@8
(label) fire::@return
(byte*) fire::buffer
(byte*) fire::buffer#10 buffer#10 zp ZP_WORD:9 45.90909090909091
(byte*) fire::buffer#2 buffer zp ZP_WORD:4 202.0
(byte*) fire::buffer#3 buffer#3 zp ZP_WORD:9 202.0
(byte*) fire::buffer#4 buffer zp ZP_WORD:4 75.75
(byte) fire::c
(byte) fire::c#0 reg byte a 202.0
(byte) fire::c#1 reg byte a 202.0
(byte) fire::c#2 reg byte a 303.0
(byte*) fire::screen
(byte*) fire::screen#0 screen zp ZP_WORD:2 0.26666666666666666
(byte*) fire::screen#1 screen zp ZP_WORD:2 4.0
(byte*) fire::screen#10 screen zp ZP_WORD:2 30.5
(byte*~) fire::screen#11 screen#11 zp ZP_WORD:11 4.0
(byte*) fire::screen#2 screen#2 zp ZP_WORD:11 101.0
(byte*) fire::screen#3 screen zp ZP_WORD:2 101.0
(byte*) fire::screen#4 screen#4 zp ZP_WORD:11 27.727272727272727
(byte*) fire::screenbase
(void()) main()
(label) main::@1
(label) main::@2
(label) main::@3
(label) main::@4
(label) main::@5
(label) main::@6
(label) main::@7
(label) main::@8
(label) main::toD0181
(byte*) main::toD0181_gfx
(byte) main::toD0181_return
(const byte) main::toD0181_return#0 toD0181_return = >(word)(const byte*) SCREEN1&(word) $3fff*(byte) 4|>(word)(const byte*) CHARSET/(byte) 4&(byte) $f
(byte*) main::toD0181_screen
(label) main::toD0182
(byte*) main::toD0182_gfx
(byte) main::toD0182_return
(const byte) main::toD0182_return#0 toD0182_return = >(word)(const byte*) SCREEN2&(word) $3fff*(byte) 4|>(word)(const byte*) CHARSET/(byte) 4&(byte) $f
(byte*) main::toD0182_screen
(void()) makecharset((byte*) makecharset::charset)
(byte~) makecharset::$11 reg byte a 2002.0
(byte~) makecharset::$12 reg byte a 2002.0
(byte~) makecharset::$13 $13 zp ZP_BYTE:13 2002.0
(word~) makecharset::$15 $15 zp ZP_WORD:11 202.0
(word~) makecharset::$16 $16 zp ZP_WORD:11 202.0
(word~) makecharset::$17 $17 zp ZP_WORD:11 202.0
(byte*~) makecharset::$18 $18 zp ZP_WORD:11 202.0
(label) makecharset::@1
(label) makecharset::@10
(label) makecharset::@11
(label) makecharset::@12
(label) makecharset::@2
(label) makecharset::@3
(label) makecharset::@4
(label) makecharset::@5
(label) makecharset::@6
(label) makecharset::@7
(label) makecharset::@8
(label) makecharset::@9
(label) makecharset::@return
(byte) makecharset::b
(byte) makecharset::b#1 reg byte y 2002.0
(byte) makecharset::b#2 reg byte y 258.6666666666667
(byte) makecharset::b#6 reg byte y 1501.5
(byte) makecharset::bc
(byte) makecharset::bc#1 reg byte x 2002.0
(byte) makecharset::bc#2 reg byte x 400.4
(byte) makecharset::bc#3 reg byte x 275.5
(byte) makecharset::bc#6 reg byte x 101.0
(byte) makecharset::bc#7 reg byte x 1501.5
(const byte[8]) makecharset::bittab bittab = { (byte) 1, (byte) 2, (byte) 4, (byte) 8, (byte) $10, (byte) $20, (byte) $40, (byte) $80 }
(byte) makecharset::c
(byte) makecharset::c#1 c zp ZP_BYTE:6 22.0
(byte) makecharset::c#2 c zp ZP_BYTE:6 49.238095238095234
(byte*) makecharset::charset
(byte*) makecharset::font
(byte*) makecharset::font#1 font zp ZP_WORD:2 22.0
(byte*) makecharset::font#2 font zp ZP_WORD:2 14.666666666666666
(byte*) makecharset::font1
(byte*) makecharset::font1#1 font1 zp ZP_WORD:4 22.0
(byte*) makecharset::font1#2 font1 zp ZP_WORD:4 14.666666666666666
(byte) makecharset::i
(byte) makecharset::i#1 i zp ZP_BYTE:7 202.0
(byte) makecharset::i#2 i zp ZP_BYTE:7 78.05555555555556
(byte) makecharset::ii
(byte) makecharset::ii#1 ii zp ZP_BYTE:8 2002.0
(byte) makecharset::ii#2 ii zp ZP_BYTE:8 400.4
(byte()) sid_rnd()
(label) sid_rnd::@return
(byte) sid_rnd::return
(byte) sid_rnd::return#0 reg byte a 34.33333333333333
(byte) sid_rnd::return#2 reg byte a 202.0
(void()) sid_rnd_init()
(label) sid_rnd_init::@return

reg byte a [ fire::c#2 fire::c#0 fire::c#1 ]
zp ZP_WORD:2 [ makecharset::font#2 makecharset::font#1 fire::screen#0 fire::screen#10 fire::screen#3 fire::screen#1 ]
zp ZP_WORD:4 [ makecharset::font1#2 makecharset::font1#1 fire::buffer#4 fire::buffer#2 ]
zp ZP_BYTE:6 [ makecharset::c#2 makecharset::c#1 ]
zp ZP_BYTE:7 [ makecharset::i#2 makecharset::i#1 ]
reg byte x [ makecharset::bc#6 makecharset::bc#3 makecharset::bc#7 makecharset::bc#1 makecharset::bc#2 ]
zp ZP_BYTE:8 [ makecharset::ii#2 makecharset::ii#1 ]
reg byte y [ makecharset::b#2 makecharset::b#6 makecharset::b#1 ]
reg byte x [ fillscreen::fill#5 ]
zp ZP_WORD:9 [ fillscreen::i#2 fillscreen::i#1 fire::buffer#10 fire::buffer#3 ]
reg byte a [ sid_rnd::return#2 ]
reg byte a [ fire::$12 ]
reg byte a [ fire::$13 ]
reg byte a [ fire::$14 ]
reg byte a [ fire::$4 ]
reg byte a [ fire::$5 ]
reg byte a [ fire::$6 ]
reg byte a [ sid_rnd::return#0 ]
zp ZP_WORD:11 [ makecharset::$15 makecharset::$16 makecharset::$17 makecharset::$18 fillscreen::screen#5 fillscreen::screen#6 fillscreen::screen#4 fire::screen#4 fire::screen#11 fire::screen#2 ]
reg byte a [ makecharset::$11 ]
reg byte a [ makecharset::$12 ]
zp ZP_BYTE:13 [ makecharset::$13 ]
